target,selecte values,selected_f,selected count
like,top_5,language_indexed,21
like,top_5,tweet_type_indexed,21
like,top_5,user_domains_frequency_12h_binned,21
like,top_5,ratio_all_to_engaged_with_count_negative_tweets_reply_binned,21
like,top_5,user_hashtags_frequency_1h_binned,4
like,top_5,ratio_all_to_links_user_proxy_count_negative_tweets_quote_binned,17
like,top_10,language_indexed,21
like,top_10,tweet_type_indexed,21
like,top_10,user_domains_frequency_12h_binned,21
like,top_10,ratio_all_to_engaged_with_count_negative_tweets_reply_binned,21
like,top_10,user_hashtags_frequency_1h_binned,21
like,top_10,hashtags_frequency_1h_binned,21
like,top_10,domains_frequency_48h_binned,21
like,top_10,hashtags_frequency_12h_binned,21
like,top_10,ratio_all_to_hashtags_user_proxy_count_positive_tweets_react_binned,21
like,top_10,user_links_frequency_2h_binned,4
like,top_10,ratio_all_to_links_user_proxy_count_negative_tweets_quote_binned,17
reply,top_5,language_indexed,21
reply,top_5,tweet_type_indexed,21
reply,top_5,user_domains_frequency_12h_binned,21
reply,top_5,ratio_all_to_engaged_with_count_negative_tweets_reply_binned,21
reply,top_5,user_hashtags_frequency_1h_binned,7
reply,top_5,ratio_all_to_links_user_proxy_count_negative_tweets_quote_binned,14
reply,top_10,language_indexed,21
reply,top_10,tweet_type_indexed,21
reply,top_10,user_domains_frequency_12h_binned,21
reply,top_10,ratio_all_to_engaged_with_count_negative_tweets_reply_binned,21
reply,top_10,user_hashtags_frequency_1h_binned,21
reply,top_10,hashtags_frequency_1h_binned,21
reply,top_10,domains_frequency_48h_binned,21
reply,top_10,hashtags_frequency_12h_binned,21
reply,top_10,ratio_all_to_hashtags_user_proxy_count_positive_tweets_react_binned,21
reply,top_10,user_links_frequency_2h_binned,7
reply,top_10,ratio_all_to_links_user_proxy_count_negative_tweets_quote_binned,14
retweet,top_5,language_indexed,21
retweet,top_5,tweet_type_indexed,21
retweet,top_5,user_domains_frequency_12h_binned,21
retweet,top_5,ratio_all_to_engaged_with_count_negative_tweets_reply_binned,21
retweet,top_5,user_hashtags_frequency_1h_binned,4
retweet,top_5,ratio_all_to_links_user_proxy_count_negative_tweets_quote_binned,17
retweet,top_10,language_indexed,21
retweet,top_10,tweet_type_indexed,21
retweet,top_10,user_domains_frequency_12h_binned,21
retweet,top_10,ratio_all_to_engaged_with_count_negative_tweets_reply_binned,21
retweet,top_10,user_hashtags_frequency_1h_binned,21
retweet,top_10,hashtags_frequency_1h_binned,21
retweet,top_10,domains_frequency_48h_binned,21
retweet,top_10,hashtags_frequency_12h_binned,21
retweet,top_10,ratio_all_to_hashtags_user_proxy_count_positive_tweets_react_binned,21
retweet,top_10,user_links_frequency_2h_binned,4
retweet,top_10,ratio_all_to_links_user_proxy_count_negative_tweets_quote_binned,17
quote,top_5,language_indexed,21
quote,top_5,engaging_user_follower_count_binned,4
quote,top_5,ratio_all_to_engaged_with_count_positive_tweets_react_binned,1
quote,top_5,ratio_all_to_engaged_with_count_positive_tweets_retweet_binned,2
quote,top_5,domains_frequency_24h_binned,1
quote,top_5,tweet_type_indexed,18
quote,top_5,ratio_all_to_links_user_proxy_count_negative_tweets_quote_binned,15
quote,top_5,ratio_all_to_engaged_with_count_negative_tweets_reply_binned,15
quote,top_5,user_hashtags_frequency_1h_binned,5
quote,top_5,ratio_all_to_engaging_count_positive_tweets_retweet_binned,2
quote,top_5,ratio_all_to_engaging_count_positive_tweets_reply_binned,1
quote,top_5,ratio_all_to_domains_user_proxy_count_negative_tweets_retweet_binned,1
quote,top_5,ratio_all_to_hashtags_user_proxy_count_positive_tweets_react_binned,3
quote,top_5,ratio_all_to_hashtags_user_proxy_count_positive_tweets_quote_binned,3
quote,top_5,engageds_tweets_views_count_12h_binned,1
quote,top_5,domains_frequency_48h_binned,1
quote,top_5,user_domains_frequency_12h_binned,10
quote,top_5,ratio_all_to_engaging_count_negative_tweets_quote_binned,1
quote,top_10,language_indexed,21
quote,top_10,engaging_user_follower_count_binned,7
quote,top_10,ratio_all_to_engaged_with_count_positive_tweets_react_binned,5
quote,top_10,ratio_all_to_engaged_with_count_positive_tweets_retweet_binned,3
quote,top_10,domains_frequency_24h_binned,1
quote,top_10,ratio_all_to_links_user_proxy_count_positive_tweets_react_binned,2
quote,top_10,ratio_all_to_engaging_count_negative_tweets_quote_binned,3
quote,top_10,ratio_all_to_engaged_with_count_negative_tweets_retweet_binned,2
quote,top_10,engaging_user_following_count_binned,2
quote,top_10,ratio_engaged_to_engaging_follower_counts_binned,2
quote,top_10,tweet_type_indexed,18
quote,top_10,ratio_all_to_links_user_proxy_count_negative_tweets_quote_binned,15
quote,top_10,ratio_all_to_engaged_with_count_negative_tweets_reply_binned,15
quote,top_10,user_hashtags_frequency_1h_binned,14
quote,top_10,hashtags_frequency_1h_binned,13
quote,top_10,hashtags_frequency_12h_binned,13
quote,top_10,ratio_all_to_hashtags_user_proxy_count_positive_tweets_react_binned,16
quote,top_10,links_frequency_48h_binned,4
quote,top_10,ratio_all_to_hashtags_user_proxy_count_positive_tweets_quote_binned,6
quote,top_10,ratio_all_to_engaging_count_positive_tweets_retweet_binned,5
quote,top_10,ratio_all_to_engaging_count_positive_tweets_reply_binned,2
quote,top_10,ratio_all_to_domains_user_proxy_count_negative_tweets_retweet_binned,4
quote,top_10,ratio_all_to_engaging_count_negative_tweets_retweet_binned,1
quote,top_10,ratio_all_to_domains_user_proxy_count_positive_tweets_retweet_binned,2
quote,top_10,ratio_all_to_domains_user_proxy_count_positive_tweets_quote_binned,1
quote,top_10,engageds_tweets_views_count_12h_binned,1
quote,top_10,engageds_tweets_views_count_24h_binned,1
quote,top_10,engageds_tweets_views_count_05h_binned,1
quote,top_10,engageds_tweets_views_count_48h_binned,1
quote,top_10,ratio_all_to_domains_user_proxy_count_negative_tweets_quote_binned,3
quote,top_10,ratio_all_to_hashtags_user_proxy_count_negative_tweets_quote_binned,1
quote,top_10,domains_frequency_48h_binned,12
quote,top_10,user_domains_frequency_12h_binned,10
quote,top_10,user_links_frequency_2h_binned,1
quote,top_10,engageds_tweets_views_count_2h_binned,1
quote,top_10,engaged_with_user_follower_count_binned,1
react,top_5,language_indexed,21
react,top_5,tweet_type_indexed,21
react,top_5,user_domains_frequency_12h_binned,21
react,top_5,ratio_all_to_engaged_with_count_negative_tweets_reply_binned,21
react,top_5,user_hashtags_frequency_1h_binned,4
react,top_5,ratio_all_to_links_user_proxy_count_negative_tweets_quote_binned,17
react,top_10,language_indexed,21
react,top_10,tweet_type_indexed,21
react,top_10,user_domains_frequency_12h_binned,21
react,top_10,ratio_all_to_engaged_with_count_negative_tweets_reply_binned,21
react,top_10,user_hashtags_frequency_1h_binned,21
react,top_10,hashtags_frequency_1h_binned,21
react,top_10,domains_frequency_48h_binned,21
react,top_10,hashtags_frequency_12h_binned,21
react,top_10,ratio_all_to_hashtags_user_proxy_count_positive_tweets_react_binned,21
react,top_10,user_links_frequency_2h_binned,4
react,top_10,ratio_all_to_links_user_proxy_count_negative_tweets_quote_binned,17
