algorithm,note,trained_on,sample,feature_selection,like,reply,retweet,quote,react
bayes,scaled,train,train_random_sample_10pct,top_25,0.6540980668601135,0.2447267332584409,0.29891611542903623,0.09995359869620347,0.7138814461778613
bayes,scaled,train,train_random_sample_10pct,top_50,0.6686859082504988,0.3574817288849606,0.3477005756573154,0.16083148772970415,0.7177973563849293
bayes,scaled,train,train_random_sample_10pct,all,0.6754422374276389,0.3652883488311992,0.41333103046348907,0.2789990620832361,0.7238813029140709
bayes,scaled,train,val_random_sample_10pct,top_5,0.5444487328998489,0.035137708608634674,0.1143744402036454,0.5034201550236721,0.6131332671852976
bayes,scaled,train,val_random_sample_10pct,top_10,0.6282207985876447,0.04767897085812857,0.12484723109720393,0.5034201550236721,0.6855843470797676
bayes,scaled,train,val_random_sample_10pct,top_25,0.5935094094000861,0.2270848829654512,0.240313235766695,0.05662768649368768,0.6641141455195856
bayes,scaled,train,val_random_sample_10pct,top_50,0.6194863738494383,0.3750374838945063,0.29791292408673786,0.10445042003797116,0.689592560730607
bayes,scaled,train,val_random_sample_10pct,all,0.6620758222631656,0.3656772923381975,0.419056869471006,0.2887480977631664,0.7093089956203361
bayes,scaled,train,test_random_sample_10pct,top_5,0.5247698610475096,0.03254328354054395,0.11614347988416393,0.503431423671464,0.6076142391221366
bayes,scaled,train,test_random_sample_10pct,top_10,0.6296552759167905,0.044080476930584735,0.12494896497845892,0.503431423671464,0.6862638489854958
bayes,scaled,train,test_random_sample_10pct,top_25,0.5884455539555391,0.22015361868361288,0.23261366400158745,0.04152022344461985,0.6591370471356561
bayes,scaled,train,test_random_sample_10pct,top_50,0.6103064589551257,0.37098043782575657,0.2791737620943665,0.07031243697553419,0.6828714596588111
bayes,scaled,train,test_random_sample_10pct,all,0.6635107041026251,0.3643236331914578,0.4145605337414333,0.2790711696389222,0.7097454381394486
bayes,scaled,train,val+test_random_sample_10pct,top_5,0.5489925423261982,0.03369457054825989,0.11537640685274887,0.5034258111703352,0.6143118630934514
bayes,scaled,train,val+test_random_sample_10pct,top_10,0.6187262695779371,0.0440902826103728,0.12608578149920488,0.5034258111703352,0.6796046906787035
bayes,scaled,train,val+test_random_sample_10pct,top_25,0.6096436973958412,0.2310933932025401,0.2366396372922222,0.04376087605189982,0.6740610279825909
bayes,scaled,train,val+test_random_sample_10pct,top_50,0.6359673834367812,0.3643081540290458,0.2817232120429939,0.08136441174688322,0.6930689023857703
bayes,scaled,train,val+test_random_sample_10pct,all,0.6667077012797675,0.3613198997218887,0.4181574506786772,0.2811230529911126,0.7108283805169968
bayes,scaled,train,train_EWU_sample_10pct,top_5,0.5497265857125522,0.05066376687080816,0.11759712238915547,0.5039894482469155,0.6434159334711977
bayes,scaled,train,train_EWU_sample_10pct,top_10,0.628494294996045,0.11760813144921956,0.145702386801096,0.5039894482469155,0.6930055346036078
bayes,scaled,train,train_EWU_sample_10pct,top_25,0.6705377450072085,0.2914183302313041,0.3342225067654861,0.13145540812657786,0.7288737098256285
bayes,scaled,train,train_EWU_sample_10pct,top_50,0.6756233362970756,0.3471664946555227,0.4019779851763777,0.2338886361016687,0.7307917139975454
bayes,scaled,train,train_EWU_sample_10pct,all,0.6872905759957216,0.5139780170831331,0.4308079311029105,0.5039894482469155,0.7405988054590971
bayes,scaled,train,val_EWU_sample_10pct,top_5,0.4861213860392937,0.04850392136170563,0.12024291276256174,0.5033743784039783,0.6398112325139721
bayes,scaled,train,val_EWU_sample_10pct,top_10,0.499609390300825,0.03611421234432214,0.14309401141996025,0.5033743784039783,0.5827903560006846
bayes,scaled,train,val_EWU_sample_10pct,top_25,0.5967210333112859,0.09749379569970798,0.3932209511140784,0.2470073563279111,0.5840814477668799
bayes,scaled,train,val_EWU_sample_10pct,top_50,0.5455336518209981,0.04739593900015759,0.3197640641464481,0.1819612690017718,0.6303784345273872
bayes,scaled,train,val_EWU_sample_10pct,all,0.5655185710574223,0.5128739766229431,0.3243198371054302,0.5033743784039783,0.5864692604182127
bayes,scaled,train,test_EWU_sample_10pct,top_5,0.5188245597972302,0.04719847356906372,0.12518713596088146,0.5034305915948976,0.6429842655112921
bayes,scaled,train,test_EWU_sample_10pct,top_10,0.5103794128055588,0.03589401446131369,0.1459670541252462,0.5034305915948976,0.5988438763467266
bayes,scaled,train,test_EWU_sample_10pct,top_25,0.5945655917983157,0.10199488679620776,0.3778421085322067,0.2410658709495913,0.5841393300175031
bayes,scaled,train,test_EWU_sample_10pct,top_50,0.5687205085559314,0.04274188017878607,0.30265369512949203,0.17863125183957887,0.6430957188327574
bayes,scaled,train,test_EWU_sample_10pct,all,0.5655713506978179,0.5129613052779557,0.3168302814774772,0.5034305915948976,0.5855373945570052
bayes,scaled,train,val+test_EWU_sample_10pct,top_5,0.4902859830875237,0.04789044874655758,0.12221805697717482,0.5034100006291301,0.6414040868918145
bayes,scaled,train,val+test_EWU_sample_10pct,top_10,0.5134163387223394,0.036583871628750216,0.14722018075263454,0.5034100006291301,0.5879818020775477
bayes,scaled,train,val+test_EWU_sample_10pct,top_25,0.5996517408400102,0.08415550985084531,0.3848972618801577,0.2366463701538708,0.587006703206561
bayes,scaled,train,val+test_EWU_sample_10pct,top_50,0.5565137548558102,0.04202595129160551,0.31703154288964475,0.17305631893824436,0.6333837359922367
bayes,scaled,train,val+test_EWU_sample_10pct,all,0.5637539896355009,0.5129156371154442,0.3244511439604256,0.5034100006291301,0.5887409721948137
bayes,scaled,train,train_EU_sample_10pct,top_5,0.5020574499690102,0.035698757347096766,0.11998430642358555,0.5039929064164812,0.6203612128042512
bayes,scaled,train,train_EU_sample_10pct,top_10,0.6221220285109103,0.04348569424736237,0.15946260095548925,0.5039929064164812,0.6937546776389037
bayes,scaled,train,train_EU_sample_10pct,top_25,0.6649891582135803,0.2495310907511927,0.3578487157997329,0.1294582039335369,0.7173632611167823
bayes,scaled,train,train_EU_sample_10pct,top_50,0.6727008181726467,0.3588887139729634,0.4184227915512651,0.18673420761668186,0.7205618259697838
bayes,scaled,train,train_EU_sample_10pct,all,0.6980645696978904,0.3672126246222427,0.42375576336795895,0.28598549827439984,0.7380987750062534
bayes,scaled,train,val_EU_sample_10pct,top_5,0.539586571845651,0.03608226657603558,0.1126953906965676,0.5035680709180831,0.6101224585851837
bayes,scaled,train,val_EU_sample_10pct,top_10,0.6296566990383593,0.05623738847665859,0.12245481052270725,0.5035680709180831,0.6862516887969665
bayes,scaled,train,val_EU_sample_10pct,top_25,0.7042207000246916,0.20675001644191046,0.2761071059818894,0.0831375622014085,0.7390369922866088
bayes,scaled,train,val_EU_sample_10pct,top_50,0.7008150465875512,0.38158854668913866,0.447736239374568,0.21182652719484885,0.7391562450926297
bayes,scaled,train,val_EU_sample_10pct,all,0.6832483628556563,0.36290725950715264,0.4326676503727219,0.3025421238032193,0.7221261589064981
bayes,scaled,train,test_EU_sample_10pct,top_5,0.5204617933648886,0.03174752286678269,0.11334241848481127,0.5034866229304068,0.6063500367880119
bayes,scaled,train,test_EU_sample_10pct,top_10,0.6289406987427322,0.052412111473568175,0.12697614358078865,0.5034866229304068,0.6862521619769865
bayes,scaled,train,test_EU_sample_10pct,top_25,0.6948524295453009,0.212612003271252,0.25554038359675924,0.08033740839749506,0.7310711658837863
bayes,scaled,train,test_EU_sample_10pct,top_50,0.693576323234407,0.3864544955128292,0.4340243447918943,0.21228300021692675,0.7344698537805474
bayes,scaled,train,test_EU_sample_10pct,all,0.6793064380222317,0.3689434096686776,0.4335078529657278,0.29556024327971986,0.7198092825647534
bayes,scaled,train,val+test_EU_sample_10pct,top_5,0.5397390646076214,0.03460484742362086,0.11296236866840545,0.5035272321322534,0.6143652928334026
bayes,scaled,train,val+test_EU_sample_10pct,top_10,0.634074530707178,0.061119011835196385,0.12721420106822975,0.5035272321322534,0.6891277337211175
bayes,scaled,train,val+test_EU_sample_10pct,top_25,0.7011176733623764,0.2030580696014117,0.2475922747626657,0.06511645402957049,0.7349443219386798
bayes,scaled,train,val+test_EU_sample_10pct,top_50,0.6981949240274854,0.3710882817223071,0.40816418131167786,0.17949004296803428,0.7358928408051058
bayes,scaled,train,val+test_EU_sample_10pct,all,0.6821599713683146,0.3590501708258046,0.4238385228608501,0.2887772319559404,0.7197467825747514
bayes,scaled,train,train_inter_EWU+EU_sample_10pct,top_5,0.5184155884880768,0.03857711723983075,0.12300229140971415,0.5039889446807725,0.6318288963965611
bayes,scaled,train,train_inter_EWU+EU_sample_10pct,top_10,0.6283689416722794,0.05923285319913533,0.15284554363978253,0.5039889446807725,0.6990304516173989
bayes,scaled,train,train_inter_EWU+EU_sample_10pct,top_25,0.6717972355582332,0.27538550047982824,0.3299876728917555,0.11439685791041787,0.7285144161032464
bayes,scaled,train,train_inter_EWU+EU_sample_10pct,top_50,0.6781001240370439,0.3563995562901425,0.39580051529770577,0.1990947702776032,0.7315847107130393
bayes,scaled,train,train_inter_EWU+EU_sample_10pct,all,0.6896600572371069,0.36004096688894593,0.42671688639326905,0.5039889446807725,0.7414517028074601
bayes,scaled,train,val_inter_EWU+EU_sample_10pct,top_5,0.5143387615413417,0.03645731525196254,0.12417115595474924,0.5034484691609594,0.6118599989889548
bayes,scaled,train,val_inter_EWU+EU_sample_10pct,top_10,0.5403716570520347,0.036457261858015226,0.1496575793122143,0.5034484691609594,0.6722072966956594
bayes,scaled,train,val_inter_EWU+EU_sample_10pct,top_25,0.5353993658812958,0.12938099998565974,0.3627879221997121,0.21420307965867247,0.6038920239105714
bayes,scaled,train,val_inter_EWU+EU_sample_10pct,top_50,0.5474158902696034,0.24789988401181445,0.3686279946943519,0.2181270301574938,0.5922912698667769
bayes,scaled,train,val_inter_EWU+EU_sample_10pct,all,0.5611290649944387,0.2535450219153332,0.3427348014709635,0.5034484691609594,0.6166855006106198
bayes,scaled,train,test_inter_EWU+EU_sample_10pct,top_5,0.5243713646203003,0.038396587501560935,0.1205527146769147,0.5034031917124888,0.6163351687091269
bayes,scaled,train,test_inter_EWU+EU_sample_10pct,top_10,0.5167737966924723,0.036741624373597855,0.14227055218356954,0.5034031917124888,0.6362880456859719
bayes,scaled,train,test_inter_EWU+EU_sample_10pct,top_25,0.5393338048076459,0.14945687380465994,0.3701837916318697,0.22460140595305567,0.622364934197651
bayes,scaled,train,test_inter_EWU+EU_sample_10pct,top_50,0.551467453220933,0.2657071911997981,0.3730043008520923,0.22365503078692567,0.6124617309620577
bayes,scaled,train,test_inter_EWU+EU_sample_10pct,all,0.5638255293140085,0.264257088428862,0.3476205097576212,0.5034031917124888,0.6189308327722827
bayes,scaled,train,val+test_inter_EWU+EU_sample_10pct,top_5,0.4993591261987562,0.0372685287765592,0.1227291651903741,0.5034256341261891,0.6128256739366946
bayes,scaled,train,val+test_inter_EWU+EU_sample_10pct,top_10,0.5302892605977068,0.035804616357419404,0.15062283980989807,0.5034256341261891,0.6328096261589431
bayes,scaled,train,val+test_inter_EWU+EU_sample_10pct,top_25,0.5324358954390936,0.1370064414830618,0.34706668491869497,0.2116494391032844,0.6094844403148741
bayes,scaled,train,val+test_inter_EWU+EU_sample_10pct,top_50,0.5498645439169748,0.2519407181895026,0.34971079219407203,0.2120887291880276,0.599392792934803
bayes,scaled,train,val+test_inter_EWU+EU_sample_10pct,all,0.5617015467041386,0.2532706292731598,0.3325805944126671,0.5034256341261891,0.613515323461657
bayes,scaled,train,train_tweet_sample_10pct,top_5,0.4911344997082197,0.03525409231254188,0.11812041019790315,0.5040261568240092,0.6261395032605993
bayes,scaled,train,train_tweet_sample_10pct,top_10,0.6270233537889587,0.04385855569644848,0.14818515464522652,0.5040261568240092,0.7010913475567513
bayes,scaled,train,train_tweet_sample_10pct,top_25,0.6575624855754914,0.268920912872191,0.2920597772810967,0.12190305019734295,0.7169040420228879
bayes,scaled,train,train_tweet_sample_10pct,top_50,0.6445914051924513,0.3583174513929077,0.3361566811401983,0.18780281015652145,0.7309706130325293
bayes,scaled,train,train_tweet_sample_10pct,all,0.6742206316184713,0.3625461231323133,0.3963249450732511,0.5040261568240092,0.731115831961995
bayes,scaled,train,val_tweet_sample_10pct,top_5,0.5331116484062394,0.034789629507293585,0.11558017177440465,0.5034622067936029,0.608974002297543
bayes,scaled,train,val_tweet_sample_10pct,top_10,0.6658319480858669,0.055147938457483316,0.1277805355927248,0.5034622067936029,0.7093274218089789
bayes,scaled,train,val_tweet_sample_10pct,top_25,0.5871217209771071,0.3012364416944183,0.21410213587385613,0.0523965722809699,0.6533219358954054
bayes,scaled,train,val_tweet_sample_10pct,top_50,0.5935721992372626,0.4061669188135008,0.2649637628828493,0.14766665998893802,0.6835226764608889
bayes,scaled,train,val_tweet_sample_10pct,all,0.6495647538411456,0.38851987766661467,0.400804716682825,0.5034622067936029,0.7084548546251417
bayes,scaled,train,test_tweet_sample_10pct,top_5,0.5316498457669178,0.03137183587695014,0.1145035672316409,0.5034556505534931,0.6069767728987159
bayes,scaled,train,test_tweet_sample_10pct,top_10,0.6659270722742756,0.05342554867290362,0.12963315533842915,0.5034556505534931,0.7096311599833722
bayes,scaled,train,test_tweet_sample_10pct,top_25,0.5965487227745999,0.3099325993092355,0.2250128573916611,0.06648883373079306,0.6637167586533927
bayes,scaled,train,test_tweet_sample_10pct,top_50,0.5992261832559312,0.41030580369549297,0.2856641393413053,0.17508956405665188,0.6950397734351383
bayes,scaled,train,test_tweet_sample_10pct,all,0.653517453669178,0.3909434126308527,0.4051992564874041,0.5034556505534931,0.7105408202870072
bayes,scaled,train,val+test_tweet_sample_10pct,top_5,0.5323236772644028,0.033077065237064544,0.11544018389505688,0.5034589179929122,0.6075767056247665
bayes,scaled,train,val+test_tweet_sample_10pct,top_10,0.6683939276060709,0.054580514152429725,0.12916610477061827,0.5034589179929122,0.7107135027346181
bayes,scaled,train,val+test_tweet_sample_10pct,top_25,0.5938721784944929,0.2879174984403349,0.2131041446392468,0.045832854918773286,0.6573456719859843
bayes,scaled,train,val+test_tweet_sample_10pct,top_50,0.5974653553142681,0.3975316080059431,0.2597241589087474,0.13499593711475272,0.6889549216964912
bayes,scaled,train,val+test_tweet_sample_10pct,all,0.655910088240854,0.3862840182728088,0.40049607348296784,0.5034589179929122,0.7123994926693548
bayes,scaled,train,train_random_sample_1pct,top_5,0.4896664971266767,0.03215572257084757,0.1183608848748989,0.5039742541506596,0.6181420611253904
bayes,scaled,train,train_random_sample_1pct,top_10,0.6301911800122252,0.03676943909651362,0.13251690669985774,0.5039742541506596,0.6964674446267538
bayes,scaled,train,train_random_sample_1pct,top_25,0.6170843392319055,0.10966915840043204,0.26543627035189005,0.07410438210444018,0.6854716028405049
bayes,scaled,train,train_random_sample_1pct,top_50,0.6362078313604488,0.20977791078015628,0.2890077451954656,0.12127732899221555,0.6946104951439972
bayes,scaled,train,train_random_sample_1pct,all,0.6412396528403969,0.5137210393418182,0.5553035478945226,0.5039742541506596,0.6959805053978269
bayes,scaled,train,val_random_sample_1pct,top_5,0.5029110906352501,0.030715530593254294,0.11497051816466967,0.5033164165066426,0.5896962874314685
bayes,scaled,train,val_random_sample_1pct,top_10,0.6633552397031994,0.040767288136613185,0.11545301486067605,0.5033164165066426,0.7124119228760982
bayes,scaled,train,val_random_sample_1pct,top_25,0.5639204916933913,0.07879998890105143,0.17130631411643024,0.0352005552954634,0.6244296722739912
bayes,scaled,train,val_random_sample_1pct,top_50,0.6034063423071595,0.24908155710451566,0.1976546922523636,0.04032548456454266,0.6661432493988108
bayes,scaled,train,val_random_sample_1pct,all,0.6440604006404967,0.512917858682447,0.5494278324254419,0.5033164165066426,0.6896718304361844
bayes,scaled,train,test_random_sample_1pct,top_5,0.5015878170649342,0.028186403834581188,0.10886870782230987,0.5033449043687952,0.5888349249912856
bayes,scaled,train,test_random_sample_1pct,top_10,0.649533069479254,0.04181707103887162,0.11564290459734798,0.5033449043687952,0.7095774315423056
bayes,scaled,train,test_random_sample_1pct,top_25,0.5707289148985133,0.08899920049556617,0.17600100930533316,0.03218643775951916,0.6326518074374199
bayes,scaled,train,test_random_sample_1pct,top_50,0.608515825931603,0.2636453136423985,0.20563362845274866,0.040969107013125006,0.6705260478630604
bayes,scaled,train,test_random_sample_1pct,all,0.6438662756461615,0.5132532112054297,0.5497554524858279,0.5033449043687952,0.6897367030464244
bayes,scaled,train,val+test_random_sample_1pct,top_5,0.500348572172266,0.029584013298278467,0.11348719491362548,0.5033307143101151,0.6027703074283379
bayes,scaled,train,val+test_random_sample_1pct,top_10,0.6627901908198139,0.0432121805754286,0.11529021443716304,0.5033307143101151,0.7120693437984006
bayes,scaled,train,val+test_random_sample_1pct,top_25,0.5768964148488398,0.08924871148688883,0.17433179686267267,0.027666946911511864,0.6350198538237273
bayes,scaled,train,val+test_random_sample_1pct,top_50,0.6233944052348346,0.27084038692919304,0.20242686806971036,0.0364560895338417,0.6772968750676422
bayes,scaled,train,val+test_random_sample_1pct,all,0.646296017870561,0.5130861691173241,0.5495922620064321,0.5033307143101151,0.6909448756548969
bayes,scaled,train,train_EWU_sample_1pct,top_5,0.5475231087944755,0.08504452250628998,0.1325512985640213,0.003948685460880583,0.6400375790243338
bayes,scaled,train,train_EWU_sample_1pct,top_10,0.6268325227250114,0.17639816197953184,0.13266018274155095,0.01658413371772956,0.6882265569764543
bayes,scaled,train,train_EWU_sample_1pct,top_25,0.6569855983977703,0.29750615201307484,0.3344687368559443,0.14965847182284706,0.721369243358963
bayes,scaled,train,train_EWU_sample_1pct,top_50,0.6631366393181954,0.3539642139065106,0.39607569556848216,0.2377737523548163,0.7190937928954838
bayes,scaled,train,train_EWU_sample_1pct,all,0.6766067975104731,0.5142210959771936,0.5562014570795059,0.5039486854608806,0.7301669481802694
bayes,scaled,train,val_EWU_sample_1pct,top_5,0.4870546883813529,0.0582184710811479,0.1253682327669524,0.003575697621697374,0.7043896201804553
bayes,scaled,train,val_EWU_sample_1pct,top_10,0.4914807850426738,0.04477237745066822,0.12837983198146485,0.5035756976216974,0.5565209862153137
bayes,scaled,train,val_EWU_sample_1pct,top_25,0.4876691414136825,0.17454759660932967,0.3891502564319288,0.27604213266551536,0.5808740412016158
bayes,scaled,train,val_EWU_sample_1pct,top_50,0.7097759779069288,0.06729654419558635,0.3117623678847016,0.19091919421832887,0.558971017521292
bayes,scaled,train,val_EWU_sample_1pct,all,0.4785054457026543,0.5126592061333004,0.5524916532706814,0.5035756976216974,0.543311670323145
bayes,scaled,train,test_EWU_sample_1pct,top_5,0.49164452368972494,0.0610669303421244,0.12587354867298872,0.00321766090968175,0.7133481246101355
bayes,scaled,train,test_EWU_sample_1pct,top_10,0.4796155620054496,0.03600274271187706,0.12882141178827736,0.5032176609096818,0.5519989032553284
bayes,scaled,train,test_EWU_sample_1pct,top_25,0.4868386677801185,0.16563724973001798,0.3996813133793307,0.2706017549124575,0.5802718017325117
bayes,scaled,train,test_EWU_sample_1pct,top_50,0.7110556903902,0.06808693028950644,0.3301510669679744,0.20085548321057212,0.5504151789636016
bayes,scaled,train,test_EWU_sample_1pct,all,0.4750812929629696,0.5134140234612229,0.5484939855311805,0.5032176609096818,0.538707448880699
bayes,scaled,train,val+test_EWU_sample_1pct,top_5,0.4872333035381575,0.059448361813397625,0.1254037635623554,0.003399667890686796,0.7087802866654951
bayes,scaled,train,val+test_EWU_sample_1pct,top_10,0.4892651689166572,0.04355931223970418,0.12852147105559034,0.5033996678906868,0.5571264256468027
bayes,scaled,train,val+test_EWU_sample_1pct,top_25,0.4893533777129254,0.16556658559520188,0.39127097209126704,0.2700874431120126,0.5781764956887391
bayes,scaled,train,val+test_EWU_sample_1pct,top_50,0.7103979981487478,0.06504613699668954,0.31809709769159644,0.1924847456968064,0.5554740760273642
bayes,scaled,train,val+test_EWU_sample_1pct,all,0.4767937223053696,0.513030314141885,0.5505261889670562,0.5033996678906868,0.542668959112839
bayes,scaled,train,train_EU_sample_1pct,top_5,0.4922745945976728,0.03124353140332807,0.12399748003693135,0.5040547740768978,0.6196317212996518
bayes,scaled,train,train_EU_sample_1pct,top_10,0.625897272626851,0.03625408359929248,0.14023405698769015,0.5040547740768978,0.6914628768989883
bayes,scaled,train,train_EU_sample_1pct,top_25,0.6475433196544288,0.09148341866726667,0.338308039125894,0.0955562536639568,0.7016612253659011
bayes,scaled,train,train_EU_sample_1pct,top_50,0.6748961074442917,0.2045454418350625,0.4239996327524845,0.1559793942596268,0.7109372259615716
bayes,scaled,train,train_EU_sample_1pct,all,0.6835416512780199,0.5137646446660287,0.5558390867992429,0.5040547740768978,0.7269327880145339
bayes,scaled,train,val_EU_sample_1pct,top_5,0.5033152069920037,0.028045699217453198,0.11934855203404833,0.5035227852572909,0.5922362363393623
bayes,scaled,train,val_EU_sample_1pct,top_10,0.6362884147301835,0.03244514877892635,0.1232053300471758,0.5035227852572909,0.6964494625527962
bayes,scaled,train,val_EU_sample_1pct,top_25,0.7046891273252346,0.03762467209439643,0.2245470699206409,0.033971623861160864,0.7353826749252355
bayes,scaled,train,val_EU_sample_1pct,top_50,0.6903026940679464,0.2688717764377115,0.5070409804150801,0.2007543829559767,0.7347357014789431
bayes,scaled,train,val_EU_sample_1pct,all,0.6679120137894615,0.5122855909251481,0.5507614711308239,0.5035227852572909,0.7062175154814292
bayes,scaled,train,test_EU_sample_1pct,top_5,0.5059653114875855,0.023124663343855927,0.11054998893708916,0.5032568691215703,0.5932795397520704
bayes,scaled,train,test_EU_sample_1pct,top_10,0.6454518617282223,0.03862590132704298,0.11579651136214235,0.5032568691215703,0.7096735885251816
bayes,scaled,train,test_EU_sample_1pct,top_25,0.7078307376416734,0.049618745076132544,0.21874431485679452,0.046555848702200295,0.7381198239518157
bayes,scaled,train,test_EU_sample_1pct,top_50,0.6932818601908606,0.27537605107967555,0.506158369225836,0.2025501049188092,0.736706152812141
bayes,scaled,train,test_EU_sample_1pct,all,0.6743771195632798,0.5127694584542286,0.5494080190057056,0.5032568691215703,0.7090538913227813
bayes,scaled,train,val+test_EU_sample_1pct,top_5,0.5047682796325077,0.02484382434949648,0.11412488222740218,0.5033893086494571,0.5921415181309304
bayes,scaled,train,val+test_EU_sample_1pct,top_10,0.6399936620487803,0.035973316515750337,0.12105213929190192,0.5033893086494571,0.7049389079037137
bayes,scaled,train,val+test_EU_sample_1pct,top_25,0.7062394261253899,0.04524956869334162,0.22925811696086695,0.03962011890100095,0.7370056439754393
bayes,scaled,train,val+test_EU_sample_1pct,top_50,0.6939361033876453,0.26930761489254285,0.5073475326710986,0.2068679289843322,0.735830689220884
bayes,scaled,train,val+test_EU_sample_1pct,all,0.6715193449797506,0.512528468237755,0.5500821058187612,0.5033893086494571,0.7070201348697581
bayes,scaled,train,train_inter_EWU+EU_sample_1pct,top_5,0.492783155628045,0.03521739356902407,0.1184798913605406,0.5040036160079622,0.6196890847829528
bayes,scaled,train,train_inter_EWU+EU_sample_1pct,top_10,0.6257706304015654,0.04336858842264602,0.13371285485459067,0.5040036160079622,0.6974062913353529
bayes,scaled,train,train_inter_EWU+EU_sample_1pct,top_25,0.6521029777580041,0.24680362798096545,0.2918990111789486,0.10469695243918578,0.7133217727079777
bayes,scaled,train,train_inter_EWU+EU_sample_1pct,top_50,0.6687180253541877,0.370767049759596,0.3455175840798305,0.15966745944851798,0.7182534208590549
bayes,scaled,train,train_inter_EWU+EU_sample_1pct,all,0.6766699634000662,0.513626923504927,0.5560099877840948,0.5040036160079622,0.7267585074100487
bayes,scaled,train,val_inter_EWU+EU_sample_1pct,top_5,0.505989879687844,0.03176063918647529,0.12222889860777515,0.503364366287375,0.6423794003605972
bayes,scaled,train,val_inter_EWU+EU_sample_1pct,top_10,0.4909407634843705,0.029921231247319813,0.13329869646222905,0.503364366287375,0.5811858267613149
bayes,scaled,train,val_inter_EWU+EU_sample_1pct,top_25,0.5044763314041356,0.05400865632558431,0.392488734051473,0.2473472864544505,0.6110719658254301
bayes,scaled,train,val_inter_EWU+EU_sample_1pct,top_50,0.5292339421051007,0.03904819012326032,0.3590216563698425,0.2299461373666531,0.5567383780141388
bayes,scaled,train,val_inter_EWU+EU_sample_1pct,all,0.4845989130914499,0.5129353233830846,0.550967932614157,0.503364366287375,0.5533109410213688
bayes,scaled,train,test_inter_EWU+EU_sample_1pct,top_5,0.5009061405522051,0.0313485564088414,0.12415606345096797,0.5034101981162715,0.6337499671804251
bayes,scaled,train,test_inter_EWU+EU_sample_1pct,top_10,0.5017574157356027,0.026904263254495502,0.12858343500190872,0.5034101981162715,0.5820239223141216
bayes,scaled,train,test_inter_EWU+EU_sample_1pct,top_25,0.5098321215573908,0.042993948600771284,0.3971225066455316,0.2584384913522909,0.6127453236123153
bayes,scaled,train,test_inter_EWU+EU_sample_1pct,top_50,0.5071165626501124,0.02625773375238877,0.3615467444513028,0.23405086812303336,0.5597561430907939
bayes,scaled,train,test_inter_EWU+EU_sample_1pct,all,0.4900966917541621,0.5125926363341108,0.5496078026120248,0.5034101981162715,0.5568049136541704
bayes,scaled,train,val+test_inter_EWU+EU_sample_1pct,top_5,0.5032060572342124,0.03169809625451632,0.123239834664037,0.5033872937098743,0.6380040915569929
bayes,scaled,train,val+test_inter_EWU+EU_sample_1pct,top_10,0.4933672506614793,0.025189414720111585,0.1343675783450535,0.5033872937098743,0.5807400651639854
bayes,scaled,train,val+test_inter_EWU+EU_sample_1pct,top_25,0.5092881702386162,0.05136102724038563,0.4024459948731932,0.26683264103814874,0.6132499951457546
bayes,scaled,train,val+test_inter_EWU+EU_sample_1pct,top_50,0.5148982211434802,0.035356074028828316,0.3729518468179796,0.2535743452800322,0.5613824912860026
bayes,scaled,train,val+test_inter_EWU+EU_sample_1pct,all,0.4896367448701065,0.5127638938122809,0.5502875260939777,0.5033872937098743,0.5574202408353884
bayes,scaled,train,train_tweet_sample_1pct,top_5,0.5038686143997405,0.031644552603274194,0.12196715969291433,0.5040296878410827,0.6207383855247759
bayes,scaled,train,train_tweet_sample_1pct,top_10,0.5381834067967439,0.04871285050407241,0.1228445445422447,0.5040296878410827,0.6413861271908363
bayes,scaled,train,train_tweet_sample_1pct,top_25,0.6194004604388638,0.2260187607091864,0.27709514770057264,0.11950932111542666,0.6815842661596865
bayes,scaled,train,train_tweet_sample_1pct,top_50,0.6089316018955018,0.3268179864452365,0.3252222793054895,0.18339286903070373,0.6940679984405459
bayes,scaled,train,train_tweet_sample_1pct,all,0.6365251450176507,0.5139545326971653,0.5555736426856269,0.5040296878410827,0.699981999207416
bayes,scaled,train,val_tweet_sample_1pct,top_5,0.5119569836316449,0.02752360501929321,0.10136105396450816,0.5033559011179833,0.5882659349973691
bayes,scaled,train,val_tweet_sample_1pct,top_10,0.6573348446695603,0.053732752521273804,0.11157143004041964,0.5033559011179833,0.7049418437652748
bayes,scaled,train,val_tweet_sample_1pct,top_25,0.5303859274826244,0.23103991524004802,0.17772169556826678,0.021274531037094143,0.6079644536683737
bayes,scaled,train,val_tweet_sample_1pct,top_50,0.5433995424185654,0.4109055684822569,0.2751492107252409,0.12708501864206634,0.6310748070057535
bayes,scaled,train,val_tweet_sample_1pct,all,0.5965973062598242,0.5124724406376212,0.5489776208221958,0.5033559011179833,0.6721206887015801
bayes,scaled,train,test_tweet_sample_1pct,top_5,0.5147886741246562,0.031517471756036856,0.10391909029356827,0.5034005628517824,0.6088259935781192
bayes,scaled,train,test_tweet_sample_1pct,top_10,0.6588562200257984,0.051987566472662575,0.10339506303280747,0.5034005628517824,0.707197298192317
bayes,scaled,train,test_tweet_sample_1pct,top_25,0.5296040650391439,0.2357318324664099,0.17036607534590714,0.022524611899874727,0.6118446640173834
bayes,scaled,train,test_tweet_sample_1pct,top_50,0.5495039938859705,0.40603875194766587,0.28103849823981497,0.12401297184613637,0.6358457145865518
bayes,scaled,train,test_tweet_sample_1pct,all,0.5997101854168669,0.5131869527829893,0.5488879768605378,0.5034005628517824,0.6750073639648219
bayes,scaled,train,val+test_tweet_sample_1pct,top_5,0.5150392320173207,0.028451522445851286,0.10411321879011197,0.5033782134523194,0.6070750725784514
bayes,scaled,train,val+test_tweet_sample_1pct,top_10,0.6461652745831561,0.05015772420057733,0.10799188902127847,0.5033782134523194,0.7034223418413673
bayes,scaled,train,val+test_tweet_sample_1pct,top_25,0.5273317476630281,0.22110442280433826,0.17279259016113738,0.016792345067035433,0.6087879234058224
bayes,scaled,train,val+test_tweet_sample_1pct,top_50,0.5438919660812845,0.4023567915648828,0.2668674595619265,0.10580888391451944,0.6284290691480057
bayes,scaled,train,val+test_tweet_sample_1pct,all,0.5988734758987676,0.5128294002206579,0.5489328360394841,0.5033782134523194,0.6739252378762717
bayes,scaled,train,train_random_sample_2pct,top_5,0.4904321810465301,0.032839469312218886,0.11816787699253788,0.5040175924064921,0.6188405134851285
bayes,scaled,train,train_random_sample_2pct,top_10,0.6225323544763081,0.03653322222960531,0.13954471531114784,0.5040175924064921,0.6997060342700104
bayes,scaled,train,train_random_sample_2pct,top_25,0.6300418807620758,0.12582000748948388,0.26863530932021185,0.06293241996765529,0.6957068283337929
bayes,scaled,train,train_random_sample_2pct,top_50,0.6510403482089184,0.2822239853778148,0.2976164412248238,0.11919659595815915,0.7063837599458216
bayes,scaled,train,train_random_sample_2pct,all,0.6560160375557806,0.5137350448677303,0.555367668975027,0.5040175924064921,0.7054439042376067
bayes,scaled,train,val_random_sample_2pct,top_5,0.5000919659705675,0.03662594429493999,0.1148354085038312,0.5033432464953386,0.59295418759944
bayes,scaled,train,val_random_sample_2pct,top_10,0.656203491845019,0.04384256576750421,0.11781970761819813,0.5033432464953386,0.7081483100079514
bayes,scaled,train,val_random_sample_2pct,top_25,0.5813676901472655,0.12805872147464584,0.1967387032360888,0.037515143743323744,0.6490620926830563
bayes,scaled,train,val_random_sample_2pct,top_50,0.6255036087859807,0.3384645947474121,0.228935601797896,0.04397424640712115,0.6880775758576483
bayes,scaled,train,val_random_sample_2pct,all,0.6558144178402074,0.5129009694681133,0.5496302129699376,0.5033432464953386,0.6993164072342349
bayes,scaled,train,test_random_sample_2pct,top_5,0.5012237594114867,0.03660935145305038,0.10954987273398717,0.5034876609129565,0.5926921203179502
bayes,scaled,train,test_random_sample_2pct,top_10,0.6399213458679445,0.046341952860868264,0.11790242365459798,0.5034876609129565,0.7013293546850501
bayes,scaled,train,test_random_sample_2pct,top_25,0.5853586896567048,0.12485705855356495,0.20194334830569635,0.03654111626618994,0.6539470247037338
bayes,scaled,train,test_random_sample_2pct,top_50,0.6203570131983319,0.3313566636837638,0.22250621888497504,0.03948227091439351,0.6857592333866658
bayes,scaled,train,test_random_sample_2pct,all,0.6505930992901523,0.5131108867444615,0.5498417567908666,0.5034876609129565,0.6958687863480644
bayes,scaled,train,val+test_random_sample_2pct,top_5,0.5008213595721447,0.033618898140250264,0.1147542308894733,0.5034157298990873,0.5936259500096355
bayes,scaled,train,val+test_random_sample_2pct,top_10,0.6536933134944666,0.04706097521282157,0.11958726159971113,0.5034157298990873,0.7047464350733563
bayes,scaled,train,val+test_random_sample_2pct,top_25,0.5771402525940372,0.1198374543112694,0.19369234966478024,0.03256226225910628,0.6451068771177776
bayes,scaled,train,val+test_random_sample_2pct,top_50,0.6203539165119064,0.3234027114888617,0.2175027617938588,0.036814330655517334,0.6813538219832833
bayes,scaled,train,val+test_random_sample_2pct,all,0.654063062885495,0.5130063295765177,0.5497363894614257,0.5034157298990873,0.6962419345958942
bayes,scaled,train,train_EWU_sample_2pct,top_5,0.5438594022242379,0.04248669152087335,0.11727757606630447,0.5038522325089249,0.6469992981887374
bayes,scaled,train,train_EWU_sample_2pct,top_10,0.6339533776391977,0.11041358125814024,0.13886967780299347,0.5038522325089249,0.6941651261344182
bayes,scaled,train,train_EWU_sample_2pct,top_25,0.6666842134003604,0.3051709188426872,0.33868916377006225,0.1683119795084866,0.7262048966638086
bayes,scaled,train,train_EWU_sample_2pct,top_50,0.6732896405858326,0.3559899713004359,0.4059614075795233,0.2769650244935557,0.726291408014179
bayes,scaled,train,train_EWU_sample_2pct,all,0.6810216067620124,0.5135151397602501,0.5550953104286169,0.5038522325089249,0.7365632900354391
bayes,scaled,train,val_EWU_sample_2pct,top_5,0.4885913308514162,0.0384257966467427,0.11216089272024796,0.5034994285158435,0.7002752982733047
bayes,scaled,train,val_EWU_sample_2pct,top_10,0.706305780501447,0.03337468014835144,0.10415235524724598,0.5034994285158435,0.5411237110983722
bayes,scaled,train,val_EWU_sample_2pct,top_25,0.5121645590336732,0.08114378111287966,0.4300539272568701,0.2751750012635211,0.5837953611738353
bayes,scaled,train,val_EWU_sample_2pct,top_50,0.5185366269925529,0.012781790326110746,0.3488337136030593,0.2023240257691528,0.5884167371028105
bayes,scaled,train,val_EWU_sample_2pct,all,0.5210007478919666,0.5127817903261107,0.5494832324116632,0.5034994285158435,0.5524104488252275
bayes,scaled,train,test_EWU_sample_2pct,top_5,0.515848485778555,0.03904770881475565,0.11340808087922867,0.5033684648735366,0.7074512687412995
bayes,scaled,train,test_EWU_sample_2pct,top_10,0.7089717424634723,0.03268977046733768,0.11376006417719045,0.5033684648735366,0.5586057760742226
bayes,scaled,train,test_EWU_sample_2pct,top_25,0.4924116714959147,0.07871097534524799,0.4232103464764653,0.2891194664612588,0.5793657903181957
bayes,scaled,train,test_EWU_sample_2pct,top_50,0.501231438659236,0.01277833622711627,0.3502343152880063,0.2099633576765656,0.5544348020096167
bayes,scaled,train,test_EWU_sample_2pct,all,0.5059915181489613,0.5127783362271162,0.5491816178785017,0.5033684648735366,0.5469743869136011
bayes,scaled,train,val+test_EWU_sample_2pct,top_5,0.5025993506164134,0.038743701701231766,0.11637794580422073,0.5034353505771538,0.7037805084221319
bayes,scaled,train,val+test_EWU_sample_2pct,top_10,0.7076101833428967,0.031319807227338355,0.1093972381520194,0.5034353505771538,0.5513109054969539
bayes,scaled,train,val+test_EWU_sample_2pct,top_25,0.5073210259187693,0.07033233107276637,0.4234449917532567,0.2686660220235608,0.5750839390207769
bayes,scaled,train,val+test_EWU_sample_2pct,top_50,0.5087337439587744,0.012780100303294508,0.3395011513451075,0.1909607734537961,0.5927229162432868
bayes,scaled,train,val+test_EWU_sample_2pct,all,0.514809124601121,0.5127801003032945,0.5493356583428346,0.5034353505771538,0.5504102768780137
bayes,scaled,train,train_EU_sample_2pct,top_5,0.4919836873236626,0.029513715767899795,0.1216002805220396,0.5040854765119448,0.6228919787305326
bayes,scaled,train,train_EU_sample_2pct,top_10,0.6216696452654675,0.036407484460979134,0.15030961677275473,0.5040854765119448,0.6980285590314425
bayes,scaled,train,train_EU_sample_2pct,top_25,0.6520218785787392,0.12437582172641397,0.3416919386464473,0.0826907982650933,0.7066461713062119
bayes,scaled,train,train_EU_sample_2pct,top_50,0.6607570837193828,0.277298128229549,0.41540287904012907,0.14069532627471798,0.7118404106026365
bayes,scaled,train,train_EU_sample_2pct,all,0.68703566220317,0.5138195520838927,0.5556766390929267,0.5040854765119448,0.728514180586867
bayes,scaled,train,val_EU_sample_2pct,top_5,0.5051292569167176,0.02833847807846588,0.11388820293180492,0.5035188676935133,0.5956672576389729
bayes,scaled,train,val_EU_sample_2pct,top_10,0.6336921854048182,0.04194291338602012,0.1163140375661495,0.5035188676935133,0.6974900007298905
bayes,scaled,train,val_EU_sample_2pct,top_25,0.7076670497124231,0.052253689560845834,0.2303224165048293,0.03488607420978648,0.7385152436836618
bayes,scaled,train,val_EU_sample_2pct,top_50,0.7069663011374268,0.2644337033356819,0.4345602937034614,0.0954732684457218,0.74032488398372
bayes,scaled,train,val_EU_sample_2pct,all,0.6788929241938751,0.512596419913314,0.5494135220510812,0.5035188676935133,0.7143081333941721
bayes,scaled,train,test_EU_sample_2pct,top_5,0.5102186907821051,0.027444884306142187,0.11467123064593095,0.5034662423410355,0.5994527594130092
bayes,scaled,train,test_EU_sample_2pct,top_10,0.6512550352762281,0.03812606395563623,0.12114749512581137,0.5034662423410355,0.7041150598716948
bayes,scaled,train,test_EU_sample_2pct,top_25,0.7103422728808396,0.055263468903808115,0.2261514373262403,0.03973454215205667,0.7413037014640247
bayes,scaled,train,test_EU_sample_2pct,top_50,0.708885166883256,0.26357362892470104,0.4269116743374968,0.1025335321171315,0.7418906312365122
bayes,scaled,train,test_EU_sample_2pct,all,0.6818823149187506,0.5128316458950861,0.5503514755179958,0.5034662423410355,0.7162483027332768
bayes,scaled,train,val+test_EU_sample_2pct,top_5,0.5076119076321236,0.02759701477311569,0.1151042382756265,0.5034924302245098,0.5976042979326608
bayes,scaled,train,val+test_EU_sample_2pct,top_10,0.6396387722801482,0.04057071182084263,0.12034867509894714,0.5034924302245098,0.6990014802834371
bayes,scaled,train,val+test_EU_sample_2pct,top_25,0.7087113294077062,0.052988593089154525,0.20906309309828647,0.028259270383623407,0.7393533390715121
bayes,scaled,train,val+test_EU_sample_2pct,top_50,0.7074100178469789,0.2426245757053385,0.4107028566291651,0.07643291856276964,0.7402802370389794
bayes,scaled,train,val+test_EU_sample_2pct,all,0.6811757940138927,0.5127145907057,0.5498847229939852,0.5034924302245098,0.7150231077381844
bayes,scaled,train,train_inter_EWU+EU_sample_2pct,top_5,0.5062874005787574,0.03594983358846016,0.12460842587279405,0.5040513548367971,0.6260522003918545
bayes,scaled,train,train_inter_EWU+EU_sample_2pct,top_10,0.6296068511508186,0.04661639291971322,0.13387786534859358,0.5040513548367971,0.6975731154083104
bayes,scaled,train,train_inter_EWU+EU_sample_2pct,top_25,0.6640508421609608,0.2574170498174073,0.3114981736203987,0.11081667617628936,0.7216940079724774
bayes,scaled,train,train_inter_EWU+EU_sample_2pct,top_50,0.6740880757097927,0.3631975283166771,0.3698430342169313,0.19285228104636368,0.7281534524868375
bayes,scaled,train,train_inter_EWU+EU_sample_2pct,all,0.6839930690915679,0.5137611420750448,0.5556862875890625,0.5040513548367971,0.7361465456475438
bayes,scaled,train,val_inter_EWU+EU_sample_2pct,top_5,0.500423238432365,0.04057355296745335,0.1325705612217412,0.5034110051226826,0.6322407038239861
bayes,scaled,train,val_inter_EWU+EU_sample_2pct,top_10,0.5134114913291596,0.03195839107507965,0.13471489423375332,0.5034110051226826,0.5870828918810275
bayes,scaled,train,val_inter_EWU+EU_sample_2pct,top_25,0.5402844666444381,0.08333090351660635,0.40984602767832856,0.25953931930319063,0.637179832455063
bayes,scaled,train,val_inter_EWU+EU_sample_2pct,top_50,0.5205146807118328,0.053948313120812864,0.3787543909729255,0.22314028053271887,0.5883185018416626
bayes,scaled,train,val_inter_EWU+EU_sample_2pct,all,0.5064227577416189,0.5125399514901227,0.5495596073762677,0.5034110051226826,0.5707193176692759
bayes,scaled,train,test_inter_EWU+EU_sample_2pct,top_5,0.4925613920641683,0.03659700571207857,0.12956003356661375,0.5034003694228508,0.6299125404509489
bayes,scaled,train,test_inter_EWU+EU_sample_2pct,top_10,0.5149732029613961,0.03351554245993873,0.13390312951119535,0.5034003694228508,0.574154471308827
bayes,scaled,train,test_inter_EWU+EU_sample_2pct,top_25,0.5069483146317539,0.0572593347978506,0.3935212333243072,0.2516289537629409,0.6106755528289758
bayes,scaled,train,test_inter_EWU+EU_sample_2pct,top_50,0.5039678648518324,0.046414154569686436,0.3597406192343179,0.22144342714560505,0.5600586881318593
bayes,scaled,train,test_inter_EWU+EU_sample_2pct,all,0.5028211988525721,0.5128409012337143,0.549188059937376,0.5034003694228508,0.5660260823722252
bayes,scaled,train,val+test_inter_EWU+EU_sample_2pct,top_5,0.4990705265294648,0.037500197861904935,0.13059042774658206,0.5033998654578257,0.632181466436593
bayes,scaled,train,val+test_inter_EWU+EU_sample_2pct,top_10,0.5165765560372755,0.03192138504263944,0.1379982409215673,0.5033998654578257,0.5777709500496525
bayes,scaled,train,val+test_inter_EWU+EU_sample_2pct,top_25,0.5258278080838389,0.0783096376879663,0.4166362874157651,0.2753490879601981,0.6259024714849992
bayes,scaled,train,val+test_inter_EWU+EU_sample_2pct,top_50,0.5192057709028877,0.05133241358456896,0.3839924471058421,0.23791002966885835,0.5785539103287812
bayes,scaled,train,val+test_inter_EWU+EU_sample_2pct,all,0.5035383139814902,0.5128044398917547,0.5496506490131026,0.5033998654578257,0.5668122104654527
bayes,scaled,train,train_tweet_sample_2pct,top_5,0.4911226286305408,0.031055032689668707,0.12307815251772265,0.5040345956346282,0.6234050220804856
bayes,scaled,train,train_tweet_sample_2pct,top_10,0.6228604883984459,0.0423940838502397,0.12496484071992155,0.5040345956346282,0.6932766402132938
bayes,scaled,train,train_tweet_sample_2pct,top_25,0.6290717983016982,0.2276524339827092,0.27487789613339103,0.12738361541188598,0.6910722292618918
bayes,scaled,train,train_tweet_sample_2pct,top_50,0.6142062532653826,0.3496468726388432,0.308550549041675,0.1924264173942992,0.7033103031009039
bayes,scaled,train,train_tweet_sample_2pct,all,0.6472384879712385,0.5140084833643599,0.5559961393820513,0.5040345956346282,0.7144686836695442
bayes,scaled,train,val_tweet_sample_2pct,top_5,0.5073434595530323,0.025800144637191342,0.10913059809855337,0.5034784761701322,0.5956584538406281
bayes,scaled,train,val_tweet_sample_2pct,top_10,0.6561308426133189,0.04834652040417218,0.11504940203202825,0.5034784761701322,0.7080061490184808
bayes,scaled,train,val_tweet_sample_2pct,top_25,0.5570692090141154,0.2408942621594104,0.16900304752267584,0.03132275141549642,0.6260378011427872
bayes,scaled,train,val_tweet_sample_2pct,top_50,0.5659281599302374,0.40953039147959575,0.24414237583730936,0.1703894647971158,0.6599374054114757
bayes,scaled,train,val_tweet_sample_2pct,all,0.6198762333602159,0.5126832086454576,0.5493856229458057,0.5034784761701322,0.6897395397982327
bayes,scaled,train,test_tweet_sample_2pct,top_5,0.5236565949495606,0.027961999305415645,0.11086487410824612,0.5034619978048226,0.5971930642156402
bayes,scaled,train,test_tweet_sample_2pct,top_10,0.6706107857041002,0.04777138402626906,0.1179275165804388,0.5034619978048226,0.7129543051527234
bayes,scaled,train,test_tweet_sample_2pct,top_25,0.5542558566541147,0.2511475636049499,0.1773069698779618,0.04449333211092681,0.6260746533257001
bayes,scaled,train,test_tweet_sample_2pct,top_50,0.5634442474731954,0.4180910190825852,0.26172567587638673,0.18170073788155147,0.6616496682912997
bayes,scaled,train,test_tweet_sample_2pct,all,0.6179969779309129,0.5128084248393507,0.5495413819947103,0.5034619978048226,0.6884739681556639
bayes,scaled,train,val+test_tweet_sample_2pct,top_5,0.5092603464705254,0.028156991296056224,0.11010964391238742,0.5034702203014549,0.5968317422445691
bayes,scaled,train,val+test_tweet_sample_2pct,top_10,0.6566756815071303,0.04788176816740543,0.11723703639230748,0.5034702203014549,0.709272511625417
bayes,scaled,train,val+test_tweet_sample_2pct,top_25,0.5623052797427657,0.2471450382696523,0.1774168737009184,0.05024279813713069,0.6297451560416387
bayes,scaled,train,val+test_tweet_sample_2pct,top_50,0.567012498631593,0.4090671073996593,0.25943948563872404,0.17671642720919406,0.6635168294307718
bayes,scaled,train,val+test_tweet_sample_2pct,all,0.6208995108224028,0.5127459435365481,0.5494636601921521,0.5034702203014549,0.6907710804633681
bayes,scaled,train,train_random_sample_5pct,top_5,0.4936912999480276,0.03225208077103142,0.1179556194135952,0.5039956951822678,0.6107497061867433
bayes,scaled,train,train_random_sample_5pct,top_10,0.6231108939489189,0.0372157705417312,0.1452440720285456,0.5039956951822678,0.6954258040111776
bayes,scaled,train,train_random_sample_5pct,top_25,0.6403527629409119,0.19475457788066164,0.286034925668745,0.0979214685221862,0.7030591363554148
bayes,scaled,train,train_random_sample_5pct,top_50,0.6614318265819475,0.35035455460175297,0.3217710248343071,0.1460251551683274,0.7124137697687348
bayes,scaled,train,train_random_sample_5pct,all,0.6689160123161579,0.5137884337392579,0.5552748204002963,0.5039956951822678,0.7160786731973923
bayes,scaled,train,val_random_sample_5pct,top_5,0.5124810763813217,0.03164358998850708,0.11312478606522798,0.5033429439725707,0.5986257958870707
bayes,scaled,train,val_random_sample_5pct,top_10,0.6373284605347395,0.0443706828141788,0.11690515155409488,0.5033429439725707,0.6925786541731933
bayes,scaled,train,val_random_sample_5pct,top_25,0.5866285189330926,0.18696480435965432,0.21898056421332035,0.04377617265361905,0.6558536121065591
bayes,scaled,train,val_random_sample_5pct,top_50,0.6317677509799712,0.37531278197840784,0.2687399154920159,0.06794168884147457,0.6955031857710682
bayes,scaled,train,val_random_sample_5pct,all,0.6618606292255529,0.5129733889191928,0.5494292059534014,0.5033429439725707,0.7066982163512012
bayes,scaled,train,test_random_sample_5pct,top_5,0.5231567009035654,0.03379963479374961,0.11536676827509106,0.5034439162634426,0.6000598201427338
bayes,scaled,train,test_random_sample_5pct,top_10,0.6367810698409464,0.04511406677353375,0.11992641747914275,0.5034439162634426,0.6927346393541058
bayes,scaled,train,test_random_sample_5pct,top_25,0.5841699755349861,0.19156698848161915,0.21731564726714814,0.04334239233048262,0.6539786787935875
bayes,scaled,train,test_random_sample_5pct,top_50,0.6301414061415374,0.3757646863388486,0.2526387784890785,0.053898862419902126,0.6925215082714884
bayes,scaled,train,test_random_sample_5pct,all,0.6600578606666951,0.5129202438095533,0.5497768172143618,0.5034439162634426,0.7051854284328176
bayes,scaled,train,val+test_random_sample_5pct,top_5,0.5121217902635464,0.03187810709961493,0.11423438367586886,0.5033936245462635,0.5995114902724407
bayes,scaled,train,val+test_random_sample_5pct,top_10,0.6379818308323101,0.04504311552284032,0.12153994898730695,0.5033936245462635,0.6921506476765917
bayes,scaled,train,val+test_random_sample_5pct,top_25,0.5822981347550844,0.17083503588670487,0.21399518001108275,0.03766520440239124,0.6499881649252643
bayes,scaled,train,val+test_random_sample_5pct,top_50,0.6246703614514353,0.35982254934031577,0.2494365417839393,0.046850513973916284,0.6872294494245171
bayes,scaled,train,val+test_random_sample_5pct,all,0.6583544802036692,0.5129467140302482,0.5496036809304014,0.5033936245462635,0.7035877135981139
bayes,scaled,train,train_EWU_sample_5pct,top_5,0.5328465094500778,0.05392799663985784,0.13490526008473114,0.006225733682743701,0.6260164689785277
bayes,scaled,train,train_EWU_sample_5pct,top_10,0.6280396521335593,0.12437095031651453,0.14916746300695574,0.007545095332853236,0.6911500640737137
bayes,scaled,train,train_EWU_sample_5pct,top_25,0.64916539628879,0.31216506150996115,0.3519419444025429,0.1585407095984568,0.7153764986516724
bayes,scaled,train,train_EWU_sample_5pct,top_50,0.6492603816587927,0.3596457571475561,0.40891640191321466,0.25307234643362203,0.7064529530290543
bayes,scaled,train,train_EWU_sample_5pct,all,0.6669837488412506,0.5137502285797646,0.5551004459754915,0.5039808835404078,0.7188611138397447
bayes,scaled,train,val_EWU_sample_5pct,top_5,0.5058152893557983,0.0512368288903108,0.1710489916340746,0.005609168251189865,0.6408029471777336
bayes,scaled,train,val_EWU_sample_5pct,top_10,0.4923992422667464,0.03679239883097507,0.13104565191157766,0.5034074481318364,0.5700434468288086
bayes,scaled,train,val_EWU_sample_5pct,top_25,0.5102775258158345,0.09218635735787344,0.3941520957126953,0.2765208548229081,0.5602196371262312
bayes,scaled,train,val_EWU_sample_5pct,top_50,0.7085830909094505,0.04074250778476224,0.3154357889957292,0.19896861872027985,0.5489371538626064
bayes,scaled,train,val_EWU_sample_5pct,all,0.4794665138578327,0.5129188362862573,0.04952863304572072,0.5034074481318364,0.5449246310449265
bayes,scaled,train,test_EWU_sample_5pct,top_5,0.5111992139497418,0.054475653204782086,0.16888726997599804,0.007847071857761777,0.6345453858708963
bayes,scaled,train,test_EWU_sample_5pct,top_10,0.4824116847940728,0.0358169168563431,0.13879789027812178,0.5033563928688615,0.5702564089422709
bayes,scaled,train,test_EWU_sample_5pct,top_25,0.5079231448346156,0.09456362354749637,0.39075375070243895,0.2715036314459643,0.5641566670592664
bayes,scaled,train,test_EWU_sample_5pct,top_50,0.7085318979390947,0.0422078561095941,0.3033409948230831,0.19024459962017748,0.5527856334464712
bayes,scaled,train,test_EWU_sample_5pct,all,0.4758347820227847,0.5129734301026546,0.5495627900545451,0.5033563928688615,0.5430871732110397
bayes,scaled,train,val+test_EWU_sample_5pct,top_5,0.5191516019512029,0.05389443680224031,0.16991356597028354,0.007458245665170995,0.6376370461524623
bayes,scaled,train,val+test_EWU_sample_5pct,top_10,0.4907217758928782,0.036759613641510105,0.1353434925768918,0.5033817611886033,0.5667170384275763
bayes,scaled,train,val+test_EWU_sample_5pct,top_25,0.4817624719712849,0.1078449647373318,0.3959794624127727,0.27786992764581514,0.5677769543158088
bayes,scaled,train,val+test_EWU_sample_5pct,top_50,0.7085573346828278,0.04179719527396818,0.31648556775930503,0.19788800479751326,0.5412912208900189
bayes,scaled,train,val+test_EWU_sample_5pct,all,0.4779394849783742,0.5129463035478277,0.29954581938988684,0.5033817611886033,0.5444889462971141
bayes,scaled,train,train_EU_sample_5pct,top_5,0.4939495342492941,0.034872320080010094,0.12120265368576963,0.5040071667521214,0.6114415997192311
bayes,scaled,train,train_EU_sample_5pct,top_10,0.6264793822474592,0.04056199320416906,0.15336278289989902,0.5040071667521214,0.6985361927908659
bayes,scaled,train,train_EU_sample_5pct,top_25,0.6596476294672231,0.19796634622956014,0.34899478211063395,0.10998671434146924,0.7127739145282966
bayes,scaled,train,train_EU_sample_5pct,top_50,0.668819105180228,0.35049836685954283,0.4196005275941253,0.17461078230644905,0.71743809888551
bayes,scaled,train,train_EU_sample_5pct,all,0.6929569622232847,0.5137592037959307,0.5555234219300923,0.5040071667521214,0.7334101484244924
bayes,scaled,train,val_EU_sample_5pct,top_5,0.5260674727540992,0.03623762714763856,0.1110320477064203,0.5034184089745163,0.6046785531748373
bayes,scaled,train,val_EU_sample_5pct,top_10,0.6462726058527931,0.05229856383136754,0.1159837244649962,0.5034184089745163,0.6997579098111257
bayes,scaled,train,val_EU_sample_5pct,top_25,0.7043798743925791,0.09492173806262076,0.2171797059634159,0.040377718241275735,0.7354122413036958
bayes,scaled,train,val_EU_sample_5pct,top_50,0.7020125037930305,0.3641466756448702,0.42519014568542735,0.14330221121565173,0.7381235480735858
bayes,scaled,train,val_EU_sample_5pct,all,0.6776029072162169,0.5128275529020939,0.5490474994304274,0.5034184089745163,0.7164348955041655
bayes,scaled,train,test_EU_sample_5pct,top_5,0.5248030742397767,0.03376779520311651,0.1125219703998038,0.5034142691574149,0.6044430499832227
bayes,scaled,train,test_EU_sample_5pct,top_10,0.6401136878892588,0.046530742455072036,0.11855230275305972,0.5034142691574149,0.6947106962901819
bayes,scaled,train,test_EU_sample_5pct,top_25,0.7044734915261404,0.11768876736866557,0.22868326724562302,0.047317360188090345,0.7372448032559912
bayes,scaled,train,test_EU_sample_5pct,top_50,0.7023767396373435,0.3682638169753184,0.4459523366244532,0.1652915430951439,0.7390243507751635
bayes,scaled,train,test_EU_sample_5pct,all,0.6776819622476326,0.5129840577446346,0.5497908627562148,0.5034142691574149,0.716823190523462
bayes,scaled,train,val+test_EU_sample_5pct,top_5,0.5249062645827033,0.035342122486528474,0.11202426273633903,0.5034163290062417,0.6049370872047244
bayes,scaled,train,val+test_EU_sample_5pct,top_10,0.637559759073845,0.051343586265838126,0.12007006235444978,0.5034163290062417,0.6924544362713143
bayes,scaled,train,val+test_EU_sample_5pct,top_25,0.7038631908879385,0.10157242854929932,0.22280846517348507,0.04104560503085582,0.7347930002284969
bayes,scaled,train,val+test_EU_sample_5pct,top_50,0.7010922157724023,0.34961287271711944,0.4279632211127756,0.14617626707206371,0.7367394880075934
bayes,scaled,train,val+test_EU_sample_5pct,all,0.6777737171278586,0.5129061856289397,0.5494209874605417,0.5034163290062417,0.7157872077437955
bayes,scaled,train,train_inter_EWU+EU_sample_5pct,top_5,0.5207919636323328,0.03621729826577496,0.1225412102472026,0.5039812364536848,0.6330498624945633
bayes,scaled,train,train_inter_EWU+EU_sample_5pct,top_10,0.6302312799118153,0.05050518281671347,0.13664345855138013,0.5039812364536848,0.6950231621943592
bayes,scaled,train,train_inter_EWU+EU_sample_5pct,top_25,0.6689845497060396,0.2930935030842581,0.3201871457824637,0.1394902855660917,0.7251848721474525
bayes,scaled,train,train_inter_EWU+EU_sample_5pct,top_50,0.6739033159717922,0.3669180915129965,0.3809238282790103,0.20867589869047135,0.7291468377608206
bayes,scaled,train,train_inter_EWU+EU_sample_5pct,all,0.6867071542433608,0.5135637463075241,0.5553110240176866,0.5039812364536848,0.7390883264428141
bayes,scaled,train,val_inter_EWU+EU_sample_5pct,top_5,0.4977971781741368,0.03742671571406552,0.1261581341690238,0.5033808821771526,0.6382695652903048
bayes,scaled,train,val_inter_EWU+EU_sample_5pct,top_10,0.5122193610943963,0.031345078236345525,0.1323540418070544,0.5033808821771526,0.5914154096557129
bayes,scaled,train,val_inter_EWU+EU_sample_5pct,top_25,0.5244718158410542,0.11278091628410755,0.3772021008901815,0.25274307346171226,0.6172742870039859
bayes,scaled,train,val_inter_EWU+EU_sample_5pct,top_50,0.5374881242722669,0.1397123672865412,0.3566675227246211,0.23063044569771465,0.5811861239430295
bayes,scaled,train,val_inter_EWU+EU_sample_5pct,all,0.5322246512068362,0.5128879945810256,0.5500199226999243,0.5033808821771526,0.5919965027284098
bayes,scaled,train,test_inter_EWU+EU_sample_5pct,top_5,0.4905525276793369,0.03494720204343592,0.12580451985919608,0.5034564888476744,0.6396859305679994
bayes,scaled,train,test_inter_EWU+EU_sample_5pct,top_10,0.5141024299914245,0.032408355859303385,0.13470304074496572,0.5034564888476744,0.5909923280644067
bayes,scaled,train,test_inter_EWU+EU_sample_5pct,top_25,0.5113397267105719,0.1011231268680309,0.3562460659640163,0.2128108435159777,0.5985499354090897
bayes,scaled,train,test_inter_EWU+EU_sample_5pct,top_50,0.5282941105659964,0.12034069153864785,0.32486223113084445,0.20009352175094614,0.5663503564379341
bayes,scaled,train,test_inter_EWU+EU_sample_5pct,all,0.5295951854321727,0.5126711894187125,0.5494841134267168,0.5034564888476744,0.5868930896698543
bayes,scaled,train,val+test_inter_EWU+EU_sample_5pct,top_5,0.5005017935862592,0.0364001409159985,0.12156183970110646,0.5034190688891848,0.6043593307382429
bayes,scaled,train,val+test_inter_EWU+EU_sample_5pct,top_10,0.5168158584250399,0.03146409237857078,0.13310496095782967,0.5034190688891848,0.5914228136177846
bayes,scaled,train,val+test_inter_EWU+EU_sample_5pct,top_25,0.5138548699877016,0.1002188492297012,0.3659601453897068,0.2259492539777675,0.5944294857234202
bayes,scaled,train,val+test_inter_EWU+EU_sample_5pct,top_50,0.5358274320006206,0.1268539390583563,0.36148923206335903,0.21538762374076906,0.5671518930912799
bayes,scaled,train,val+test_inter_EWU+EU_sample_5pct,all,0.530169359620941,0.5127784926515903,0.5497493011492213,0.5034190688891848,0.5816753508740145
bayes,scaled,train,train_tweet_sample_5pct,top_5,0.4865928180745744,0.030981245301215918,0.1200885961664256,0.5040322867974005,0.6194635655554855
bayes,scaled,train,train_tweet_sample_5pct,top_10,0.6214497767655403,0.04150687213807296,0.12244744036134793,0.5040322867974005,0.6885798508211811
bayes,scaled,train,train_tweet_sample_5pct,top_25,0.632475554471633,0.2535512767228612,0.29724667310294195,0.1409664249246786,0.6883570786892521
bayes,scaled,train,train_tweet_sample_5pct,top_50,0.6313914240605578,0.3619276132534949,0.33191851654009097,0.1973958668100961,0.7090198538812568
bayes,scaled,train,train_tweet_sample_5pct,all,0.659615281386047,0.5138106045490822,0.5555577328696841,0.5040322867974005,0.7132738199668505
bayes,scaled,train,val_tweet_sample_5pct,top_5,0.5130169864569231,0.034404283205148135,0.11285044997472095,0.5034042083108033,0.5994916454348949
bayes,scaled,train,val_tweet_sample_5pct,top_10,0.6655168106979208,0.0501515668174972,0.11387830663988747,0.5034042083108033,0.7098906961308508
bayes,scaled,train,val_tweet_sample_5pct,top_25,0.5431871132305282,0.26087679483225346,0.1756750202187234,0.024709022305639337,0.6096226992029679
bayes,scaled,train,val_tweet_sample_5pct,top_50,0.5734950746227979,0.41079981889640144,0.24642773448499145,0.10689509439207907,0.6630137113075238
bayes,scaled,train,val_tweet_sample_5pct,all,0.6453500011276916,0.512807691785906,0.5496754712885602,0.5034042083108033,0.7009635860488184
bayes,scaled,train,test_tweet_sample_5pct,top_5,0.5230875166869562,0.0247606189661198,0.11422395577792567,0.5034794341793362,0.6012415160097591
bayes,scaled,train,test_tweet_sample_5pct,top_10,0.6657541212648337,0.05307780424271563,0.11763391459200948,0.5034794341793362,0.7103987615395911
bayes,scaled,train,test_tweet_sample_5pct,top_25,0.5372567287285344,0.264393670280153,0.17835864404483145,0.026196821866217343,0.6106790436432312
bayes,scaled,train,test_tweet_sample_5pct,top_50,0.5647234141316455,0.4076990483736728,0.24855181859603095,0.11065000921406347,0.6594255157968925
bayes,scaled,train,test_tweet_sample_5pct,all,0.6429598333284315,0.5130799700411548,0.5499841712286987,0.5034794341793362,0.7006190007165652
bayes,scaled,train,val+test_tweet_sample_5pct,top_5,0.5215426012886347,0.029185145127646882,0.11262109074782264,0.5034418963601389,0.600129619582884
bayes,scaled,train,val+test_tweet_sample_5pct,top_10,0.6672992892287036,0.052541986462606466,0.11626642902244748,0.5034418963601389,0.7104174068944719
bayes,scaled,train,val+test_tweet_sample_5pct,top_25,0.5380917396101974,0.23856192771962376,0.17170399327583635,0.01742950922251013,0.6000521143134709
bayes,scaled,train,val+test_tweet_sample_5pct,top_50,0.5679003291473633,0.3994955710517242,0.23038124843971425,0.07891039974919932,0.6494448517759281
bayes,scaled,train,val+test_tweet_sample_5pct,all,0.6383108783125826,0.5129441027907503,0.5498301295038892,0.5034418963601389,0.6968938407439178
bayes,scaled,train,train_random_sample_10pct,top_5,0.4983386430204817,0.03358778506760456,0.11927370904664852,0.5039946290283842,0.6168112134328559
bayes,scaled,train,train_random_sample_10pct,top_10,0.6275831985974923,0.03150701771673357,0.1425875834823112,0.5039946290283842,
