algorithm,note,trained_on,sample,feature_selection,target,evaluation
bayes,scaled,itself,val_EWU_sample_1pct,top_5,like,-2065.1365845464875
bayes,scaled,itself,val_EWU_sample_1pct,top_10,like,-2033.6416229648362
bayes,scaled,itself,val_EWU_sample_1pct,top_25,like,-2046.9390057109106
bayes,scaled,itself,val_EWU_sample_1pct,top_50,like,-2049.763964527985
bayes,scaled,itself,val_EWU_sample_1pct,all,like,-1993.3020582189788
bayes,scaled,itself,val_EWU_sample_1pct,top_5,reply,-770.5478869416971
bayes,scaled,itself,val_EWU_sample_1pct,top_10,reply,-1219.3956940089254
bayes,scaled,itself,val_EWU_sample_1pct,top_25,reply,-3667.1085995435938
bayes,scaled,itself,val_EWU_sample_1pct,top_50,reply,-9926.258121703197
bayes,scaled,itself,val_EWU_sample_1pct,all,reply,-640.6261920025993
bayes,scaled,itself,val_EWU_sample_1pct,top_5,retweet,-1101.4584353392615
bayes,scaled,itself,val_EWU_sample_1pct,top_10,retweet,-1127.5248516929296
bayes,scaled,itself,val_EWU_sample_1pct,top_25,retweet,-1215.15449293099
bayes,scaled,itself,val_EWU_sample_1pct,top_50,retweet,-1524.8779211960168
bayes,scaled,itself,val_EWU_sample_1pct,all,retweet,-979.4978768506172
bayes,scaled,itself,val_EWU_sample_1pct,top_5,quote,-481.7680683020713
bayes,scaled,itself,val_EWU_sample_1pct,top_10,quote,-481.7680683020713
bayes,scaled,itself,val_EWU_sample_1pct,top_25,quote,-4560.108257998274
bayes,scaled,itself,val_EWU_sample_1pct,top_50,quote,-14671.708418332875
bayes,scaled,itself,val_EWU_sample_1pct,all,quote,-481.7680683020713
bayes,scaled,itself,val_EWU_sample_1pct,top_5,react,-2194.663144114922
bayes,scaled,itself,val_EWU_sample_1pct,top_10,react,-2042.9697565539616
bayes,scaled,itself,val_EWU_sample_1pct,top_25,react,-2086.583610339801
bayes,scaled,itself,val_EWU_sample_1pct,top_50,react,-2109.339293111828
bayes,scaled,itself,val_EWU_sample_1pct,all,react,-1963.9109987436718
bayes,scaled,itself,test_EWU_sample_1pct,top_5,like,-2076.083511480878
bayes,scaled,itself,test_EWU_sample_1pct,top_10,like,-2106.1366463127265
bayes,scaled,itself,test_EWU_sample_1pct,top_25,like,-2031.9974590034271
bayes,scaled,itself,test_EWU_sample_1pct,top_50,like,-2038.4271123504998
bayes,scaled,itself,test_EWU_sample_1pct,all,like,-2028.0510054714691
bayes,scaled,itself,test_EWU_sample_1pct,top_5,reply,-740.9208084304587
bayes,scaled,itself,test_EWU_sample_1pct,top_10,reply,-953.6131371607293
bayes,scaled,itself,test_EWU_sample_1pct,top_25,reply,-1101.3658862549782
bayes,scaled,itself,test_EWU_sample_1pct,top_50,reply,-3552.6896801550465
bayes,scaled,itself,test_EWU_sample_1pct,all,reply,-650.064887669672
bayes,scaled,itself,test_EWU_sample_1pct,top_5,retweet,-1144.8181830804765
bayes,scaled,itself,test_EWU_sample_1pct,top_10,retweet,-1278.883850554453
bayes,scaled,itself,test_EWU_sample_1pct,top_25,retweet,-2197.003268536973
bayes,scaled,itself,test_EWU_sample_1pct,top_50,retweet,-3520.2084719283253
bayes,scaled,itself,test_EWU_sample_1pct,all,retweet,-952.0409692502327
bayes,scaled,itself,test_EWU_sample_1pct,top_5,quote,-471.5758110688133
bayes,scaled,itself,test_EWU_sample_1pct,top_10,quote,-471.5758110688133
bayes,scaled,itself,test_EWU_sample_1pct,top_25,quote,-571.8878612406235
bayes,scaled,itself,test_EWU_sample_1pct,top_50,quote,-13012.469525501672
bayes,scaled,itself,test_EWU_sample_1pct,all,quote,-471.5758110688133
bayes,scaled,itself,test_EWU_sample_1pct,top_5,react,-2177.4922628515264
bayes,scaled,itself,test_EWU_sample_1pct,top_10,react,-2154.758778099473
bayes,scaled,itself,test_EWU_sample_1pct,top_25,react,-2078.950435018862
bayes,scaled,itself,test_EWU_sample_1pct,top_50,react,-2112.6829973206773
bayes,scaled,itself,test_EWU_sample_1pct,all,react,-2017.1626376308786
bayes,scaled,itself,val+test_EWU_sample_1pct,top_5,like,-2060.648892615138
bayes,scaled,itself,val+test_EWU_sample_1pct,top_10,like,-2095.880564607712
bayes,scaled,itself,val+test_EWU_sample_1pct,top_25,like,-2054.7591104346434
bayes,scaled,itself,val+test_EWU_sample_1pct,top_50,like,-2055.8743676375752
bayes,scaled,itself,val+test_EWU_sample_1pct,all,like,-2018.1756861574481
bayes,scaled,itself,val+test_EWU_sample_1pct,top_5,reply,-774.4435331379698
bayes,scaled,itself,val+test_EWU_sample_1pct,top_10,reply,-1150.4754649405868
bayes,scaled,itself,val+test_EWU_sample_1pct,top_25,reply,-1742.2391109974594
bayes,scaled,itself,val+test_EWU_sample_1pct,top_50,reply,-7898.6751605920435
bayes,scaled,itself,val+test_EWU_sample_1pct,all,reply,-645.3042860173235
bayes,scaled,itself,val+test_EWU_sample_1pct,top_5,retweet,-1125.5718425477319
bayes,scaled,itself,val+test_EWU_sample_1pct,top_10,retweet,-1186.3075049539466
bayes,scaled,itself,val+test_EWU_sample_1pct,top_25,retweet,-1473.7936119770095
bayes,scaled,itself,val+test_EWU_sample_1pct,top_50,retweet,-2576.2649412637493
bayes,scaled,itself,val+test_EWU_sample_1pct,all,retweet,-966.0785434628036
bayes,scaled,itself,val+test_EWU_sample_1pct,top_5,quote,-476.84582881944124
bayes,scaled,itself,val+test_EWU_sample_1pct,top_10,quote,-476.84582881944124
bayes,scaled,itself,val+test_EWU_sample_1pct,top_25,quote,-2852.279893522028
bayes,scaled,itself,val+test_EWU_sample_1pct,top_50,quote,-14605.010606463142
bayes,scaled,itself,val+test_EWU_sample_1pct,all,quote,-476.84582881944124
bayes,scaled,itself,val+test_EWU_sample_1pct,top_5,react,-2189.425878568422
bayes,scaled,itself,val+test_EWU_sample_1pct,top_10,react,-2043.9886053818948
bayes,scaled,itself,val+test_EWU_sample_1pct,top_25,react,-2090.736648418161
bayes,scaled,itself,val+test_EWU_sample_1pct,top_50,react,-2113.0642178067733
bayes,scaled,itself,val+test_EWU_sample_1pct,all,react,-1977.8594150828555
bayes,scaled,itself,val_EU_sample_1pct,top_5,like,-2096.997119217712
bayes,scaled,itself,val_EU_sample_1pct,top_10,like,-1979.7858429016928
bayes,scaled,itself,val_EU_sample_1pct,top_25,like,-2034.7092431195401
bayes,scaled,itself,val_EU_sample_1pct,top_50,like,-2076.798485608294
bayes,scaled,itself,val_EU_sample_1pct,all,like,-2015.3129455465894
bayes,scaled,itself,val_EU_sample_1pct,top_5,reply,-678.7446659218406
bayes,scaled,itself,val_EU_sample_1pct,top_10,reply,-637.0147678803556
bayes,scaled,itself,val_EU_sample_1pct,top_25,reply,-635.8392785612375
bayes,scaled,itself,val_EU_sample_1pct,top_50,reply,-637.0147950931457
bayes,scaled,itself,val_EU_sample_1pct,all,reply,-635.8392785612375
bayes,scaled,itself,val_EU_sample_1pct,top_5,retweet,-1263.674277967015
bayes,scaled,itself,val_EU_sample_1pct,top_10,retweet,-1277.7097355652204
bayes,scaled,itself,val_EU_sample_1pct,top_25,retweet,-1567.501053193859
bayes,scaled,itself,val_EU_sample_1pct,top_50,retweet,-1961.6278465259247
bayes,scaled,itself,val_EU_sample_1pct,all,retweet,-967.6928093556436
bayes,scaled,itself,val_EU_sample_1pct,top_5,quote,-709.0386607635751
bayes,scaled,itself,val_EU_sample_1pct,top_10,quote,-632.2554779450081
bayes,scaled,itself,val_EU_sample_1pct,top_25,quote,-1509.20072874346
bayes,scaled,itself,val_EU_sample_1pct,top_50,quote,-2398.269244101773
bayes,scaled,itself,val_EU_sample_1pct,all,quote,-480.3056373952786
bayes,scaled,itself,val_EU_sample_1pct,top_5,react,-2164.47491566042
bayes,scaled,itself,val_EU_sample_1pct,top_10,react,-1932.1889906268004
bayes,scaled,itself,val_EU_sample_1pct,top_25,react,-1971.0630577134577
bayes,scaled,itself,val_EU_sample_1pct,top_50,react,-2000.343622733813
bayes,scaled,itself,val_EU_sample_1pct,all,react,-1990.553087189084
bayes,scaled,itself,test_EU_sample_1pct,top_5,like,-2089.944342481874
bayes,scaled,itself,test_EU_sample_1pct,top_10,like,-1978.48776013066
bayes,scaled,itself,test_EU_sample_1pct,top_25,like,-2048.0250357462587
bayes,scaled,itself,test_EU_sample_1pct,top_50,like,-2082.8922450487757
bayes,scaled,itself,test_EU_sample_1pct,all,like,-2029.2563419503006
bayes,scaled,itself,test_EU_sample_1pct,top_5,reply,-693.2283338728743
bayes,scaled,itself,test_EU_sample_1pct,top_10,reply,-644.5698954077477
bayes,scaled,itself,test_EU_sample_1pct,top_25,reply,-643.7212019420467
bayes,scaled,itself,test_EU_sample_1pct,top_50,reply,-947.2710429279996
bayes,scaled,itself,test_EU_sample_1pct,all,reply,-642.023808461509
bayes,scaled,itself,test_EU_sample_1pct,top_5,retweet,-1211.270842036898
bayes,scaled,itself,test_EU_sample_1pct,top_10,retweet,-1203.2408697236906
bayes,scaled,itself,test_EU_sample_1pct,top_25,retweet,-1556.4613695294254
bayes,scaled,itself,test_EU_sample_1pct,top_50,retweet,-2073.4103289586815
bayes,scaled,itself,test_EU_sample_1pct,all,retweet,-958.376154524866
bayes,scaled,itself,test_EU_sample_1pct,top_5,quote,-472.72748284920823
bayes,scaled,itself,test_EU_sample_1pct,top_10,quote,-472.72748284920823
bayes,scaled,itself,test_EU_sample_1pct,top_25,quote,-4086.389324501248
bayes,scaled,itself,test_EU_sample_1pct,top_50,quote,-6781.439109720915
bayes,scaled,itself,test_EU_sample_1pct,all,quote,-472.72748284920823
bayes,scaled,itself,test_EU_sample_1pct,top_5,react,-2182.0262829738667
bayes,scaled,itself,test_EU_sample_1pct,top_10,react,-1926.9789108505945
bayes,scaled,itself,test_EU_sample_1pct,top_25,react,-1979.2856564661608
bayes,scaled,itself,test_EU_sample_1pct,top_50,react,-2002.3090505529417
bayes,scaled,itself,test_EU_sample_1pct,all,react,-1994.4911977756283
bayes,scaled,itself,val+test_EU_sample_1pct,top_5,like,-2086.106108823544
bayes,scaled,itself,val+test_EU_sample_1pct,top_10,like,-1920.8390450281256
bayes,scaled,itself,val+test_EU_sample_1pct,top_25,like,-2036.4359286014544
bayes,scaled,itself,val+test_EU_sample_1pct,top_50,like,-2074.897209873753
bayes,scaled,itself,val+test_EU_sample_1pct,all,like,-2022.2986312579515
bayes,scaled,itself,val+test_EU_sample_1pct,top_5,reply,-686.0921253298052
bayes,scaled,itself,val+test_EU_sample_1pct,top_10,reply,-643.2841780632102
bayes,scaled,itself,val+test_EU_sample_1pct,top_25,reply,-638.9601416713036
bayes,scaled,itself,val+test_EU_sample_1pct,top_50,reply,-718.5225000396204
bayes,scaled,itself,val+test_EU_sample_1pct,all,reply,-638.9601416713036
bayes,scaled,itself,val+test_EU_sample_1pct,top_5,retweet,-1233.573862973819
bayes,scaled,itself,val+test_EU_sample_1pct,top_10,retweet,-1272.7350527117376
bayes,scaled,itself,val+test_EU_sample_1pct,top_25,retweet,-1556.9787307300785
bayes,scaled,itself,val+test_EU_sample_1pct,top_50,retweet,-2056.9441413978025
bayes,scaled,itself,val+test_EU_sample_1pct,all,retweet,-963.0256524897079
bayes,scaled,itself,val+test_EU_sample_1pct,top_5,quote,-476.55096405661203
bayes,scaled,itself,val+test_EU_sample_1pct,top_10,quote,-476.55096405661203
bayes,scaled,itself,val+test_EU_sample_1pct,top_25,quote,-1760.2074086017403
bayes,scaled,itself,val+test_EU_sample_1pct,top_50,quote,-4038.614017388603
bayes,scaled,itself,val+test_EU_sample_1pct,all,quote,-476.55096405661203
bayes,scaled,itself,val+test_EU_sample_1pct,top_5,react,-2181.8601105296334
bayes,scaled,itself,val+test_EU_sample_1pct,top_10,react,-1919.9614162892042
bayes,scaled,itself,val+test_EU_sample_1pct,top_25,react,-1969.2600648064847
bayes,scaled,itself,val+test_EU_sample_1pct,top_50,react,-1998.861703795659
bayes,scaled,itself,val+test_EU_sample_1pct,all,react,-1979.9916020337164
bayes,scaled,itself,val_inter_EWU+EU_sample_1pct,top_5,like,-2083.909559588448
bayes,scaled,itself,val_inter_EWU+EU_sample_1pct,top_10,like,-2081.4648993408277
bayes,scaled,itself,val_inter_EWU+EU_sample_1pct,top_25,like,-2050.939351021581
bayes,scaled,itself,val_inter_EWU+EU_sample_1pct,top_50,like,-2035.098706994221
bayes,scaled,itself,val_inter_EWU+EU_sample_1pct,all,like,-2040.2244366524772
bayes,scaled,itself,val_inter_EWU+EU_sample_1pct,top_5,reply,-668.4838091429631
bayes,scaled,itself,val_inter_EWU+EU_sample_1pct,top_10,reply,-803.651687900055
bayes,scaled,itself,val_inter_EWU+EU_sample_1pct,top_25,reply,-752.6449439223178
bayes,scaled,itself,val_inter_EWU+EU_sample_1pct,top_50,reply,-929.7517211786836
bayes,scaled,itself,val_inter_EWU+EU_sample_1pct,all,reply,-644.1139194789228
bayes,scaled,itself,val_inter_EWU+EU_sample_1pct,top_5,retweet,-1214.408304934487
bayes,scaled,itself,val_inter_EWU+EU_sample_1pct,top_10,retweet,-1239.413791572577
bayes,scaled,itself,val_inter_EWU+EU_sample_1pct,top_25,retweet,-1423.4419710993902
bayes,scaled,itself,val_inter_EWU+EU_sample_1pct,top_50,retweet,-2085.775815749783
bayes,scaled,itself,val_inter_EWU+EU_sample_1pct,all,retweet,-969.1075343170434
bayes,scaled,itself,val_inter_EWU+EU_sample_1pct,top_5,quote,-579.5425166791322
bayes,scaled,itself,val_inter_EWU+EU_sample_1pct,top_10,quote,-732.9906220369841
bayes,scaled,itself,val_inter_EWU+EU_sample_1pct,top_25,quote,-679.8740159755398
bayes,scaled,itself,val_inter_EWU+EU_sample_1pct,top_50,quote,-1854.342408924207
bayes,scaled,itself,val_inter_EWU+EU_sample_1pct,all,quote,-475.83855149807135
bayes,scaled,itself,val_inter_EWU+EU_sample_1pct,top_5,react,-2126.1252655403505
bayes,scaled,itself,val_inter_EWU+EU_sample_1pct,top_10,react,-2092.2831964138986
bayes,scaled,itself,val_inter_EWU+EU_sample_1pct,top_25,react,-2069.2005252478075
bayes,scaled,itself,val_inter_EWU+EU_sample_1pct,top_50,react,-2047.1471214468986
bayes,scaled,itself,val_inter_EWU+EU_sample_1pct,all,react,-2025.9800890924976
bayes,scaled,itself,test_inter_EWU+EU_sample_1pct,top_5,like,-2045.9853206242808
bayes,scaled,itself,test_inter_EWU+EU_sample_1pct,top_10,like,-2039.025446369238
bayes,scaled,itself,test_inter_EWU+EU_sample_1pct,top_25,like,-2039.43127280768
bayes,scaled,itself,test_inter_EWU+EU_sample_1pct,top_50,like,-2032.1668010453516
bayes,scaled,itself,test_inter_EWU+EU_sample_1pct,all,like,-2008.5921986332569
bayes,scaled,itself,test_inter_EWU+EU_sample_1pct,top_5,reply,-785.1943340161267
bayes,scaled,itself,test_inter_EWU+EU_sample_1pct,top_10,reply,-997.9690399491587
bayes,scaled,itself,test_inter_EWU+EU_sample_1pct,top_25,reply,-992.187083528772
bayes,scaled,itself,test_inter_EWU+EU_sample_1pct,top_50,reply,-1264.2265449491638
bayes,scaled,itself,test_inter_EWU+EU_sample_1pct,all,reply,-639.7790596483648
bayes,scaled,itself,test_inter_EWU+EU_sample_1pct,top_5,retweet,-1196.6068802848745
bayes,scaled,itself,test_inter_EWU+EU_sample_1pct,top_10,retweet,-1281.8647361170606
bayes,scaled,itself,test_inter_EWU+EU_sample_1pct,top_25,retweet,-1586.7337586288468
bayes,scaled,itself,test_inter_EWU+EU_sample_1pct,top_50,retweet,-2401.783020431737
bayes,scaled,itself,test_inter_EWU+EU_sample_1pct,all,retweet,-959.7561242134241
bayes,scaled,itself,test_inter_EWU+EU_sample_1pct,top_5,quote,-477.14495203165006
bayes,scaled,itself,test_inter_EWU+EU_sample_1pct,top_10,quote,-477.97779231065584
bayes,scaled,itself,test_inter_EWU+EU_sample_1pct,top_25,quote,-530.4467684488228
bayes,scaled,itself,test_inter_EWU+EU_sample_1pct,top_50,quote,-2735.808579191721
bayes,scaled,itself,test_inter_EWU+EU_sample_1pct,all,quote,-477.14495203165006
bayes,scaled,itself,test_inter_EWU+EU_sample_1pct,top_5,react,-2146.306773125937
bayes,scaled,itself,test_inter_EWU+EU_sample_1pct,top_10,react,-2087.5551962596
bayes,scaled,itself,test_inter_EWU+EU_sample_1pct,top_25,react,-2055.3811775472736
bayes,scaled,itself,test_inter_EWU+EU_sample_1pct,top_50,react,-2034.9972958011224
bayes,scaled,itself,test_inter_EWU+EU_sample_1pct,all,react,-2027.7310743856424
bayes,scaled,itself,val+test_inter_EWU+EU_sample_1pct,top_5,like,-2061.8715522046264
bayes,scaled,itself,val+test_inter_EWU+EU_sample_1pct,top_10,like,-2054.9718743070066
bayes,scaled,itself,val+test_inter_EWU+EU_sample_1pct,top_25,like,-2051.900204203328
bayes,scaled,itself,val+test_inter_EWU+EU_sample_1pct,top_50,like,-2036.3136306869026
bayes,scaled,itself,val+test_inter_EWU+EU_sample_1pct,all,like,-2024.3323800175408
bayes,scaled,itself,val+test_inter_EWU+EU_sample_1pct,top_5,reply,-727.3838411611326
bayes,scaled,itself,val+test_inter_EWU+EU_sample_1pct,top_10,reply,-926.8646052503407
bayes,scaled,itself,val+test_inter_EWU+EU_sample_1pct,top_25,reply,-882.2175728345381
bayes,scaled,itself,val+test_inter_EWU+EU_sample_1pct,top_50,reply,-1194.6039686385352
bayes,scaled,itself,val+test_inter_EWU+EU_sample_1pct,all,reply,-641.9534281259039
bayes,scaled,itself,val+test_inter_EWU+EU_sample_1pct,top_5,retweet,-1195.0176457645425
bayes,scaled,itself,val+test_inter_EWU+EU_sample_1pct,top_10,retweet,-1277.4007395577655
bayes,scaled,itself,val+test_inter_EWU+EU_sample_1pct,top_25,retweet,-1508.0848315431815
bayes,scaled,itself,val+test_inter_EWU+EU_sample_1pct,top_50,retweet,-2396.9999533461482
bayes,scaled,itself,val+test_inter_EWU+EU_sample_1pct,all,retweet,-964.4388230102077
bayes,scaled,itself,val+test_inter_EWU+EU_sample_1pct,top_5,quote,-494.0904089305008
bayes,scaled,itself,val+test_inter_EWU+EU_sample_1pct,top_10,quote,-582.9127298827639
bayes,scaled,itself,val+test_inter_EWU+EU_sample_1pct,top_25,quote,-564.0589435762657
bayes,scaled,itself,val+test_inter_EWU+EU_sample_1pct,top_50,quote,-2211.8803226313653
bayes,scaled,itself,val+test_inter_EWU+EU_sample_1pct,all,quote,-476.49354171110235
bayes,scaled,itself,val+test_inter_EWU+EU_sample_1pct,top_5,react,-2116.2905156084425
bayes,scaled,itself,val+test_inter_EWU+EU_sample_1pct,top_10,react,-2098.216793245947
bayes,scaled,itself,val+test_inter_EWU+EU_sample_1pct,top_25,react,-2059.6857240608983
bayes,scaled,itself,val+test_inter_EWU+EU_sample_1pct,top_50,react,-2035.5211852289303
bayes,scaled,itself,val+test_inter_EWU+EU_sample_1pct,all,react,-2025.382404958971
bayes,scaled,itself,val_tweet_sample_1pct,top_5,like,-2099.21033947468
bayes,scaled,itself,val_tweet_sample_1pct,top_10,like,-2030.2365625958369
bayes,scaled,itself,val_tweet_sample_1pct,top_25,like,-1970.5335459289727
bayes,scaled,itself,val_tweet_sample_1pct,top_50,like,-1941.2453150615768
bayes,scaled,itself,val_tweet_sample_1pct,all,like,-1931.9838929072864
bayes,scaled,itself,val_tweet_sample_1pct,top_5,reply,-690.5017960222373
bayes,scaled,itself,val_tweet_sample_1pct,top_10,reply,-780.005458396146
bayes,scaled,itself,val_tweet_sample_1pct,top_25,reply,-769.9002404748337
bayes,scaled,itself,val_tweet_sample_1pct,top_50,reply,-3729.873889269075
bayes,scaled,itself,val_tweet_sample_1pct,all,reply,-638.243211661429
bayes,scaled,itself,val_tweet_sample_1pct,top_5,retweet,-1209.9776183700073
bayes,scaled,itself,val_tweet_sample_1pct,top_10,retweet,-1309.2029939863987
bayes,scaled,itself,val_tweet_sample_1pct,top_25,retweet,-1919.0618373849616
bayes,scaled,itself,val_tweet_sample_1pct,top_50,retweet,-2809.252017350042
bayes,scaled,itself,val_tweet_sample_1pct,all,retweet,-955.3975282131962
bayes,scaled,itself,val_tweet_sample_1pct,top_5,quote,-503.20513879295197
bayes,scaled,itself,val_tweet_sample_1pct,top_10,quote,-572.6463960711146
bayes,scaled,itself,val_tweet_sample_1pct,top_25,quote,-2098.680947665096
bayes,scaled,itself,val_tweet_sample_1pct,top_50,quote,-6720.289665792213
bayes,scaled,itself,val_tweet_sample_1pct,all,quote,-475.59597191316686
bayes,scaled,itself,val_tweet_sample_1pct,top_5,react,-2176.363065560787
bayes,scaled,itself,val_tweet_sample_1pct,top_10,react,-2086.323432456811
bayes,scaled,itself,val_tweet_sample_1pct,top_25,react,-1994.5780829463488
bayes,scaled,itself,val_tweet_sample_1pct,top_50,react,-2000.0292942838232
bayes,scaled,itself,val_tweet_sample_1pct,all,react,-1935.5926005322754
bayes,scaled,itself,test_tweet_sample_1pct,top_5,like,-2080.2931550219064
bayes,scaled,itself,test_tweet_sample_1pct,top_10,like,-2038.31543224133
bayes,scaled,itself,test_tweet_sample_1pct,top_25,like,-1956.692075050443
bayes,scaled,itself,test_tweet_sample_1pct,top_50,like,-1935.4494369630506
bayes,scaled,itself,test_tweet_sample_1pct,all,like,-1918.383338392631
bayes,scaled,itself,test_tweet_sample_1pct,top_5,reply,-824.7310819873948
bayes,scaled,itself,test_tweet_sample_1pct,top_10,reply,-989.4693315559073
bayes,scaled,itself,test_tweet_sample_1pct,top_25,reply,-951.5380147612076
bayes,scaled,itself,test_tweet_sample_1pct,top_50,reply,-1388.1637844881855
bayes,scaled,itself,test_tweet_sample_1pct,all,reply,-647.2568233212571
bayes,scaled,itself,test_tweet_sample_1pct,top_5,retweet,-1178.0495082503805
bayes,scaled,itself,test_tweet_sample_1pct,top_10,retweet,-1273.7682168436675
bayes,scaled,itself,test_tweet_sample_1pct,top_25,retweet,-1938.003339234913
bayes,scaled,itself,test_tweet_sample_1pct,top_50,retweet,-2724.4154071997627
bayes,scaled,itself,test_tweet_sample_1pct,all,retweet,-954.776140057834
bayes,scaled,itself,test_tweet_sample_1pct,top_5,quote,-476.87127502792015
bayes,scaled,itself,test_tweet_sample_1pct,top_10,quote,-476.87127502792015
bayes,scaled,itself,test_tweet_sample_1pct,top_25,quote,-3531.211384670219
bayes,scaled,itself,test_tweet_sample_1pct,top_50,quote,-7519.673493231997
bayes,scaled,itself,test_tweet_sample_1pct,all,quote,-476.87127502792015
bayes,scaled,itself,test_tweet_sample_1pct,top_5,react,-2112.3108836383894
bayes,scaled,itself,test_tweet_sample_1pct,top_10,react,-2078.438662216586
bayes,scaled,itself,test_tweet_sample_1pct,top_25,react,-1957.9446056413208
bayes,scaled,itself,test_tweet_sample_1pct,top_50,react,-1982.90002351564
bayes,scaled,itself,test_tweet_sample_1pct,all,react,-1905.9861906912336
bayes,scaled,itself,val+test_tweet_sample_1pct,top_5,like,-2072.8232987205333
bayes,scaled,itself,val+test_tweet_sample_1pct,top_10,like,-2055.819739403701
bayes,scaled,itself,val+test_tweet_sample_1pct,top_25,like,-1963.6671887320533
bayes,scaled,itself,val+test_tweet_sample_1pct,top_50,like,-1941.969466783708
bayes,scaled,itself,val+test_tweet_sample_1pct,all,like,-1920.8984583495846
bayes,scaled,itself,val+test_tweet_sample_1pct,top_5,reply,-749.4804209051532
bayes,scaled,itself,val+test_tweet_sample_1pct,top_10,reply,-884.3034848271122
bayes,scaled,itself,val+test_tweet_sample_1pct,top_25,reply,-838.6558770733773
bayes,scaled,itself,val+test_tweet_sample_1pct,top_50,reply,-1860.7112152819568
bayes,scaled,itself,val+test_tweet_sample_1pct,top_5,retweet,-1174.2469485604308
bayes,scaled,itself,val+test_tweet_sample_1pct,top_10,retweet,-1292.6690443523794
bayes,scaled,itself,val+test_tweet_sample_1pct,top_25,retweet,-1938.6765008989184
bayes,scaled,itself,val+test_tweet_sample_1pct,top_50,retweet,-2679.788828170708
bayes,scaled,itself,val+test_tweet_sample_1pct,top_5,quote,-476.2344890362458
bayes,scaled,itself,val+test_tweet_sample_1pct,top_10,quote,-476.2344890362458
bayes,scaled,itself,val+test_tweet_sample_1pct,top_25,quote,-3299.6002292978083
bayes,scaled,itself,val+test_tweet_sample_1pct,top_50,quote,-7568.998227059544
bayes,scaled,itself,val+test_tweet_sample_1pct,top_5,react,-2160.721908874292
bayes,scaled,itself,val+test_tweet_sample_1pct,top_10,react,-2086.7883254763706
bayes,scaled,itself,val+test_tweet_sample_1pct,top_25,react,-1973.665281155088
bayes,scaled,itself,val+test_tweet_sample_1pct,top_50,react,-1986.961739116025
bayes,scaled,itself,val+test_tweet_sample_1pct,all,reply,-642.7808683812067
bayes,scaled,itself,val+test_tweet_sample_1pct,all,retweet,-955.0871352026593
bayes,scaled,itself,val+test_tweet_sample_1pct,all,quote,-476.2344890362458
bayes,scaled,itself,val+test_tweet_sample_1pct,all,react,-1913.73381856306
bayes,scaled,itself,val_random_sample_2pct,top_5,like,-2115.429816928204
bayes,scaled,itself,val_random_sample_2pct,top_10,like,-1936.835066463837
bayes,scaled,itself,val_random_sample_2pct,top_25,like,-2009.1820241071136
bayes,scaled,itself,val_random_sample_2pct,top_50,like,-2065.733782268744
bayes,scaled,itself,val_random_sample_2pct,all,like,-1979.3616136815906
bayes,scaled,itself,val_random_sample_2pct,top_5,reply,-814.1340747701394
bayes,scaled,itself,val_random_sample_2pct,top_10,reply,-714.8800955829523
bayes,scaled,itself,val_random_sample_2pct,top_25,reply,-713.7522623820213
bayes,scaled,itself,val_random_sample_2pct,top_50,reply,-2191.002260427578
bayes,scaled,itself,val_random_sample_2pct,all,reply,-643.68223364036
bayes,scaled,itself,val_random_sample_2pct,top_5,retweet,-1272.72655445687
bayes,scaled,itself,val_random_sample_2pct,top_10,retweet,-1253.9754903392509
bayes,scaled,itself,val_random_sample_2pct,top_25,retweet,-1739.6288979844596
bayes,scaled,itself,val_random_sample_2pct,top_50,retweet,-2390.9074138266737
bayes,scaled,itself,val_random_sample_2pct,all,retweet,-959.9108156833563
bayes,scaled,itself,val_random_sample_2pct,top_5,quote,-475.2325817090963
bayes,scaled,itself,val_random_sample_2pct,top_10,quote,-475.2325817090963
bayes,scaled,itself,val_random_sample_2pct,top_25,quote,-2360.036887372251
bayes,scaled,itself,val_random_sample_2pct,top_50,quote,-2994.6171372024687
bayes,scaled,itself,val_random_sample_2pct,all,quote,-475.2325817090963
bayes,scaled,itself,val_random_sample_2pct,top_5,react,-2168.250016791442
bayes,scaled,itself,val_random_sample_2pct,top_10,react,-1941.1329499098465
bayes,scaled,itself,val_random_sample_2pct,top_25,react,-1937.9643381982607
bayes,scaled,itself,val_random_sample_2pct,top_50,react,-1959.1202264224628
bayes,scaled,itself,val_random_sample_2pct,all,react,-1927.6466427335608
bayes,scaled,itself,test_random_sample_2pct,top_5,like,-2111.9838681233123
bayes,scaled,itself,test_random_sample_2pct,top_10,like,-1934.517591733396
bayes,scaled,itself,test_random_sample_2pct,top_25,like,-2013.2927549880667
bayes,scaled,itself,test_random_sample_2pct,top_50,like,-2060.741192665482
bayes,scaled,itself,test_random_sample_2pct,all,like,-2031.7492801018805
bayes,scaled,itself,test_random_sample_2pct,top_5,reply,-878.9679143603688
bayes,scaled,itself,test_random_sample_2pct,top_10,reply,-784.8825297662033
bayes,scaled,itself,test_random_sample_2pct,top_25,reply,-748.8233594804407
bayes,scaled,itself,test_random_sample_2pct,top_50,reply,-1300.211213504792
bayes,scaled,itself,test_random_sample_2pct,all,reply,-646.3102410999802
bayes,scaled,itself,test_random_sample_2pct,top_5,retweet,-1236.2810433215668
bayes,scaled,itself,test_random_sample_2pct,top_10,retweet,-1213.6433231852036
bayes,scaled,itself,test_random_sample_2pct,top_25,retweet,-1707.3902700581573
bayes,scaled,itself,test_random_sample_2pct,top_50,retweet,-2284.193115165512
bayes,scaled,itself,test_random_sample_2pct,all,retweet,-961.3700068269296
bayes,scaled,itself,test_random_sample_2pct,top_5,quote,-479.3268318211646
bayes,scaled,itself,test_random_sample_2pct,top_10,quote,-479.3268318211646
bayes,scaled,itself,test_random_sample_2pct,top_25,quote,-3266.3698900897443
bayes,scaled,itself,test_random_sample_2pct,top_50,quote,-4667.752796715639
bayes,scaled,itself,test_random_sample_2pct,all,quote,-479.3268318211646
bayes,scaled,itself,test_random_sample_2pct,top_5,react,-2189.5457824851414
bayes,scaled,itself,test_random_sample_2pct,top_10,react,-1934.2170813858813
bayes,scaled,itself,test_random_sample_2pct,top_25,react,-1927.8529695501645
bayes,scaled,itself,test_random_sample_2pct,top_50,react,-1947.6587795141306
bayes,scaled,itself,test_random_sample_2pct,all,react,-1921.3922606453266
bayes,scaled,itself,val+test_random_sample_2pct,top_5,like,-2114.665066011938
bayes,scaled,itself,val+test_random_sample_2pct,top_10,like,-1968.3064146658828
bayes,scaled,itself,val+test_random_sample_2pct,top_25,like,-2015.364991857712
bayes,scaled,itself,val+test_random_sample_2pct,top_50,like,-2075.6981067167685
bayes,scaled,itself,val+test_random_sample_2pct,all,like,-2031.998444167272
bayes,scaled,itself,val+test_random_sample_2pct,top_5,reply,-866.0615997859294
bayes,scaled,itself,val+test_random_sample_2pct,top_10,reply,-779.3970850783836
bayes,scaled,itself,val+test_random_sample_2pct,top_25,reply,-776.3966693867542
bayes,scaled,itself,val+test_random_sample_2pct,top_50,reply,-2880.769280010011
bayes,scaled,itself,val+test_random_sample_2pct,all,reply,-645.0041774142417
bayes,scaled,itself,val+test_random_sample_2pct,top_5,retweet,-1273.2411296612845
bayes,scaled,itself,val+test_random_sample_2pct,top_10,retweet,-1255.0565076800694
bayes,scaled,itself,val+test_random_sample_2pct,top_25,retweet,-1690.5086211465125
bayes,scaled,itself,val+test_random_sample_2pct,top_50,retweet,-2329.448034969485
bayes,scaled,itself,val+test_random_sample_2pct,all,retweet,-960.6434338065455
bayes,scaled,itself,val+test_random_sample_2pct,top_5,quote,-477.30184405728244
bayes,scaled,itself,val+test_random_sample_2pct,top_10,quote,-477.30184405728244
bayes,scaled,itself,val+test_random_sample_2pct,top_25,quote,-2522.4069001377475
bayes,scaled,itself,val+test_random_sample_2pct,top_50,quote,-3100.7517539425407
bayes,scaled,itself,val+test_random_sample_2pct,all,quote,-477.30184405728244
bayes,scaled,itself,val+test_random_sample_2pct,top_5,react,-2187.297577478624
bayes,scaled,itself,val+test_random_sample_2pct,top_10,react,-2050.6795618719398
bayes,scaled,itself,val+test_random_sample_2pct,top_25,react,-1936.5934423431206
bayes,scaled,itself,val+test_random_sample_2pct,top_50,react,-1949.6469762956228
bayes,scaled,itself,val+test_random_sample_2pct,all,react,-1923.1925217589105
bayes,scaled,itself,val_EWU_sample_2pct,top_5,like,-2042.7995434037412
bayes,scaled,itself,val_EWU_sample_2pct,top_10,like,-2087.8148075864724
bayes,scaled,itself,val_EWU_sample_2pct,top_25,like,-2026.2058746983264
bayes,scaled,itself,val_EWU_sample_2pct,top_50,like,-2037.7548242904666
bayes,scaled,itself,val_EWU_sample_2pct,all,like,-1994.3076188328141
bayes,scaled,itself,val_EWU_sample_2pct,top_5,reply,-688.4964629978865
bayes,scaled,itself,val_EWU_sample_2pct,top_10,reply,-1010.1718719030098
bayes,scaled,itself,val_EWU_sample_2pct,top_25,reply,-3625.9388004792877
bayes,scaled,itself,val_EWU_sample_2pct,top_50,reply,-10310.940598073896
bayes,scaled,itself,val_EWU_sample_2pct,all,reply,-642.179718921465
bayes,scaled,itself,val_EWU_sample_2pct,top_5,retweet,-1160.5013523205016
bayes,scaled,itself,val_EWU_sample_2pct,top_10,retweet,-1310.586577927926
bayes,scaled,itself,val_EWU_sample_2pct,top_25,retweet,-2425.455451439176
bayes,scaled,itself,val_EWU_sample_2pct,top_50,retweet,-3298.802263728275
bayes,scaled,itself,val_EWU_sample_2pct,all,retweet,-958.8958740327856
bayes,scaled,itself,val_EWU_sample_2pct,top_5,quote,-479.6554793804298
bayes,scaled,itself,val_EWU_sample_2pct,top_10,quote,-479.6554793804298
bayes,scaled,itself,val_EWU_sample_2pct,top_25,quote,-4221.119187148431
bayes,scaled,itself,val_EWU_sample_2pct,top_50,quote,-14128.263305730652
bayes,scaled,itself,val_EWU_sample_2pct,all,quote,-479.6554793804298
bayes,scaled,itself,val_EWU_sample_2pct,top_5,react,-2176.7547022687845
bayes,scaled,itself,val_EWU_sample_2pct,top_10,react,-2058.90854467175
bayes,scaled,itself,val_EWU_sample_2pct,top_25,react,-2059.784620050335
bayes,scaled,itself,val_EWU_sample_2pct,top_50,react,-2084.2082421518535
bayes,scaled,itself,val_EWU_sample_2pct,all,react,-1953.0100856773222
bayes,scaled,itself,test_EWU_sample_2pct,top_5,like,-2040.904770442737
bayes,scaled,itself,test_EWU_sample_2pct,top_10,like,-2080.8222059647683
bayes,scaled,itself,test_EWU_sample_2pct,top_25,like,-2097.0067034257168
bayes,scaled,itself,test_EWU_sample_2pct,top_50,like,-2065.089535907149
bayes,scaled,itself,test_EWU_sample_2pct,all,like,-2030.2580307807195
bayes,scaled,itself,test_EWU_sample_2pct,top_5,reply,-801.9482699623253
bayes,scaled,itself,test_EWU_sample_2pct,top_10,reply,-1401.0968202713668
bayes,scaled,itself,test_EWU_sample_2pct,top_25,reply,-3414.52528825434
bayes,scaled,itself,test_EWU_sample_2pct,top_50,reply,-9999.407896885486
bayes,scaled,itself,test_EWU_sample_2pct,all,reply,-642.136057507978
bayes,scaled,itself,test_EWU_sample_2pct,top_5,retweet,-1125.8498404777033
bayes,scaled,itself,test_EWU_sample_2pct,top_10,retweet,-1160.7596180339585
bayes,scaled,itself,test_EWU_sample_2pct,top_25,retweet,-1757.7717381206573
bayes,scaled,itself,test_EWU_sample_2pct,top_50,retweet,-2966.5767454501197
bayes,scaled,itself,test_EWU_sample_2pct,all,retweet,-956.8102979930233
bayes,scaled,itself,test_EWU_sample_2pct,top_5,quote,-475.95585622587197
bayes,scaled,itself,test_EWU_sample_2pct,top_10,quote,-475.95585622587197
bayes,scaled,itself,test_EWU_sample_2pct,top_25,quote,-10112.048959228565
bayes,scaled,itself,test_EWU_sample_2pct,top_50,quote,-21219.532351707443
bayes,scaled,itself,test_EWU_sample_2pct,all,quote,-475.95585622587197
bayes,scaled,itself,test_EWU_sample_2pct,top_5,react,-2095.718679437915
bayes,scaled,itself,test_EWU_sample_2pct,top_10,react,-2079.1052840491348
bayes,scaled,itself,test_EWU_sample_2pct,top_25,react,-2078.170311671874
bayes,scaled,itself,test_EWU_sample_2pct,top_50,react,-2064.7436916618108
bayes,scaled,itself,test_EWU_sample_2pct,all,react,-1936.5198427399625
bayes,scaled,itself,val+test_EWU_sample_2pct,top_5,like,-2040.5228550949594
bayes,scaled,itself,val+test_EWU_sample_2pct,top_10,like,-2101.0545048176627
bayes,scaled,itself,val+test_EWU_sample_2pct,top_25,like,-2053.23876960456
bayes,scaled,itself,val+test_EWU_sample_2pct,top_50,like,-2044.7553830717318
bayes,scaled,itself,val+test_EWU_sample_2pct,all,like,-1982.320948042172
bayes,scaled,itself,val+test_EWU_sample_2pct,top_5,reply,-741.3315433737225
bayes,scaled,itself,val+test_EWU_sample_2pct,top_10,reply,-1191.5418703698926
bayes,scaled,itself,val+test_EWU_sample_2pct,top_25,reply,-3512.1233347078023
bayes,scaled,itself,val+test_EWU_sample_2pct,top_50,reply,-10271.984372376512
bayes,scaled,itself,val+test_EWU_sample_2pct,all,reply,-642.1583570624125
bayes,scaled,itself,val+test_EWU_sample_2pct,top_5,retweet,-1154.233761252198
bayes,scaled,itself,val+test_EWU_sample_2pct,top_10,retweet,-1277.140445938993
bayes,scaled,itself,val+test_EWU_sample_2pct,top_25,retweet,-2165.639157428012
bayes,scaled,itself,val+test_EWU_sample_2pct,top_50,retweet,-3176.9637847820063
bayes,scaled,itself,val+test_EWU_sample_2pct,all,retweet,-957.8759226016847
bayes,scaled,itself,val+test_EWU_sample_2pct,top_5,quote,-477.8569737216865
bayes,scaled,itself,val+test_EWU_sample_2pct,top_10,quote,-477.8569737216865
bayes,scaled,itself,val+test_EWU_sample_2pct,top_25,quote,-7316.200233458218
bayes,scaled,itself,val+test_EWU_sample_2pct,top_50,quote,-17648.71668455402
bayes,scaled,itself,val+test_EWU_sample_2pct,all,quote,-477.8569737216865
bayes,scaled,itself,val+test_EWU_sample_2pct,top_5,react,-2108.463488701134
bayes,scaled,itself,val+test_EWU_sample_2pct,top_10,react,-2079.644039543513
bayes,scaled,itself,val+test_EWU_sample_2pct,top_25,react,-2066.146028608759
bayes,scaled,itself,val+test_EWU_sample_2pct,top_50,react,-2085.000471043228
bayes,scaled,itself,val+test_EWU_sample_2pct,all,react,-1955.3956386709253
bayes,scaled,itself,val_EU_sample_2pct,top_5,like,-2062.455834258093
bayes,scaled,itself,val_EU_sample_2pct,top_10,like,-1909.6639651132052
bayes,scaled,itself,val_EU_sample_2pct,top_25,like,-2011.73827050046
bayes,scaled,itself,val_EU_sample_2pct,top_50,like,-2064.0467114953854
bayes,scaled,itself,val_EU_sample_2pct,all,like,-2022.340514650972
bayes,scaled,itself,val_EU_sample_2pct,top_5,reply,-828.3841740994609
bayes,scaled,itself,val_EU_sample_2pct,top_10,reply,-769.9905085985272
bayes,scaled,itself,val_EU_sample_2pct,top_25,reply,-758.0529580763551
bayes,scaled,itself,val_EU_sample_2pct,top_50,reply,-1717.5220095544794
bayes,scaled,itself,val_EU_sample_2pct,all,reply,-639.8272737834745
bayes,scaled,itself,val_EU_sample_2pct,top_5,retweet,-1310.843378513402
bayes,scaled,itself,val_EU_sample_2pct,top_10,retweet,-1245.5400045480387
bayes,scaled,itself,val_EU_sample_2pct,top_25,retweet,-1568.8603121545993
bayes,scaled,itself,val_EU_sample_2pct,top_50,retweet,-2185.5472289640065
bayes,scaled,itself,val_EU_sample_2pct,all,retweet,-958.4141882548062
bayes,scaled,itself,val_EU_sample_2pct,top_5,quote,-480.1967869422422
bayes,scaled,itself,val_EU_sample_2pct,top_10,quote,-480.1967869422422
bayes,scaled,itself,val_EU_sample_2pct,top_25,quote,-1550.1743175087308
bayes,scaled,itself,val_EU_sample_2pct,top_50,quote,-3453.5228433302336
bayes,scaled,itself,val_EU_sample_2pct,all,quote,-480.1967869422422
bayes,scaled,itself,val_EU_sample_2pct,top_5,react,-2156.4178327295776
bayes,scaled,itself,val_EU_sample_2pct,top_10,react,-1916.669982215489
bayes,scaled,itself,val_EU_sample_2pct,top_25,react,-1932.873636308598
bayes,scaled,itself,val_EU_sample_2pct,top_50,react,-1956.2582552945505
bayes,scaled,itself,val_EU_sample_2pct,all,react,-1936.1265323658195
bayes,scaled,itself,test_EU_sample_2pct,top_5,like,-2111.2204573675917
bayes,scaled,itself,test_EU_sample_2pct,top_10,like,-1903.8070125477286
bayes,scaled,itself,test_EU_sample_2pct,top_25,like,-2002.8015822867044
bayes,scaled,itself,test_EU_sample_2pct,top_50,like,-2041.6981056176398
bayes,scaled,itself,test_EU_sample_2pct,all,like,-2043.2406693513462
bayes,scaled,itself,test_EU_sample_2pct,top_5,reply,-728.3255567818651
bayes,scaled,itself,test_EU_sample_2pct,top_10,reply,-677.7740184329034
bayes,scaled,itself,test_EU_sample_2pct,top_25,reply,-668.5062411700544
bayes,scaled,itself,test_EU_sample_2pct,top_50,reply,-1154.3631127898484
bayes,scaled,itself,test_EU_sample_2pct,all,reply,-642.8091931388745
bayes,scaled,itself,test_EU_sample_2pct,top_5,retweet,-1264.270994758755
bayes,scaled,itself,test_EU_sample_2pct,top_10,retweet,-1236.0043269028606
bayes,scaled,itself,test_EU_sample_2pct,top_25,retweet,-1602.6550159820176
bayes,scaled,itself,test_EU_sample_2pct,top_50,retweet,-2058.8759348018757
bayes,scaled,itself,test_EU_sample_2pct,all,retweet,-964.8784087026961
bayes,scaled,itself,test_EU_sample_2pct,top_5,quote,-478.72676735357214
bayes,scaled,itself,test_EU_sample_2pct,top_10,quote,-478.72676735357214
bayes,scaled,itself,test_EU_sample_2pct,top_25,quote,-2222.2380367749897
bayes,scaled,itself,test_EU_sample_2pct,top_50,quote,-2901.8225752734857
bayes,scaled,itself,test_EU_sample_2pct,all,quote,-478.72676735357214
bayes,scaled,itself,test_EU_sample_2pct,top_5,react,-2186.3407230852913
bayes,scaled,itself,test_EU_sample_2pct,top_10,react,-1944.4960652601321
bayes,scaled,itself,test_EU_sample_2pct,top_25,react,-1924.8081255780166
bayes,scaled,itself,test_EU_sample_2pct,top_50,react,-1948.807685851832
bayes,scaled,itself,test_EU_sample_2pct,all,react,-1933.9072124308639
bayes,scaled,itself,val+test_EU_sample_2pct,top_5,like,-2105.7472996068173
bayes,scaled,itself,val+test_EU_sample_2pct,top_10,like,-1921.6263571857787
bayes,scaled,itself,val+test_EU_sample_2pct,top_25,like,-1996.5853462327386
bayes,scaled,itself,val+test_EU_sample_2pct,top_50,like,-2040.600469197545
bayes,scaled,itself,val+test_EU_sample_2pct,all,like,-2032.8103833828889
bayes,scaled,itself,val+test_EU_sample_2pct,top_5,reply,-774.3366887089445
bayes,scaled,itself,val+test_EU_sample_2pct,top_10,reply,-727.016689049305
bayes,scaled,itself,val+test_EU_sample_2pct,top_25,reply,-712.3802131664241
bayes,scaled,itself,val+test_EU_sample_2pct,top_50,reply,-2112.584504970083
bayes,scaled,itself,val+test_EU_sample_2pct,all,reply,-641.329112495735
bayes,scaled,itself,val+test_EU_sample_2pct,top_5,retweet,-1264.0401894525476
bayes,scaled,itself,val+test_EU_sample_2pct,top_10,retweet,-1228.6913011951547
bayes,scaled,itself,val+test_EU_sample_2pct,top_25,retweet,-1665.6176127279853
bayes,scaled,itself,val+test_EU_sample_2pct,top_50,retweet,-2264.0648306470084
bayes,scaled,itself,val+test_EU_sample_2pct,all,retweet,-961.6661538729927
bayes,scaled,itself,val+test_EU_sample_2pct,top_5,quote,-479.4601179774569
bayes,scaled,itself,val+test_EU_sample_2pct,top_10,quote,-479.4601179774569
bayes,scaled,itself,val+test_EU_sample_2pct,top_25,quote,-2105.262191914003
bayes,scaled,itself,val+test_EU_sample_2pct,top_50,quote,-4331.9697198699
bayes,scaled,itself,val+test_EU_sample_2pct,all,quote,-479.4601179774569
bayes,scaled,itself,val+test_EU_sample_2pct,top_5,react,-2162.3378303633067
bayes,scaled,itself,val+test_EU_sample_2pct,top_10,react,-1930.3427646344744
bayes,scaled,itself,val+test_EU_sample_2pct,top_25,react,-1923.222058073905
bayes,scaled,itself,val+test_EU_sample_2pct,top_50,react,-1943.6578336136329
bayes,scaled,itself,val+test_EU_sample_2pct,all,react,-1926.0085976511773
bayes,scaled,itself,val_inter_EWU+EU_sample_2pct,top_5,like,-2054.172075097714
bayes,scaled,itself,val_inter_EWU+EU_sample_2pct,top_10,like,-2046.41092021537
bayes,scaled,itself,val_inter_EWU+EU_sample_2pct,top_25,like,-2027.045624927552
bayes,scaled,itself,val_inter_EWU+EU_sample_2pct,top_50,like,-2015.486850119187
bayes,scaled,itself,val_inter_EWU+EU_sample_2pct,all,like,-2016.2689123182786
bayes,scaled,itself,val_inter_EWU+EU_sample_2pct,top_5,reply,-734.3180898598442
bayes,scaled,itself,val_inter_EWU+EU_sample_2pct,top_10,reply,-889.2183880837639
bayes,scaled,itself,val_inter_EWU+EU_sample_2pct,top_25,reply,-865.6340050804828
bayes,scaled,itself,val_inter_EWU+EU_sample_2pct,top_50,reply,-1453.2069305744199
bayes,scaled,itself,val_inter_EWU+EU_sample_2pct,all,reply,-639.1068620858376
bayes,scaled,itself,val_inter_EWU+EU_sample_2pct,top_5,retweet,-1155.1565704304996
bayes,scaled,itself,val_inter_EWU+EU_sample_2pct,top_10,retweet,-1244.3901201665872
bayes,scaled,itself,val_inter_EWU+EU_sample_2pct,top_25,retweet,-1624.0827417416879
bayes,scaled,itself,val_inter_EWU+EU_sample_2pct,top_50,retweet,-2442.70949630961
bayes,scaled,itself,val_inter_EWU+EU_sample_2pct,all,retweet,-959.4233770876663
bayes,scaled,itself,val_inter_EWU+EU_sample_2pct,top_5,quote,-477.1678507677187
bayes,scaled,itself,val_inter_EWU+EU_sample_2pct,top_10,quote,-477.1678507677187
bayes,scaled,itself,val_inter_EWU+EU_sample_2pct,top_25,quote,-578.7284070305112
bayes,scaled,itself,val_inter_EWU+EU_sample_2pct,top_50,quote,-4111.6134517042765
bayes,scaled,itself,val_inter_EWU+EU_sample_2pct,all,quote,-477.1678507677187
bayes,scaled,itself,val_inter_EWU+EU_sample_2pct,top_5,react,-2171.946161240694
bayes,scaled,itself,val_inter_EWU+EU_sample_2pct,top_10,react,-2061.665957636919
bayes,scaled,itself,val_inter_EWU+EU_sample_2pct,top_25,react,-2033.469221274127
bayes,scaled,itself,val_inter_EWU+EU_sample_2pct,top_50,react,-2028.1229933454465
bayes,scaled,itself,val_inter_EWU+EU_sample_2pct,all,react,-1978.0382592383746
bayes,scaled,itself,test_inter_EWU+EU_sample_2pct,top_5,like,-2048.419207347324
bayes,scaled,itself,test_inter_EWU+EU_sample_2pct,top_10,like,-2044.4436971200955
bayes,scaled,itself,test_inter_EWU+EU_sample_2pct,top_25,like,-2026.2424389412006
bayes,scaled,itself,test_inter_EWU+EU_sample_2pct,top_50,like,-2053.1188776461127
bayes,scaled,itself,test_inter_EWU+EU_sample_2pct,all,like,-1997.1080113802436
bayes,scaled,itself,test_inter_EWU+EU_sample_2pct,top_5,reply,-716.3630298144408
bayes,scaled,itself,test_inter_EWU+EU_sample_2pct,top_10,reply,-866.6662631775192
bayes,scaled,itself,test_inter_EWU+EU_sample_2pct,top_25,reply,-799.8013708175674
bayes,scaled,itself,test_inter_EWU+EU_sample_2pct,top_50,reply,-1129.697145649513
bayes,scaled,itself,test_inter_EWU+EU_sample_2pct,all,reply,-642.9259021744782
bayes,scaled,itself,test_inter_EWU+EU_sample_2pct,top_5,retweet,-1159.8586651725611
bayes,scaled,itself,test_inter_EWU+EU_sample_2pct,top_10,retweet,-1220.3459303759946
bayes,scaled,itself,test_inter_EWU+EU_sample_2pct,top_25,retweet,-1981.5320710140631
bayes,scaled,itself,test_inter_EWU+EU_sample_2pct,top_50,retweet,-2758.6348894412486
bayes,scaled,itself,test_inter_EWU+EU_sample_2pct,all,retweet,-956.8548831820694
bayes,scaled,itself,test_inter_EWU+EU_sample_2pct,top_5,quote,-476.8657756859791
bayes,scaled,itself,test_inter_EWU+EU_sample_2pct,top_10,quote,-476.8657756859791
bayes,scaled,itself,test_inter_EWU+EU_sample_2pct,top_25,quote,-3122.8860836413355
bayes,scaled,itself,test_inter_EWU+EU_sample_2pct,top_50,quote,-8550.662422445088
bayes,scaled,itself,test_inter_EWU+EU_sample_2pct,all,quote,-476.8657756859791
bayes,scaled,itself,test_inter_EWU+EU_sample_2pct,top_5,react,-2156.2753820047124
bayes,scaled,itself,test_inter_EWU+EU_sample_2pct,top_10,react,-2098.8181658937865
bayes,scaled,itself,test_inter_EWU+EU_sample_2pct,top_25,react,-2028.071900122824
bayes,scaled,itself,test_inter_EWU+EU_sample_2pct,top_50,react,-2025.096439726693
bayes,scaled,itself,test_inter_EWU+EU_sample_2pct,all,react,-2014.6902647987408
bayes,scaled,itself,val+test_inter_EWU+EU_sample_2pct,top_5,like,-2047.8711316599374
bayes,scaled,itself,val+test_inter_EWU+EU_sample_2pct,top_10,like,-2056.2053928680484
bayes,scaled,itself,val+test_inter_EWU+EU_sample_2pct,top_25,like,-2035.2737458924253
bayes,scaled,itself,val+test_inter_EWU+EU_sample_2pct,top_50,like,-2045.2200606422848
bayes,scaled,itself,val+test_inter_EWU+EU_sample_2pct,all,like,-2009.3113931643015
bayes,scaled,itself,val+test_inter_EWU+EU_sample_2pct,top_5,reply,-737.6588910608867
bayes,scaled,itself,val+test_inter_EWU+EU_sample_2pct,top_10,reply,-945.2218919233733
bayes,scaled,itself,val+test_inter_EWU+EU_sample_2pct,top_25,reply,-905.4381295693537
bayes,scaled,itself,val+test_inter_EWU+EU_sample_2pct,top_50,reply,-1647.7004715548176
bayes,scaled,itself,val+test_inter_EWU+EU_sample_2pct,all,reply,-642.4658588353652
bayes,scaled,itself,val+test_inter_EWU+EU_sample_2pct,top_5,retweet,-1164.3151011840473
bayes,scaled,itself,val+test_inter_EWU+EU_sample_2pct,top_10,retweet,-1238.8634287276027
bayes,scaled,itself,val+test_inter_EWU+EU_sample_2pct,top_25,retweet,-1888.500123479984
bayes,scaled,itself,val+test_inter_EWU+EU_sample_2pct,top_50,retweet,-2731.8719710819764
bayes,scaled,itself,val+test_inter_EWU+EU_sample_2pct,all,retweet,-960.0518608612738
bayes,scaled,itself,val+test_inter_EWU+EU_sample_2pct,top_5,quote,-476.8514465782988
bayes,scaled,itself,val+test_inter_EWU+EU_sample_2pct,top_10,quote,-476.8514465782988
bayes,scaled,itself,val+test_inter_EWU+EU_sample_2pct,top_25,quote,-1591.3455307614815
bayes,scaled,itself,val+test_inter_EWU+EU_sample_2pct,top_50,quote,-8287.388903945584
bayes,scaled,itself,val+test_inter_EWU+EU_sample_2pct,all,quote,-476.8514465782988
bayes,scaled,itself,val+test_inter_EWU+EU_sample_2pct,top_5,react,-2165.4125549137584
bayes,scaled,itself,val+test_inter_EWU+EU_sample_2pct,top_10,react,-2032.5195959223142
bayes,scaled,itself,val+test_inter_EWU+EU_sample_2pct,top_25,react,-2027.8872975530041
bayes,scaled,itself,val+test_inter_EWU+EU_sample_2pct,top_50,react,-2033.9588642121435
bayes,scaled,itself,val+test_inter_EWU+EU_sample_2pct,all,react,-1991.9567169008624
bayes,scaled,itself,val_tweet_sample_2pct,top_5,like,-2075.4272208952793
bayes,scaled,itself,val_tweet_sample_2pct,top_10,like,-2010.320426579937
bayes,scaled,itself,val_tweet_sample_2pct,top_25,like,-1939.623142218559
bayes,scaled,itself,val_tweet_sample_2pct,top_50,like,-1905.769980448065
bayes,scaled,itself,val_tweet_sample_2pct,all,like,-1862.470336832403
bayes,scaled,itself,val_tweet_sample_2pct,top_5,reply,-679.502902216055
bayes,scaled,itself,val_tweet_sample_2pct,top_10,reply,-760.3336788839035
bayes,scaled,itself,val_tweet_sample_2pct,top_25,reply,-735.8008720312199
bayes,scaled,itself,val_tweet_sample_2pct,top_50,reply,-6773.719167490193
bayes,scaled,itself,val_tweet_sample_2pct,all,reply,-640.9310311748814
bayes,scaled,itself,val_tweet_sample_2pct,top_5,retweet,-1255.1239651994288
bayes,scaled,itself,val_tweet_sample_2pct,top_10,retweet,-1300.6895184711805
bayes,scaled,itself,val_tweet_sample_2pct,top_25,retweet,-1678.7894866110598
bayes,scaled,itself,val_tweet_sample_2pct,top_50,retweet,-2457.353515007286
bayes,scaled,itself,val_tweet_sample_2pct,all,retweet,-958.2213533188257
bayes,scaled,itself,val_tweet_sample_2pct,top_5,quote,-479.0698100357134
bayes,scaled,itself,val_tweet_sample_2pct,top_10,quote,-479.0698100357134
bayes,scaled,itself,val_tweet_sample_2pct,top_25,quote,-3384.5898280816555
bayes,scaled,itself,val_tweet_sample_2pct,top_50,quote,-7102.361818430869
bayes,scaled,itself,val_tweet_sample_2pct,all,quote,-479.0698100357134
bayes,scaled,itself,val_tweet_sample_2pct,top_5,react,-2141.063631010272
bayes,scaled,itself,val_tweet_sample_2pct,top_10,react,-1884.6822131412437
bayes,scaled,itself,val_tweet_sample_2pct,top_25,react,-1944.764489247523
bayes,scaled,itself,val_tweet_sample_2pct,top_50,react,-1947.8859558960828
bayes,scaled,itself,val_tweet_sample_2pct,all,react,-1879.0177193712354
bayes,scaled,itself,test_tweet_sample_2pct,top_5,like,-2064.780929532621
bayes,scaled,itself,test_tweet_sample_2pct,top_10,like,-2024.2265375545849
bayes,scaled,itself,test_tweet_sample_2pct,top_25,like,-1957.3576202085605
bayes,scaled,itself,test_tweet_sample_2pct,top_50,like,-1932.4104061822463
bayes,scaled,itself,test_tweet_sample_2pct,all,like,-1900.4003551144415
bayes,scaled,itself,test_tweet_sample_2pct,top_5,reply,-779.0257886127298
bayes,scaled,itself,test_tweet_sample_2pct,top_10,reply,-891.4290046229908
bayes,scaled,itself,test_tweet_sample_2pct,top_25,reply,-884.8418507056406
bayes,scaled,itself,test_tweet_sample_2pct,top_50,reply,-6628.3391430716965
bayes,scaled,itself,test_tweet_sample_2pct,all,reply,-642.5161731965261
bayes,scaled,itself,test_tweet_sample_2pct,top_5,retweet,-1275.8233145326676
bayes,scaled,itself,test_tweet_sample_2pct,top_10,retweet,-1331.7053649751767
bayes,scaled,itself,test_tweet_sample_2pct,top_25,retweet,-1695.378131319353
bayes,scaled,itself,test_tweet_sample_2pct,top_50,retweet,-2558.264816363056
bayes,scaled,itself,test_tweet_sample_2pct,all,retweet,-959.2975210441735
bayes,scaled,itself,test_tweet_sample_2pct,top_5,quote,-478.6075616880329
bayes,scaled,itself,test_tweet_sample_2pct,top_10,quote,-478.6075616880329
bayes,scaled,itself,test_tweet_sample_2pct,top_25,quote,-4149.134709195349
bayes,scaled,itself,test_tweet_sample_2pct,top_50,quote,-9623.003652134008
bayes,scaled,itself,test_tweet_sample_2pct,all,quote,-478.6075616880329
bayes,scaled,itself,test_tweet_sample_2pct,top_5,react,-2157.2791836705555
bayes,scaled,itself,test_tweet_sample_2pct,top_10,react,-2044.8945824775933
bayes,scaled,itself,test_tweet_sample_2pct,top_25,react,-1943.3117403638284
bayes,scaled,itself,test_tweet_sample_2pct,top_50,react,-1953.585716387676
bayes,scaled,itself,test_tweet_sample_2pct,all,react,-1888.037678039292
bayes,scaled,itself,val+test_tweet_sample_2pct,top_5,like,-2069.18604896838
bayes,scaled,itself,val+test_tweet_sample_2pct,top_10,like,-1989.5631016599411
bayes,scaled,itself,val+test_tweet_sample_2pct,top_25,like,-1946.670409021572
bayes,scaled,itself,val+test_tweet_sample_2pct,top_50,like,-1917.8296433668795
bayes,scaled,itself,val+test_tweet_sample_2pct,all,like,-1880.8466108285645
bayes,scaled,itself,val+test_tweet_sample_2pct,top_5,reply,-745.2729749462325
bayes,scaled,itself,val+test_tweet_sample_2pct,top_10,reply,-852.2031184590338
bayes,scaled,itself,val+test_tweet_sample_2pct,top_25,reply,-854.8112416636967
bayes,scaled,itself,val+test_tweet_sample_2pct,top_50,reply,-7404.194487713326
bayes,scaled,itself,val+test_tweet_sample_2pct,all,reply,-641.7262816235952
bayes,scaled,itself,val+test_tweet_sample_2pct,top_5,retweet,-1262.1863807145692
bayes,scaled,itself,val+test_tweet_sample_2pct,top_10,retweet,-1301.6219153622228
bayes,scaled,itself,val+test_tweet_sample_2pct,top_25,retweet,-1674.4821580775879
bayes,scaled,itself,val+test_tweet_sample_2pct,top_50,retweet,-2452.479923463233
bayes,scaled,itself,val+test_tweet_sample_2pct,all,retweet,-958.760654197512
bayes,scaled,itself,val+test_tweet_sample_2pct,top_5,quote,-478.8383989177211
bayes,scaled,itself,val+test_tweet_sample_2pct,top_10,quote,-478.8383989177211
bayes,scaled,itself,val+test_tweet_sample_2pct,top_25,quote,-4250.569577817649
bayes,scaled,itself,val+test_tweet_sample_2pct,top_50,quote,-8572.058233177591
bayes,scaled,itself,val+test_tweet_sample_2pct,all,quote,-478.8383989177211
bayes,scaled,itself,val+test_tweet_sample_2pct,top_5,react,-2168.923564486768
bayes,scaled,itself,val+test_tweet_sample_2pct,top_10,react,-1969.462331310503
bayes,scaled,itself,val+test_tweet_sample_2pct,top_25,react,-1940.4221889663504
bayes,scaled,itself,val+test_tweet_sample_2pct,top_50,react,-1947.2353389706077
bayes,scaled,itself,val+test_tweet_sample_2pct,all,react,-1880.7316130929175
bayes,scaled,itself,val_random_sample_5pct,top_5,like,-2100.7162887808568
bayes,scaled,itself,val_random_sample_5pct,top_10,like,-1974.29425076069
bayes,scaled,itself,val_random_sample_5pct,top_25,like,-1986.9695919050012
bayes,scaled,itself,val_random_sample_5pct,top_50,like,-2013.4594887575704
bayes,scaled,itself,val_random_sample_5pct,all,like,-1937.7648152824247
bayes,scaled,itself,val_random_sample_5pct,top_5,reply,-839.3673251836508
bayes,scaled,itself,val_random_sample_5pct,top_10,reply,-777.5355630850161
bayes,scaled,itself,val_random_sample_5pct,top_25,reply,-1217.34686517568
bayes,scaled,itself,val_random_sample_5pct,top_50,reply,-7595.584926193697
bayes,scaled,itself,val_random_sample_5pct,all,reply,-644.5915088883894
bayes,scaled,itself,val_random_sample_5pct,top_5,retweet,-1286.6050286532484
bayes,scaled,itself,val_random_sample_5pct,top_10,retweet,-1265.4535971019127
bayes,scaled,itself,val_random_sample_5pct,top_25,retweet,-2115.8267744173268
bayes,scaled,itself,val_random_sample_5pct,top_50,retweet,-2802.448462074896
bayes,scaled,itself,val_random_sample_5pct,all,retweet,-4372.293373514675
bayes,scaled,itself,val_random_sample_5pct,top_5,quote,-475.22388332251836
bayes,scaled,itself,val_random_sample_5pct,top_10,quote,-475.22388332251836
bayes,scaled,itself,val_random_sample_5pct,top_25,quote,-3911.0607327061157
bayes,scaled,itself,val_random_sample_5pct,top_50,quote,-6704.78339275255
bayes,scaled,itself,val_random_sample_5pct,all,quote,-475.22388332251836
bayes,scaled,itself,val_random_sample_5pct,top_5,react,-2143.088034125745
bayes,scaled,itself,val_random_sample_5pct,top_10,react,-2041.495651612624
bayes,scaled,itself,val_random_sample_5pct,top_25,react,-1871.1353973384287
bayes,scaled,itself,val_random_sample_5pct,top_50,react,-1882.330409514039
bayes,scaled,itself,val_random_sample_5pct,all,react,-1858.7582718284928
bayes,scaled,itself,test_random_sample_5pct,top_5,like,-2098.0577372157727
bayes,scaled,itself,test_random_sample_5pct,top_10,like,-1969.1313388292292
bayes,scaled,itself,test_random_sample_5pct,top_25,like,-1990.680832924288
bayes,scaled,itself,test_random_sample_5pct,top_50,like,-2011.9026247872387
bayes,scaled,itself,test_random_sample_5pct,all,like,-2028.2687955019699
bayes,scaled,itself,test_random_sample_5pct,top_5,reply,-873.223719515234
bayes,scaled,itself,test_random_sample_5pct,top_10,reply,-820.4070288745404
bayes,scaled,itself,test_random_sample_5pct,top_25,reply,-1202.2016154814146
bayes,scaled,itself,test_random_sample_5pct,top_50,reply,-6978.260879426201
bayes,scaled,itself,test_random_sample_5pct,all,reply,-643.9245097473048
bayes,scaled,itself,test_random_sample_5pct,top_5,retweet,-1321.4326507434494
bayes,scaled,itself,test_random_sample_5pct,top_10,retweet,-1313.3776018111255
bayes,scaled,itself,test_random_sample_5pct,top_25,retweet,-2009.123519265783
bayes,scaled,itself,test_random_sample_5pct,top_50,retweet,-2701.5299128222127
bayes,scaled,itself,test_random_sample_5pct,all,retweet,-960.9222624896366
bayes,scaled,itself,test_random_sample_5pct,top_5,quote,-478.0986665257921
bayes,scaled,itself,test_random_sample_5pct,top_10,quote,-478.0986665257921
bayes,scaled,itself,test_random_sample_5pct,top_25,quote,-3756.772491072345
bayes,scaled,itself,test_random_sample_5pct,top_50,quote,-5144.209305603709
bayes,scaled,itself,test_random_sample_5pct,all,quote,-478.0986665257921
bayes,scaled,itself,test_random_sample_5pct,top_5,react,-2134.4479687032567
bayes,scaled,itself,test_random_sample_5pct,top_10,react,-2035.6657029061703
bayes,scaled,itself,test_random_sample_5pct,top_25,react,-1867.2331007643509
bayes,scaled,itself,test_random_sample_5pct,top_50,react,-1880.888339683212
bayes,scaled,itself,test_random_sample_5pct,all,react,-1861.893363033829
bayes,scaled,itself,val+test_random_sample_5pct,top_5,like,-2099.1195961732965
bayes,scaled,itself,val+test_random_sample_5pct,top_10,like,-2003.171110828027
bayes,scaled,itself,val+test_random_sample_5pct,top_25,like,-1967.3957172794715
bayes,scaled,itself,val+test_random_sample_5pct,top_50,like,-2002.5265221009531
bayes,scaled,itself,val+test_random_sample_5pct,all,like,-1918.54145584406
bayes,scaled,itself,val+test_random_sample_5pct,top_5,reply,-851.2292156862346
bayes,scaled,itself,val+test_random_sample_5pct,top_10,reply,-811.5974745309312
bayes,scaled,itself,val+test_random_sample_5pct,top_25,reply,-1312.9499751521205
bayes,scaled,itself,val+test_random_sample_5pct,top_50,reply,-8992.485304116992
bayes,scaled,itself,val+test_random_sample_5pct,all,reply,-644.2569132439311
bayes,scaled,itself,val+test_random_sample_5pct,top_5,retweet,-1316.9872161524104
bayes,scaled,itself,val+test_random_sample_5pct,top_10,retweet,-1317.3608485157336
bayes,scaled,itself,val+test_random_sample_5pct,top_25,retweet,-2044.0620599151514
bayes,scaled,itself,val+test_random_sample_5pct,top_50,retweet,-2829.551425141971
bayes,scaled,itself,val+test_random_sample_5pct,all,retweet,-4378.367981029411
bayes,scaled,itself,val+test_random_sample_5pct,top_5,quote,-476.6738838099202
bayes,scaled,itself,val+test_random_sample_5pct,top_10,quote,-476.6738838099202
bayes,scaled,itself,val+test_random_sample_5pct,top_25,quote,-3646.352669474958
bayes,scaled,itself,val+test_random_sample_5pct,top_50,quote,-5866.207521145784
bayes,scaled,itself,val+test_random_sample_5pct,all,quote,-476.6738838099202
bayes,scaled,itself,val+test_random_sample_5pct,top_5,react,-2135.6296770556964
bayes,scaled,itself,val+test_random_sample_5pct,top_10,react,-2041.923996746257
bayes,scaled,itself,val+test_random_sample_5pct,top_25,react,-1859.323023250256
bayes,scaled,itself,val+test_random_sample_5pct,top_50,react,-1873.1420605378266
bayes,scaled,itself,val+test_random_sample_5pct,all,react,-1849.7081925082211
bayes,scaled,itself,val_EWU_sample_5pct,top_5,like,-2056.7004306002273
bayes,scaled,itself,val_EWU_sample_5pct,top_10,like,-2055.3771968403103
bayes,scaled,itself,val_EWU_sample_5pct,top_25,like,-2022.8870700587272
bayes,scaled,itself,val_EWU_sample_5pct,top_50,like,-2014.4303510702991
bayes,scaled,itself,val_EWU_sample_5pct,all,like,-1964.459850421073
bayes,scaled,itself,val_EWU_sample_5pct,top_5,reply,-715.9932181073867
bayes,scaled,itself,val_EWU_sample_5pct,top_10,reply,-1036.6239389474276
bayes,scaled,itself,val_EWU_sample_5pct,top_25,reply,-1398.764308261783
bayes,scaled,itself,val_EWU_sample_5pct,top_50,reply,-8337.392265848659
bayes,scaled,itself,val_EWU_sample_5pct,all,reply,-643.906824088228
bayes,scaled,itself,val_EWU_sample_5pct,top_5,retweet,-1134.2862799672807
bayes,scaled,itself,val_EWU_sample_5pct,top_10,retweet,-1214.6453423235046
bayes,scaled,itself,val_EWU_sample_5pct,top_25,retweet,-1986.3466312844669
bayes,scaled,itself,val_EWU_sample_5pct,top_50,retweet,-2979.245843761698
bayes,scaled,itself,val_EWU_sample_5pct,all,retweet,-959.2094744508403
bayes,scaled,itself,val_EWU_sample_5pct,top_5,quote,-477.06689454532125
bayes,scaled,itself,val_EWU_sample_5pct,top_10,quote,-477.06689454532125
bayes,scaled,itself,val_EWU_sample_5pct,top_25,quote,-1878.7393213150785
bayes,scaled,itself,val_EWU_sample_5pct,top_50,quote,-11237.623527273388
bayes,scaled,itself,val_EWU_sample_5pct,all,quote,-477.06689454532125
bayes,scaled,itself,val_EWU_sample_5pct,top_5,react,-2144.5073675729764
bayes,scaled,itself,val_EWU_sample_5pct,top_10,react,-2065.9326408432235
bayes,scaled,itself,val_EWU_sample_5pct,top_25,react,-2062.6279762757144
bayes,scaled,itself,val_EWU_sample_5pct,top_50,react,-2093.5493610668964
bayes,scaled,itself,val_EWU_sample_5pct,all,react,-1913.7665612067074
bayes,scaled,itself,test_EWU_sample_5pct,top_5,like,-2067.5314156014947
bayes,scaled,itself,test_EWU_sample_5pct,top_10,like,-2083.9304311015453
bayes,scaled,itself,test_EWU_sample_5pct,top_25,like,-2009.3318516000425
bayes,scaled,itself,test_EWU_sample_5pct,top_50,like,-1997.9505652815733
bayes,scaled,itself,test_EWU_sample_5pct,all,like,-1959.004315254929
bayes,scaled,itself,test_EWU_sample_5pct,top_5,reply,-771.2625742568891
bayes,scaled,itself,test_EWU_sample_5pct,top_10,reply,-1232.0968491583976
bayes,scaled,itself,test_EWU_sample_5pct,top_25,reply,-1937.192661793517
bayes,scaled,itself,test_EWU_sample_5pct,top_50,reply,-8797.804536032012
bayes,scaled,itself,test_EWU_sample_5pct,all,reply,-644.5920251792003
bayes,scaled,itself,test_EWU_sample_5pct,top_5,retweet,-1171.7717057717841
bayes,scaled,itself,test_EWU_sample_5pct,top_10,retweet,-1293.007726786224
bayes,scaled,itself,test_EWU_sample_5pct,top_25,retweet,-2358.371032859014
bayes,scaled,itself,test_EWU_sample_5pct,top_50,retweet,-3503.464854390975
bayes,scaled,itself,test_EWU_sample_5pct,all,retweet,-959.384057373948
bayes,scaled,itself,test_EWU_sample_5pct,top_5,quote,-475.6100747020608
bayes,scaled,itself,test_EWU_sample_5pct,top_10,quote,-478.79216507426605
bayes,scaled,itself,test_EWU_sample_5pct,top_25,quote,-4697.072731260556
bayes,scaled,itself,test_EWU_sample_5pct,top_50,quote,-15286.904372707237
bayes,scaled,itself,test_EWU_sample_5pct,all,quote,-475.6100747020608
bayes,scaled,itself,test_EWU_sample_5pct,top_5,react,-2135.571520896129
bayes,scaled,itself,test_EWU_sample_5pct,top_10,react,-2070.4557880310954
bayes,scaled,itself,test_EWU_sample_5pct,top_25,react,-2043.2136716601858
bayes,scaled,itself,test_EWU_sample_5pct,top_50,react,-2061.1814321904158
bayes,scaled,itself,test_EWU_sample_5pct,all,react,-1889.8176683018482
bayes,scaled,itself,val+test_EWU_sample_5pct,top_5,like,-2059.5365762829465
bayes,scaled,itself,val+test_EWU_sample_5pct,top_10,like,-2069.792046443618
bayes,scaled,itself,val+test_EWU_sample_5pct,top_25,like,-2017.0313177746705
bayes,scaled,itself,val+test_EWU_sample_5pct,top_50,like,-2017.714865141286
bayes,scaled,itself,val+test_EWU_sample_5pct,all,like,-1958.3328728074434
bayes,scaled,itself,val+test_EWU_sample_5pct,top_5,reply,-752.9970343817697
bayes,scaled,itself,val+test_EWU_sample_5pct,top_10,reply,-1220.9972181070434
bayes,scaled,itself,val+test_EWU_sample_5pct,top_25,reply,-1849.2345652646925
bayes,scaled,itself,val+test_EWU_sample_5pct,top_50,reply,-9012.865004406898
bayes,scaled,itself,val+test_EWU_sample_5pct,all,reply,-644.25176140934
bayes,scaled,itself,val+test_EWU_sample_5pct,top_5,retweet,-1152.9285302958915
bayes,scaled,itself,val+test_EWU_sample_5pct,top_10,retweet,-1243.0888417586991
bayes,scaled,itself,val+test_EWU_sample_5pct,top_25,retweet,-2137.3175788489093
bayes,scaled,itself,val+test_EWU_sample_5pct,top_50,retweet,-3226.752481653947
bayes,scaled,itself,val+test_EWU_sample_5pct,all,retweet,-959.2973140179688
bayes,scaled,itself,val+test_EWU_sample_5pct,top_5,quote,-476.3357579672991
bayes,scaled,itself,val+test_EWU_sample_5pct,top_10,quote,-476.3357579672991
bayes,scaled,itself,val+test_EWU_sample_5pct,top_25,quote,-3926.9789440092327
bayes,scaled,itself,val+test_EWU_sample_5pct,top_50,quote,-13033.681932443877
bayes,scaled,itself,val+test_EWU_sample_5pct,all,quote,-476.3357579672991
bayes,scaled,itself,val+test_EWU_sample_5pct,top_5,react,-2121.2353154648167
bayes,scaled,itself,val+test_EWU_sample_5pct,top_10,react,-2065.898798323588
bayes,scaled,itself,val+test_EWU_sample_5pct,top_25,react,-2051.4965919867604
bayes,scaled,itself,val+test_EWU_sample_5pct,top_50,react,-2077.6259824125254
bayes,scaled,itself,val+test_EWU_sample_5pct,all,react,-1893.9124104145894
bayes,scaled,itself,val_EU_sample_5pct,top_5,like,-2059.177687665801
bayes,scaled,itself,val_EU_sample_5pct,top_10,like,-2003.5018910014567
bayes,scaled,itself,val_EU_sample_5pct,top_25,like,-1974.8283400068128
bayes,scaled,itself,val_EU_sample_5pct,top_50,like,-2031.6708939717873
bayes,scaled,itself,val_EU_sample_5pct,all,like,-2027.5623571775961
bayes,scaled,itself,val_EU_sample_5pct,top_5,reply,-891.8340110640147
bayes,scaled,itself,val_EU_sample_5pct,top_10,reply,-833.8214620945568
bayes,scaled,itself,val_EU_sample_5pct,top_25,reply,-1144.9699297641314
bayes,scaled,itself,val_EU_sample_5pct,top_50,reply,-6702.960717354613
bayes,scaled,itself,val_EU_sample_5pct,all,reply,-642.7575660491804
bayes,scaled,itself,val_EU_sample_5pct,top_5,retweet,-1275.341450584791
bayes,scaled,itself,val_EU_sample_5pct,top_10,retweet,-1239.6248703958356
bayes,scaled,itself,val_EU_sample_5pct,top_25,retweet,-1935.0786209294029
bayes,scaled,itself,val_EU_sample_5pct,top_50,retweet,-2739.986427693287
bayes,scaled,itself,val_EU_sample_5pct,all,retweet,-955.8816688020238
bayes,scaled,itself,val_EU_sample_5pct,top_5,quote,-477.37776742625516
bayes,scaled,itself,val_EU_sample_5pct,top_10,quote,-477.37776742625516
bayes,scaled,itself,val_EU_sample_5pct,top_25,quote,-2910.940201352313
bayes,scaled,itself,val_EU_sample_5pct,top_50,quote,-4178.7013299158825
bayes,scaled,itself,val_EU_sample_5pct,all,quote,-477.37776742625516
bayes,scaled,itself,val_EU_sample_5pct,top_5,react,-2129.6712108311835
bayes,scaled,itself,val_EU_sample_5pct,top_10,react,-2039.574939583737
bayes,scaled,itself,val_EU_sample_5pct,top_25,react,-1876.4600458043399
bayes,scaled,itself,val_EU_sample_5pct,top_50,react,-1889.3515017815384
bayes,scaled,itself,val_EU_sample_5pct,all,react,-1863.6302402766712
bayes,scaled,itself,test_EU_sample_5pct,top_5,like,-2101.320575939454
bayes,scaled,itself,test_EU_sample_5pct,top_10,like,-1964.9586922643784
bayes,scaled,itself,test_EU_sample_5pct,top_25,like,-1994.893879024519
bayes,scaled,itself,test_EU_sample_5pct,top_50,like,-2019.996038381922
bayes,scaled,itself,test_EU_sample_5pct,all,like,-2026.8213211239854
bayes,scaled,itself,test_EU_sample_5pct,top_5,reply,-823.7489437183644
bayes,scaled,itself,test_EU_sample_5pct,top_10,reply,-789.2937035247702
bayes,scaled,itself,test_EU_sample_5pct,top_25,reply,-1344.8926133027478
bayes,scaled,itself,test_EU_sample_5pct,top_50,reply,-7444.530941000289
bayes,scaled,itself,test_EU_sample_5pct,all,reply,-644.7252270428863
bayes,scaled,itself,test_EU_sample_5pct,top_5,retweet,-1282.9761066273775
bayes,scaled,itself,test_EU_sample_5pct,top_10,retweet,-1264.6688704080036
bayes,scaled,itself,test_EU_sample_5pct,top_25,retweet,-2034.562455022318
bayes,scaled,itself,test_EU_sample_5pct,top_50,retweet,-2760.462018295015
bayes,scaled,itself,test_EU_sample_5pct,all,retweet,-961.0191182298756
bayes,scaled,itself,test_EU_sample_5pct,top_5,quote,-477.26043094046616
bayes,scaled,itself,test_EU_sample_5pct,top_10,quote,-477.26043094046616
bayes,scaled,itself,test_EU_sample_5pct,top_25,quote,-3652.675188101289
bayes,scaled,itself,test_EU_sample_5pct,top_50,quote,-5293.691683343571
bayes,scaled,itself,test_EU_sample_5pct,all,quote,-477.26043094046616
bayes,scaled,itself,test_EU_sample_5pct,top_5,react,-2130.97091325357
bayes,scaled,itself,test_EU_sample_5pct,top_10,react,-2034.8977646624296
bayes,scaled,itself,test_EU_sample_5pct,top_25,react,-1870.221682780838
bayes,scaled,itself,test_EU_sample_5pct,top_50,react,-1882.3422150281824
bayes,scaled,itself,test_EU_sample_5pct,all,react,-1858.72926334254
bayes,scaled,itself,val+test_EU_sample_5pct,top_5,like,-2099.8722546753525
bayes,scaled,itself,val+test_EU_sample_5pct,top_10,like,-2002.7681512490494
bayes,scaled,itself,val+test_EU_sample_5pct,top_25,like,-1977.7030543104627
bayes,scaled,itself,val+test_EU_sample_5pct,top_50,like,-2016.782906045377
bayes,scaled,itself,val+test_EU_sample_5pct,all,like,-2027.1801568121027
bayes,scaled,itself,val+test_EU_sample_5pct,top_5,reply,-857.404916994882
bayes,scaled,itself,val+test_EU_sample_5pct,top_10,reply,-832.4462255900604
bayes,scaled,itself,val+test_EU_sample_5pct,top_25,reply,-1461.2177935161499
bayes,scaled,itself,val+test_EU_sample_5pct,top_50,reply,-8904.179547179205
bayes,scaled,itself,val+test_EU_sample_5pct,all,reply,-643.7478197950709
bayes,scaled,itself,val+test_EU_sample_5pct,top_5,retweet,-1281.62183776565
bayes,scaled,itself,val+test_EU_sample_5pct,top_10,retweet,-1275.3242422678147
bayes,scaled,itself,val+test_EU_sample_5pct,top_25,retweet,-2035.8364453515467
bayes,scaled,itself,val+test_EU_sample_5pct,top_50,retweet,-2868.8843794114973
bayes,scaled,itself,val+test_EU_sample_5pct,all,retweet,-958.4657826250364
bayes,scaled,itself,val+test_EU_sample_5pct,top_5,quote,-477.31882580639854
bayes,scaled,itself,val+test_EU_sample_5pct,top_10,quote,-477.31882580639854
bayes,scaled,itself,val+test_EU_sample_5pct,top_25,quote,-3253.7049429907
bayes,scaled,itself,val+test_EU_sample_5pct,top_50,quote,-5123.158139195339
bayes,scaled,itself,val+test_EU_sample_5pct,all,quote,-477.31882580639854
bayes,scaled,itself,val+test_EU_sample_5pct,top_5,react,-2131.477880604802
bayes,scaled,itself,val+test_EU_sample_5pct,top_10,react,-2043.887980033237
bayes,scaled,itself,val+test_EU_sample_5pct,top_25,react,-1875.455335733887
bayes,scaled,itself,val+test_EU_sample_5pct,top_50,react,-1881.0001238219104
bayes,scaled,itself,val+test_EU_sample_5pct,all,react,-1854.0715970435353
bayes,scaled,itself,val_inter_EWU+EU_sample_5pct,top_5,like,-2050.215381139023
bayes,scaled,itself,val_inter_EWU+EU_sample_5pct,top_10,like,-2029.0920599574094
bayes,scaled,itself,val_inter_EWU+EU_sample_5pct,top_25,like,-2009.123246148477
bayes,scaled,itself,val_inter_EWU+EU_sample_5pct,top_50,like,-2017.4258406552271
bayes,scaled,itself,val_inter_EWU+EU_sample_5pct,all,like,-2016.2759751461756
bayes,scaled,itself,val_inter_EWU+EU_sample_5pct,top_5,reply,-808.3982291100842
bayes,scaled,itself,val_inter_EWU+EU_sample_5pct,top_10,reply,-928.1641224812427
bayes,scaled,itself,val_inter_EWU+EU_sample_5pct,top_25,reply,-930.9801694746308
bayes,scaled,itself,val_inter_EWU+EU_sample_5pct,top_50,reply,-1506.3623083005937
bayes,scaled,itself,val_inter_EWU+EU_sample_5pct,all,reply,-643.5190286652663
bayes,scaled,itself,val_inter_EWU+EU_sample_5pct,top_5,retweet,-1233.7241434913553
bayes,scaled,itself,val_inter_EWU+EU_sample_5pct,top_10,retweet,-1293.4011170313386
bayes,scaled,itself,val_inter_EWU+EU_sample_5pct,top_25,retweet,-1942.0370114824411
bayes,scaled,itself,val_inter_EWU+EU_sample_5pct,top_50,retweet,-2587.286040679125
bayes,scaled,itself,val_inter_EWU+EU_sample_5pct,all,retweet,-962.597530688692
bayes,scaled,itself,val_inter_EWU+EU_sample_5pct,top_5,quote,-476.310673437173
bayes,scaled,itself,val_inter_EWU+EU_sample_5pct,top_10,quote,-476.310673437173
bayes,scaled,itself,val_inter_EWU+EU_sample_5pct,top_25,quote,-1731.522357688896
bayes,scaled,itself,val_inter_EWU+EU_sample_5pct,top_50,quote,-5865.4683876375575
bayes,scaled,itself,val_inter_EWU+EU_sample_5pct,all,quote,-476.310673437173
bayes,scaled,itself,val_inter_EWU+EU_sample_5pct,top_5,react,-2157.4794330656373
bayes,scaled,itself,val_inter_EWU+EU_sample_5pct,top_10,react,-2020.6079340394708
bayes,scaled,itself,val_inter_EWU+EU_sample_5pct,top_25,react,-1993.2459603677694
bayes,scaled,itself,val_inter_EWU+EU_sample_5pct,top_50,react,-1994.7629993027829
bayes,scaled,itself,val_inter_EWU+EU_sample_5pct,all,react,-1963.720327359114
bayes,scaled,itself,test_inter_EWU+EU_sample_5pct,top_5,like,-2073.3141040426253
bayes,scaled,itself,test_inter_EWU+EU_sample_5pct,top_10,like,-2065.987833288439
bayes,scaled,itself,test_inter_EWU+EU_sample_5pct,top_25,like,-2019.287870086976
bayes,scaled,itself,test_inter_EWU+EU_sample_5pct,top_50,like,-2011.4494897281095
bayes,scaled,itself,test_inter_EWU+EU_sample_5pct,all,like,-2012.6283479577216
bayes,scaled,itself,test_inter_EWU+EU_sample_5pct,top_5,reply,-777.5126923434874
bayes,scaled,itself,test_inter_EWU+EU_sample_5pct,top_10,reply,-958.4745202536932
bayes,scaled,itself,test_inter_EWU+EU_sample_5pct,top_25,reply,-1016.284200455374
bayes,scaled,itself,test_inter_EWU+EU_sample_5pct,top_50,reply,-2872.127467987067
bayes,scaled,itself,test_inter_EWU+EU_sample_5pct,all,reply,-640.778423240614
bayes,scaled,itself,test_inter_EWU+EU_sample_5pct,top_5,retweet,-1297.5905480160463
bayes,scaled,itself,test_inter_EWU+EU_sample_5pct,top_10,retweet,-1359.8391993558198
bayes,scaled,itself,test_inter_EWU+EU_sample_5pct,top_25,retweet,-1881.0960426484469
bayes,scaled,itself,test_inter_EWU+EU_sample_5pct,top_50,retweet,-2550.682644062705
bayes,scaled,itself,test_inter_EWU+EU_sample_5pct,all,retweet,-958.90196037948
bayes,scaled,itself,test_inter_EWU+EU_sample_5pct,top_5,quote,-478.4527013995636
bayes,scaled,itself,test_inter_EWU+EU_sample_5pct,top_10,quote,-478.4527013995636
bayes,scaled,itself,test_inter_EWU+EU_sample_5pct,top_25,quote,-1275.824597403528
bayes,scaled,itself,test_inter_EWU+EU_sample_5pct,top_50,quote,-5334.400146735092
bayes,scaled,itself,test_inter_EWU+EU_sample_5pct,all,quote,-478.4527013995636
bayes,scaled,itself,test_inter_EWU+EU_sample_5pct,top_5,react,-2168.391767867688
bayes,scaled,itself,test_inter_EWU+EU_sample_5pct,top_10,react,-2027.6609364035544
bayes,scaled,itself,test_inter_EWU+EU_sample_5pct,top_25,react,-2013.1865112538494
bayes,scaled,itself,test_inter_EWU+EU_sample_5pct,top_50,react,-2011.3206232999212
bayes,scaled,itself,test_inter_EWU+EU_sample_5pct,all,react,-1971.5542307284973
bayes,scaled,itself,val+test_inter_EWU+EU_sample_5pct,top_5,like,-2061.316139933045
bayes,scaled,itself,val+test_inter_EWU+EU_sample_5pct,top_10,like,-2050.073263916424
bayes,scaled,itself,val+test_inter_EWU+EU_sample_5pct,top_25,like,-2017.013683957773
bayes,scaled,itself,val+test_inter_EWU+EU_sample_5pct,top_50,like,-2009.2383779452448
bayes,scaled,itself,val+test_inter_EWU+EU_sample_5pct,all,like,-2011.4877193119016
bayes,scaled,itself,val+test_inter_EWU+EU_sample_5pct,top_5,reply,-802.658315975237
bayes,scaled,itself,val+test_inter_EWU+EU_sample_5pct,top_10,reply,-947.8310190767096
bayes,scaled,itself,val+test_inter_EWU+EU_sample_5pct,top_25,reply,-1006.3582920562656
bayes,scaled,itself,val+test_inter_EWU+EU_sample_5pct,top_50,reply,-2661.670913091075
bayes,scaled,itself,val+test_inter_EWU+EU_sample_5pct,all,reply,-642.1380349266137
bayes,scaled,itself,val+test_inter_EWU+EU_sample_5pct,top_5,retweet,-1263.1354575316093
bayes,scaled,itself,val+test_inter_EWU+EU_sample_5pct,top_10,retweet,-1316.6112318483106
bayes,scaled,itself,val+test_inter_EWU+EU_sample_5pct,top_25,retweet,-2014.8192663397574
bayes,scaled,itself,val+test_inter_EWU+EU_sample_5pct,top_50,retweet,-2638.0115986719047
bayes,scaled,itself,val+test_inter_EWU+EU_sample_5pct,all,retweet,-4130.685820189573
bayes,scaled,itself,val+test_inter_EWU+EU_sample_5pct,top_5,quote,-477.396462968274
bayes,scaled,itself,val+test_inter_EWU+EU_sample_5pct,top_10,quote,-477.396462968274
bayes,scaled,itself,val+test_inter_EWU+EU_sample_5pct,top_25,quote,-2197.220800633939
bayes,scaled,itself,val+test_inter_EWU+EU_sample_5pct,top_50,quote,-6798.016951768189
bayes,scaled,itself,val+test_inter_EWU+EU_sample_5pct,all,quote,-477.396462968274
bayes,scaled,itself,val+test_inter_EWU+EU_sample_5pct,top_5,react,-2154.3131281898677
bayes,scaled,itself,val+test_inter_EWU+EU_sample_5pct,top_10,react,-2020.3292257408825
bayes,scaled,itself,val+test_inter_EWU+EU_sample_5pct,top_25,react,-2006.383673651375
bayes,scaled,itself,val+test_inter_EWU+EU_sample_5pct,top_50,react,-2001.8177816208015
bayes,scaled,itself,val+test_inter_EWU+EU_sample_5pct,all,react,-1966.9222555165447
bayes,scaled,itself,val_tweet_sample_5pct,top_5,like,-2063.9098554077077
bayes,scaled,itself,val_tweet_sample_5pct,top_10,like,-1923.240404084593
bayes,scaled,itself,val_tweet_sample_5pct,top_25,like,-1902.4067045608447
bayes,scaled,itself,val_tweet_sample_5pct,top_50,like,-1885.9868457380371
bayes,scaled,itself,val_tweet_sample_5pct,all,like,-1818.31472899321
bayes,scaled,itself,val_tweet_sample_5pct,top_5,reply,-842.0566036530928
bayes,scaled,itself,val_tweet_sample_5pct,top_10,reply,-883.0114948197912
bayes,scaled,itself,val_tweet_sample_5pct,top_25,reply,-1135.9320004722415
bayes,scaled,itself,val_tweet_sample_5pct,top_50,reply,-9643.309860579066
bayes,scaled,itself,val_tweet_sample_5pct,all,reply,-642.5069182356792
bayes,scaled,itself,val_tweet_sample_5pct,top_5,retweet,-1306.056461758783
bayes,scaled,itself,val_tweet_sample_5pct,top_10,retweet,-1336.315268038477
bayes,scaled,itself,val_tweet_sample_5pct,top_25,retweet,-2063.992869938574
bayes,scaled,itself,val_tweet_sample_5pct,top_50,retweet,-2894.7923801281368
bayes,scaled,itself,val_tweet_sample_5pct,all,retweet,-960.2231555016127
bayes,scaled,itself,val_tweet_sample_5pct,top_5,quote,-476.9748797257578
bayes,scaled,itself,val_tweet_sample_5pct,top_10,quote,-476.9748797257578
bayes,scaled,itself,val_tweet_sample_5pct,top_25,quote,-3003.8657786435137
bayes,scaled,itself,val_tweet_sample_5pct,top_50,quote,-8953.596627665771
bayes,scaled,itself,val_tweet_sample_5pct,all,quote,-476.9748797257578
bayes,scaled,itself,val_tweet_sample_5pct,top_5,react,-2157.707802033739
bayes,scaled,itself,val_tweet_sample_5pct,top_10,react,-1935.7501863151886
bayes,scaled,itself,val_tweet_sample_5pct,top_25,react,-1865.9834965641785
bayes,scaled,itself,val_tweet_sample_5pct,top_50,react,-1868.8641175466346
bayes,scaled,itself,val_tweet_sample_5pct,all,react,-1807.857249047636
bayes,scaled,itself,test_tweet_sample_5pct,top_5,like,-2105.348899921106
bayes,scaled,itself,test_tweet_sample_5pct,top_10,like,-1935.662887037525
bayes,scaled,itself,test_tweet_sample_5pct,top_25,like,-1915.1864605080045
bayes,scaled,itself,test_tweet_sample_5pct,top_50,like,-1890.7952281346925
bayes,scaled,itself,test_tweet_sample_5pct,all,like,-1828.102051250544
bayes,scaled,itself,test_tweet_sample_5pct,top_5,reply,-794.5957222561287
bayes,scaled,itself,test_tweet_sample_5pct,top_10,reply,-811.8242056136355
bayes,scaled,itself,test_tweet_sample_5pct,top_25,reply,-872.3165960744702
bayes,scaled,itself,test_tweet_sample_5pct,top_50,reply,-8725.740618369391
bayes,scaled,itself,test_tweet_sample_5pct,all,reply,-645.9246460876343
bayes,scaled,itself,test_tweet_sample_5pct,top_5,retweet,-1288.9752217749347
bayes,scaled,itself,test_tweet_sample_5pct,top_10,retweet,-1324.7313506418
bayes,scaled,itself,test_tweet_sample_5pct,top_25,retweet,-1922.122110951772
bayes,scaled,itself,test_tweet_sample_5pct,top_50,retweet,-2653.5500804440185
bayes,scaled,itself,test_tweet_sample_5pct,all,retweet,-962.3308019307395
bayes,scaled,itself,test_tweet_sample_5pct,top_5,quote,-479.0966394481229
bayes,scaled,itself,test_tweet_sample_5pct,top_10,quote,-479.0966394481229
bayes,scaled,itself,test_tweet_sample_5pct,top_25,quote,-2529.3559090717263
bayes,scaled,itself,test_tweet_sample_5pct,top_50,quote,-5038.726376424638
bayes,scaled,itself,test_tweet_sample_5pct,all,quote,-479.0966394481229
bayes,scaled,itself,test_tweet_sample_5pct,top_5,react,-2163.92203456297
bayes,scaled,itself,test_tweet_sample_5pct,top_10,react,-1889.66690248821
bayes,scaled,itself,test_tweet_sample_5pct,top_25,react,-1865.1499932909965
bayes,scaled,itself,test_tweet_sample_5pct,top_50,react,-1865.9976222028226
bayes,scaled,itself,test_tweet_sample_5pct,all,react,-1814.4248701007425
bayes,scaled,itself,val+test_tweet_sample_5pct,top_5,like,-2067.6078734410426
bayes,scaled,itself,val+test_tweet_sample_5pct,top_10,like,-1924.6717233172305
bayes,scaled,itself,val+test_tweet_sample_5pct,top_25,like,-1903.376727172661
bayes,scaled,itself,val+test_tweet_sample_5pct,top_50,like,-1891.7924388666636
bayes,scaled,itself,val+test_tweet_sample_5pct,all,like,-1819.070878936529
bayes,scaled,itself,val+test_tweet_sample_5pct,top_5,reply,-824.494780458582
bayes,scaled,itself,val+test_tweet_sample_5pct,top_10,reply,-864.8360797630844
bayes,scaled,itself,val+test_tweet_sample_5pct,top_25,reply,-1112.5834217712925
bayes,scaled,itself,val+test_tweet_sample_5pct,top_50,reply,-9823.126266884508
bayes,scaled,itself,val+test_tweet_sample_5pct,all,reply,-644.2241388731437
bayes,scaled,itself,val+test_tweet_sample_5pct,top_5,retweet,-1305.6868817290422
bayes,scaled,itself,val+test_tweet_sample_5pct,top_10,retweet,-1357.3776254454704
bayes,scaled,itself,val+test_tweet_sample_5pct,top_25,retweet,-1949.7862010648569
bayes,scaled,itself,val+test_tweet_sample_5pct,top_50,retweet,-2861.904116264941
bayes,scaled,itself,val+test_tweet_sample_5pct,all,retweet,-4122.847592816069
bayes,scaled,itself,val+test_tweet_sample_5pct,top_5,quote,-478.04170794948465
bayes,scaled,itself,val+test_tweet_sample_5pct,top_10,quote,-478.04170794948465
bayes,scaled,itself,val+test_tweet_sample_5pct,top_25,quote,-2183.2156347923915
bayes,scaled,itself,val+test_tweet_sample_5pct,top_50,quote,-6268.826927126787
bayes,scaled,itself,val+test_tweet_sample_5pct,all,quote,-478.04170794948465
bayes,scaled,itself,val+test_tweet_sample_5pct,top_5,react,-2159.839102616484
bayes,scaled,itself,val+test_tweet_sample_5pct,top_10,react,-1928.2510560297333
bayes,scaled,itself,val+test_tweet_sample_5pct,top_25,react,-1865.5298220664288
bayes,scaled,itself,val+test_tweet_sample_5pct,top_50,react,-1872.6882021937888
bayes,scaled,itself,val+test_tweet_sample_5pct,all,react,-1810.2482712969988
bayes,scaled,itself,val_random_sample_10pct,top_5,like,-2040.988631909476
bayes,scaled,itself,val_random_sample_10pct,top_10,like,-2003.6183077079706
bayes,scaled,itself,val_random_sample_10pct,top_25,like,-1913.9620105526858
bayes,scaled,itself,val_random_sample_10pct,top_50,like,-1934.8378098983624
bayes,scaled,itself,val_random_sample_10pct,all,like,-1875.9469348557489
bayes,scaled,itself,val_random_sample_10pct,top_5,reply,-932.5220248955068
bayes,scaled,itself,val_random_sample_10pct,top_10,reply,-954.4270063512699
bayes,scaled,itself,val_random_sample_10pct,top_25,reply,-2226.2493530725847
bayes,scaled,itself,val_random_sample_10pct,top_50,reply,-8855.936089040159
bayes,scaled,itself,val_random_sample_10pct,all,reply,-645.0272121121211
bayes,scaled,itself,val_random_sample_10pct,top_5,retweet,-1330.0346693650974
bayes,scaled,itself,val_random_sample_10pct,top_10,retweet,-1370.9301859667164
bayes,scaled,itself,val_random_sample_10pct,top_25,retweet,-2298.173994429293
bayes,scaled,itself,val_random_sample_10pct,top_50,retweet,-3003.073945176417
bayes,scaled,itself,val_random_sample_10pct,all,retweet,-4214.189962327939
bayes,scaled,itself,val_random_sample_10pct,top_5,quote,-477.42722822751404
bayes,scaled,itself,val_random_sample_10pct,top_10,quote,-477.42722822751404
bayes,scaled,itself,val_random_sample_10pct,top_25,quote,-5126.85691050851
bayes,scaled,itself,val_random_sample_10pct,top_50,quote,-9082.847539863453
bayes,scaled,itself,val_random_sample_10pct,all,quote,-477.42722822751404
bayes,scaled,itself,val_random_sample_10pct,top_5,react,-2127.7387700854683
bayes,scaled,itself,val_random_sample_10pct,top_10,react,-2039.663909571765
bayes,scaled,itself,val_random_sample_10pct,top_25,react,-1798.7519271623898
bayes,scaled,itself,val_random_sample_10pct,top_50,react,-1822.692281458492
bayes,scaled,itself,val_random_sample_10pct,all,react,-1801.0500871031861
bayes,scaled,itself,test_random_sample_10pct,top_5,like,-2079.8892913652135
bayes,scaled,itself,test_random_sample_10pct,top_10,like,-1992.2373747337333
bayes,scaled,itself,test_random_sample_10pct,top_25,like,-1904.555159564118
bayes,scaled,itself,test_random_sample_10pct,top_50,like,-1928.1957562718799
bayes,scaled,itself,test_random_sample_10pct,all,like,-1878.8341476238784
bayes,scaled,itself,test_random_sample_10pct,top_5,reply,-933.4640033509282
bayes,scaled,itself,test_random_sample_10pct,top_10,reply,-952.1259470978785
bayes,scaled,itself,test_random_sample_10pct,top_25,reply,-2288.557811205246
bayes,scaled,itself,test_random_sample_10pct,top_50,reply,-8775.319574658457
bayes,scaled,itself,test_random_sample_10pct,all,reply,-644.1501664214576
bayes,scaled,itself,test_random_sample_10pct,top_5,retweet,-1333.9856719796485
bayes,scaled,itself,test_random_sample_10pct,top_10,retweet,-1359.368529283391
bayes,scaled,itself,test_random_sample_10pct,top_25,retweet,-2264.023440431483
bayes,scaled,itself,test_random_sample_10pct,top_50,retweet,-3109.3990917454885
bayes,scaled,itself,test_random_sample_10pct,top_5,quote,-477.74603746285624
bayes,scaled,itself,test_random_sample_10pct,top_10,quote,-477.74603746285624
bayes,scaled,itself,test_random_sample_10pct,top_25,quote,-4600.512631578098
bayes,scaled,itself,test_random_sample_10pct,top_50,quote,-7351.516311544707
bayes,scaled,itself,test_random_sample_10pct,top_5,react,-2127.9342657424468
bayes,scaled,itself,test_random_sample_10pct,top_10,react,-2023.7692714237048
bayes,scaled,itself,test_random_sample_10pct,top_25,react,-1788.8544384192335
bayes,scaled,itself,test_random_sample_10pct,top_50,react,-1816.0547183934052
bayes,scaled,itself,test_random_sample_10pct,all,retweet,-4241.5435001075275
bayes,scaled,itself,test_random_sample_10pct,all,quote,-477.7460374628562
bayes,scaled,itself,test_random_sample_10pct,all,react,-1797.7770681610905
bayes,scaled,itself,val+test_random_sample_10pct,top_5,like,-2045.8664569564808
bayes,scaled,itself,val+test_random_sample_10pct,top_10,like,-2166.597086009693
bayes,scaled,itself,val+test_random_sample_10pct,top_25,like,-1904.3227278784755
bayes,scaled,itself,val+test_random_sample_10pct,top_50,like,-1926.4902812632267
bayes,scaled,itself,val+test_random_sample_10pct,all,like,-1865.4822282200876
bayes,scaled,itself,val+test_random_sample_10pct,top_5,reply,-929.6963886304196
bayes,scaled,itself,val+test_random_sample_10pct,top_10,reply,-999.6628129596796
bayes,scaled,itself,val+test_random_sample_10pct,top_25,reply,-3354.662013128936
bayes,scaled,itself,val+test_random_sample_10pct,top_50,reply,-10116.26801625202
bayes,scaled,itself,val+test_random_sample_10pct,all,reply,-644.587315875844
bayes,scaled,itself,val+test_random_sample_10pct,top_5,retweet,-1333.91030124266
bayes,scaled,itself,val+test_random_sample_10pct,top_10,retweet,-1416.7953072835292
bayes,scaled,itself,val+test_random_sample_10pct,top_25,retweet,-2360.5907333453124
bayes,scaled,itself,val+test_random_sample_10pct,top_50,retweet,-3153.666593691072
bayes,scaled,itself,val+test_random_sample_10pct,all,retweet,-4259.5314769900115
bayes,scaled,itself,val+test_random_sample_10pct,top_5,quote,-477.5873368868468
bayes,scaled,itself,val+test_random_sample_10pct,top_10,quote,-477.5873368868468
bayes,scaled,itself,val+test_random_sample_10pct,top_25,quote,-4814.742719830724
bayes,scaled,itself,val+test_random_sample_10pct,top_50,quote,-8893.456232211103
bayes,scaled,itself,val+test_random_sample_10pct,all,quote,-477.5873368868468
bayes,scaled,itself,val+test_random_sample_10pct,top_5,react,-2121.500498585249
bayes,scaled,itself,val+test_random_sample_10pct,top_10,react,-2034.1581290558522
bayes,scaled,itself,val+test_random_sample_10pct,top_25,react,-1788.0787300213271
bayes,scaled,itself,val+test_random_sample_10pct,top_50,react,-1811.0107281271078
bayes,scaled,itself,val+test_random_sample_10pct,all,react,-1790.242247878586
bayes,scaled,itself,val_EWU_sample_10pct,top_5,like,-2081.927522807256
bayes,scaled,itself,val_EWU_sample_10pct,top_10,like,-2064.4001721072596
bayes,scaled,itself,val_EWU_sample_10pct,top_25,like,-1990.3248798628222
bayes,scaled,itself,val_EWU_sample_10pct,top_50,like,-1992.3617858197251
bayes,scaled,itself,val_EWU_sample_10pct,all,like,-1873.7058232238226
bayes,scaled,itself,val_EWU_sample_10pct,top_5,reply,-734.8792392734512
bayes,scaled,itself,val_EWU_sample_10pct,top_10,reply,-1009.433186964776
bayes,scaled,itself,val_EWU_sample_10pct,top_25,reply,-1331.3105983710825
bayes,scaled,itself,val_EWU_sample_10pct,top_50,reply,-9719.031212624073
bayes,scaled,itself,val_EWU_sample_10pct,all,reply,-643.3426016843367
bayes,scaled,itself,val_EWU_sample_10pct,top_5,retweet,-1203.7350241881807
bayes,scaled,itself,val_EWU_sample_10pct,top_10,retweet,-1313.2563567434688
bayes,scaled,itself,val_EWU_sample_10pct,top_25,retweet,-1903.9237037319647
bayes,scaled,itself,val_EWU_sample_10pct,top_50,retweet,-2665.286170842979
bayes,scaled,itself,val_EWU_sample_10pct,all,retweet,-964.8866486347578
bayes,scaled,itself,val_EWU_sample_10pct,top_5,quote,-476.1249396851382
bayes,scaled,itself,val_EWU_sample_10pct,top_10,quote,-476.1249396851382
bayes,scaled,itself,val_EWU_sample_10pct,top_25,quote,-1653.671031709017
bayes,scaled,itself,val_EWU_sample_10pct,top_50,quote,-8952.418781152728
bayes,scaled,itself,val_EWU_sample_10pct,all,quote,-476.1249396851382
bayes,scaled,itself,val_EWU_sample_10pct,top_5,react,-2133.9541341394315
bayes,scaled,itself,val_EWU_sample_10pct,top_10,react,-2060.496835808644
bayes,scaled,itself,val_EWU_sample_10pct,top_25,react,-1997.643487414224
bayes,scaled,itself,val_EWU_sample_10pct,top_50,react,-2021.2983413670788
bayes,scaled,itself,val_EWU_sample_10pct,all,react,-1872.0192116233027
bayes,scaled,itself,test_EWU_sample_10pct,top_5,like,-2043.952830009693
bayes,scaled,itself,test_EWU_sample_10pct,top_10,like,-2084.8056517636346
bayes,scaled,itself,test_EWU_sample_10pct,top_25,like,-1998.0477766737138
bayes,scaled,itself,test_EWU_sample_10pct,top_50,like,-2004.3720551437743
bayes,scaled,itself,test_EWU_sample_10pct,all,like,-1917.3972980432584
bayes,scaled,itself,test_EWU_sample_10pct,top_5,reply,-756.0963464832528
bayes,scaled,itself,test_EWU_sample_10pct,top_10,reply,-1051.5022149554575
bayes,scaled,itself,test_EWU_sample_10pct,top_25,reply,-1191.784941372875
bayes,scaled,itself,test_EWU_sample_10pct,top_50,reply,-7259.456384272423
bayes,scaled,itself,test_EWU_sample_10pct,all,reply,-644.43998503402
bayes,scaled,itself,test_EWU_sample_10pct,top_5,retweet,-1221.8963847394414
bayes,scaled,itself,test_EWU_sample_10pct,top_10,retweet,-1320.3129034039007
bayes,scaled,itself,test_EWU_sample_10pct,top_25,retweet,-1808.1780532862058
bayes,scaled,itself,test_EWU_sample_10pct,top_50,retweet,-2358.6867344161756
bayes,scaled,itself,test_EWU_sample_10pct,all,retweet,-3789.9862024483646
bayes,scaled,itself,test_EWU_sample_10pct,top_5,quote,-477.7225202808819
bayes,scaled,itself,test_EWU_sample_10pct,top_10,quote,-477.7225202808819
bayes,scaled,itself,test_EWU_sample_10pct,top_25,quote,-2606.983695354447
bayes,scaled,itself,test_EWU_sample_10pct,top_50,quote,-8641.092856230283
bayes,scaled,itself,test_EWU_sample_10pct,all,quote,-477.7225202808819
bayes,scaled,itself,test_EWU_sample_10pct,top_5,react,-2128.1250971901945
bayes,scaled,itself,test_EWU_sample_10pct,top_10,react,-2043.5177946466642
bayes,scaled,itself,test_EWU_sample_10pct,top_25,react,-2029.1199246947958
bayes,scaled,itself,test_EWU_sample_10pct,top_50,react,-2066.4078312857005
bayes,scaled,itself,test_EWU_sample_10pct,all,react,-1877.0900545029697
bayes,scaled,itself,val+test_EWU_sample_10pct,top_5,like,-2067.385176070213
bayes,scaled,itself,val+test_EWU_sample_10pct,top_10,like,-2063.4705547459125
bayes,scaled,itself,val+test_EWU_sample_10pct,top_25,like,-1987.1235269694225
bayes,scaled,itself,val+test_EWU_sample_10pct,top_5,reply,-745.8901903799582
bayes,scaled,itself,val+test_EWU_sample_10pct,top_10,reply,-1017.5874305705356
bayes,scaled,itself,val+test_EWU_sample_10pct,top_25,reply,-1235.7797413291244
bayes,scaled,itself,val+test_EWU_sample_10pct,top_5,retweet,-1248.1297067520104
bayes,scaled,itself,val+test_EWU_sample_10pct,top_10,retweet,-1348.684165972187
bayes,scaled,itself,val+test_EWU_sample_10pct,top_25,retweet,-1805.6882033586107
bayes,scaled,itself,val+test_EWU_sample_10pct,top_5,quote,-477.1393478056581
bayes,scaled,itself,val+test_EWU_sample_10pct,top_10,quote,-477.1393478056581
bayes,scaled,itself,val+test_EWU_sample_10pct,top_5,react,-2131.6844031189953
bayes,scaled,itself,val+test_EWU_sample_10pct,top_10,react,-2048.72432997528
