Contrast,A,B,mean(A),std(A),mean(B),std(B),Paired,Parametric,T,dof,alternative,p-unc,p-corr,p-adjust,BF10,hedges,reject_H0
algorithm,GradientBoosting,bayes,0.30065555227177787,0.06412996858943472,0.35251777984657945,0.042196514495687565,True,False,-4.213984032066902,62.0,two-sided,8.283566093345189e-05,8.283566093345189e-05,holm,254.997,-0.9496214716455547,True
algorithm,GradientBoosting,forest,0.30065555227177787,0.06412996858943472,0.50433802627469,0.015895773661262286,True,False,-29.66788312371656,62.0,two-sided,2.422381683058323e-38,1.2111908415291616e-37,holm,8.392e+34,-4.333313382896662,True
algorithm,GradientBoosting,tree,0.30065555227177787,0.06412996858943472,0.4326812638687422,0.05119456090386152,True,False,-30.714289392269638,62.0,two-sided,3.2317777603772287e-39,1.9390666562263372e-38,holm,6.063e+35,-2.2615793364383614,True
algorithm,bayes,forest,0.35251777984657945,0.042196514495687565,0.50433802627469,0.015895773661262286,True,False,-23.61480972547625,62.0,two-sided,1.0802776378291078e-32,4.321110551316431e-32,holm,2.406e+29,-4.732735697194024,True
algorithm,bayes,tree,0.35251777984657945,0.042196514495687565,0.4326812638687422,0.05119456090386152,True,False,-7.350018141943837,62.0,two-sided,5.318663379969714e-10,1.0637326759939427e-09,holm,1.997e+07,-1.6984573283364885,True
algorithm,forest,tree,0.50433802627469,0.015895773661262286,0.4326812638687422,0.05119456090386152,True,False,13.7638598290131,62.0,two-sided,1.6358774395598343e-20,4.907632318679503e-20,holm,2.948e+17,1.8789795268313898,True
