Contrast,A,B,mean(A),std(A),mean(B),std(B),Paired,Parametric,T,dof,alternative,p-unc,p-corr,p-adjust,BF10,hedges,reject_H0
feature_selection,all,top_10,0.7065421063371844,0.02554299924212026,0.6366508670158737,0.04118393075648896,True,False,11.75035495948764,62.0,two-sided,2.036954734363263e-17,1.8332592609269367e-16,holm,2.871e+14,2.0272005914151374,True
feature_selection,all,top_25,0.7065421063371844,0.02554299924212026,0.6645342501739319,0.04171690034857599,True,False,7.660926679175245,62.0,two-sided,1.5346132895515982e-10,8.741591470267094e-10,holm,6.562e+07,1.207138910032083,True
feature_selection,all,top_5,0.7065421063371844,0.02554299924212026,0.6638067088066638,0.03252056839765326,True,False,7.673917744326365,62.0,two-sided,1.4569319117111824e-10,8.741591470267094e-10,holm,6.897e+07,1.4526483942220847,True
feature_selection,all,top_50,0.7065421063371844,0.02554299924212026,0.6728714528249026,0.036505250736019165,True,False,7.542368547137175,62.0,two-sided,2.4653560905713704e-10,9.861424362285481e-10,holm,4.168e+07,1.0622766705834563,True
feature_selection,top_10,top_25,0.6366508670158737,0.04118393075648896,0.6645342501739319,0.04171690034857599,True,False,-8.082434221109228,62.0,two-sided,2.847239134546972e-11,1.9930673941828804e-10,holm,3.301e+08,-0.6686017464215255,True
feature_selection,top_10,top_5,0.6366508670158737,0.04118393075648896,0.6638067088066638,0.03252056839765326,True,False,-12.9577389648004,62.0,two-sided,2.6670000317216083e-19,2.6670000317216082e-18,holm,1.945e+16,-0.7274105264737741,True
feature_selection,top_10,top_50,0.6366508670158737,0.04118393075648896,0.6728714528249026,0.036505250736019165,True,False,-11.019841166956049,62.0,two-sided,3.063483051699857e-16,2.4507864413598857e-15,holm,2.068e+13,-0.9251213316729169,True
feature_selection,top_25,top_5,0.6645342501739319,0.04171690034857599,0.6638067088066638,0.03252056839765326,True,False,0.1932833073525182,62.0,two-sided,0.8473689020223001,0.8473689020223001,holm,0.141,0.019333812266655388,False
feature_selection,top_25,top_50,0.6645342501739319,0.04171690034857599,0.6728714528249026,0.036505250736019165,True,False,-3.562496241918384,62.0,two-sided,0.0007130242436829602,0.002139072731048881,holm,35.753,-0.2114066802420824,True
feature_selection,top_5,top_50,0.6638067088066638,0.03252056839765326,0.6728714528249026,0.036505250736019165,True,False,-2.4304988237508525,62.0,two-sided,0.01798494263354367,0.03596988526708734,holm,2.079,-0.2606222228065393,True
