Contrast,A,B,mean(A),std(A),mean(B),std(B),Paired,Parametric,T,dof,alternative,p-unc,p-corr,p-adjust,BF10,hedges,reject_H0
to_percent,10pct,1pct,0.6800372999287322,0.033560218118362135,0.6424773626753364,0.026400776620544967,True,False,6.557713765087581,62.0,two-sided,1.2455272148671816e-08,2.491054429734363e-08,holm,9.871e+05,1.2364369480705228,True
to_percent,10pct,2pct,0.6800372999287322,0.033560218118362135,0.6992270697116436,0.022065498514280784,True,False,-7.015720572846447,62.0,two-sided,2.0196212833912718e-09,6.058863850173816e-09,holm,5.584e+06,-0.6715896535551763,True
to_percent,10pct,5pct,0.6800372999287322,0.033560218118362135,0.6852717619869398,0.0340012498829593,True,False,-1.9425826244545012,62.0,two-sided,0.05661173818703728,0.05661173818703728,holm,0.802,-0.15401166822397844,False
to_percent,1pct,2pct,0.6424773626753364,0.026400776620544967,0.6992270697116436,0.022065498514280784,True,False,-16.18079893876662,62.0,two-sided,6.21372741574674e-24,3.728236449448044e-23,holm,6.407e+20,-2.3183732510678197,True
to_percent,1pct,5pct,0.6424773626753364,0.026400776620544967,0.6852717619869398,0.0340012498829593,True,False,-9.647853972416241,62.0,two-sided,5.851248954240081e-14,2.9256244771200406e-13,holm,1.28e+11,-1.3973784742417297,True
to_percent,2pct,5pct,0.6992270697116436,0.022065498514280784,0.6852717619869398,0.0340012498829593,True,False,7.409022525056895,62.0,two-sided,4.2013916368083083e-10,1.6805566547233233e-09,holm,2.502e+07,0.48394871535587514,True
