Contrast,A,B,mean(A),std(A),mean(B),std(B),Paired,Parametric,T,dof,alternative,p-unc,p-corr,p-adjust,BF10,hedges,reject_H0
algorithm,GradientBoosting,bayes,0.2880068245481941,0.04011650230324653,0.35557784047712776,0.03369491257965096,True,False,-9.5037372100072,62.0,two-sided,1.0268868323097594e-13,5.134434161548797e-13,holm,7.437e+10,-1.8129650040601304,True
algorithm,GradientBoosting,forest,0.2880068245481941,0.04011650230324653,0.32535821547704774,0.042941803955628625,True,False,-6.489355877591754,62.0,two-sided,1.6319417433923798e-08,6.527766973569519e-08,holm,7.635e+05,-0.8934340426792752,True
algorithm,GradientBoosting,tree,0.2880068245481941,0.04011650230324653,0.3071330630440693,0.032839878650548916,True,False,-4.024808445956833,62.0,two-sided,0.00015767108606034653,0.00019721475153990558,holm,141.198,-0.5185691654113357,True
algorithm,bayes,forest,0.35557784047712776,0.03369491257965096,0.32535821547704774,0.042941803955628625,True,False,5.148913447506527,62.0,two-sided,2.8727177961921496e-06,8.618153388576449e-06,holm,5793.671,0.7782220398553221,True
algorithm,bayes,tree,0.35557784047712776,0.03369491257965096,0.3071330630440693,0.032839878650548916,True,False,11.25819509843072,62.0,two-sided,1.2562256448163789e-16,7.537353868898273e-16,holm,4.91e+13,1.4472788244226713,True
algorithm,forest,tree,0.32535821547704774,0.042941803955628625,0.3071330630440693,0.032839878650548916,True,False,4.16316578353868,62.0,two-sided,9.860737576995279e-05,0.00019721475153990558,holm,217.224,0.473884025284541,True
