Contrast,A,B,mean(A),std(A),mean(B),std(B),Paired,Parametric,T,dof,alternative,p-unc,p-corr,p-adjust,BF10,hedges,reject_H0
to_percent,10pct,1pct,0.6374055518947164,0.028312509070104068,0.5878601261308866,0.026001888998330662,True,False,9.348699587053813,62.0,two-sided,1.8843458269010827e-13,7.537383307604331e-13,holm,4.139e+10,1.8116982242850428,True
to_percent,10pct,2pct,0.6374055518947164,0.028312509070104068,0.6450264411588191,0.021703026659708996,True,False,-3.117748138298841,62.0,two-sided,0.002762494180308198,0.002762494180308198,holm,10.624,-0.3002833552623813,True
to_percent,10pct,5pct,0.6374055518947164,0.028312509070104068,0.650996415914317,0.027081456371733488,True,False,-4.634667501003983,62.0,two-sided,1.8880986147572654e-05,5.664295844271796e-05,holm,1000.76,-0.4876040353165741,True
to_percent,1pct,2pct,0.5878601261308866,0.026001888998330662,0.6450264411588191,0.021703026659708996,True,False,-15.5638202638876,62.0,two-sided,4.3303979479036053e-23,2.165198973951803e-22,holm,9.622e+19,-2.3725247421392974,True
to_percent,1pct,5pct,0.5878601261308866,0.026001888998330662,0.650996415914317,0.027081456371733488,True,False,-17.830113740722922,62.0,two-sided,4.318196232917223e-26,2.5909177397503336e-25,holm,8.242e+22,-2.363855241756488,True
to_percent,2pct,5pct,0.6450264411588191,0.021703026659708996,0.650996415914317,0.027081456371733488,True,False,-3.569811878900352,62.0,two-sided,0.0006967315704794826,0.0013934631409589652,holm,36.508,-0.2418005135756056,True
