algorithm,note,trained_on,sample,feature_selection,like,reply,retweet,quote,react
forest,scaled,train,val_EWU_sample_5pct,top_5,-1753.702687268816,-643.906824088228,-1022.9892221491067,-477.06689454532125,-1883.840664988335
forest,scaled,train,val_EWU_sample_5pct,top_10,-1775.8003089276394,-643.906824088228,-959.2094744508403,-477.06689454532125,-1753.5063251542526
forest,scaled,train,val_EWU_sample_5pct,top_25,-2020.8772904487653,-643.906824088228,-959.2094744508403,-477.06689454532125,-2251.087659987462
forest,scaled,train,val_EWU_sample_5pct,top_50,-2020.8772904487653,-643.906824088228,-959.2094744508403,-477.06689454532125,-2289.2924753815096
forest,scaled,train,val_EWU_sample_5pct,all,-2011.6173899431253,-645.3872976327494,-1017.2829110461099,-477.06689454532125,-2209.9526335165233
forest,scaled,train,test_EWU_sample_5pct,top_5,-1716.6902330637176,-644.5920251792003,-1020.7433747820352,-475.6100747020608,-1873.2676617054008
forest,scaled,train,test_EWU_sample_5pct,top_10,-1744.3243170766361,-644.5920251792003,-966.774768947956,-475.6100747020608,-1735.201729023343
forest,scaled,train,test_EWU_sample_5pct,top_25,-2020.4636974576374,-644.5920251792003,-959.384057373948,-475.6100747020608,-2253.432559426827
forest,scaled,train,test_EWU_sample_5pct,top_50,-2020.4636974576374,-644.5920251792003,-959.384057373948,-475.6100747020608,-2291.1616665428623
forest,scaled,train,test_EWU_sample_5pct,all,-2010.8018412771546,-647.1702875589572,-1058.3267268543837,-475.6100747020608,-2215.6063001729926
forest,scaled,train,val+test_EWU_sample_5pct,top_5,-1736.5552353731073,-644.25176140934,-1021.8590841781662,-476.3357579672991,-1878.5208180479967
forest,scaled,train,val+test_EWU_sample_5pct,top_10,-1759.0802056946227,-644.25176140934,-963.016369882175,-476.3357579672991,-1746.5809892717648
forest,scaled,train,val+test_EWU_sample_5pct,top_25,-2020.669191777396,-644.25176140934,-959.2973140179688,-476.3357579672991,-2252.3407249992433
forest,scaled,train,val+test_EWU_sample_5pct,top_50,-2020.669191777396,-644.25176140934,-959.2973140179688,-476.3357579672991,-2290.2326525143085
forest,scaled,train,val+test_EWU_sample_5pct,all,-2011.207064323289,-646.2854585151281,-1017.5340458763028,-476.3357579672991,-2279.270544219168
forest,scaled,train,train_EU_sample_5pct,top_5,-1732.5664916690894,-654.2843132942661,-991.0901870994239,-493.1943728551168,-1720.0053118768717
forest,scaled,train,train_EU_sample_5pct,top_10,-1707.4601017950213,-654.2843132942661,-990.6343265862323,-493.1943728551168,-1699.976095022632
forest,scaled,train,train_EU_sample_5pct,top_25,-1510.7340815894454,-654.2843132942661,-880.8652307132543,-493.1943728551168,-1493.1173034792353
forest,scaled,train,train_EU_sample_5pct,top_50,-1525.5655957566482,-654.2843132942661,-874.9340433028335,-493.1943728551168,-1479.1532487642107
forest,scaled,train,train_EU_sample_5pct,all,-1422.5998721654412,-654.2843132942661,-859.6168854432832,-493.1943728551168,-1464.9125108410647
forest,scaled,train,val_EU_sample_5pct,top_5,-1722.4496295179197,-642.7575660491804,-983.3612104482072,-477.37776742625516,-1684.03897475044
forest,scaled,train,val_EU_sample_5pct,top_10,-1684.6025992870661,-642.7575660491804,-986.1280264419113,-477.37776742625516,-1668.0319734062866
forest,scaled,train,val_EU_sample_5pct,top_25,-2843.2483120019,-642.7575660491804,-955.8816688020238,-477.37776742625516,-2491.5206817196467
forest,scaled,train,val_EU_sample_5pct,top_50,-2732.555022326912,-642.7575660491804,-9608.211583721046,-477.37776742625516,-2491.5206817196467
forest,scaled,train,val_EU_sample_5pct,all,-1823.8832111393226,-642.7575660491804,-2351.4837059457714,-477.37776742625516,-1712.4754524934833
forest,scaled,train,test_EU_sample_5pct,top_5,-1721.4884435821757,-644.7252270428863,-989.5597230584036,-477.26043094046616,-1692.7437730612241
forest,scaled,train,test_EU_sample_5pct,top_10,-1681.2608065887216,-644.7252270428863,-990.730930500788,-477.26043094046616,-1672.5645994620395
forest,scaled,train,test_EU_sample_5pct,top_25,-2846.8473513556187,-644.7252270428863,-961.0191182298756,-477.26043094046616,-2486.5806114588017
forest,scaled,train,test_EU_sample_5pct,top_50,-2730.435350822187,-644.7252270428863,-9493.960297541082,-477.26043094046616,-2486.5806114588017
forest,scaled,train,test_EU_sample_5pct,all,-1824.2425594901224,-644.7252270428863,-2057.8244794345555,-477.26043094046616,-1720.2005930329087
forest,scaled,train,val+test_EU_sample_5pct,top_5,-1722.9461660264562,-643.7478197950709,-986.4808673146783,-477.31882580639854,-1688.1699721266361
forest,scaled,train,val+test_EU_sample_5pct,top_10,-1683.332133391345,-643.7478197950709,-989.2823704511503,-477.31882580639854,-1671.2555134472068
forest,scaled,train,val+test_EU_sample_5pct,top_25,-2844.332852439185,-643.7478197950709,-958.4657826250364,-477.31882580639854,-2489.036871734089
forest,scaled,train,val+test_EU_sample_5pct,top_50,-2731.844418232802,-643.7478197950709,-9550.424500719373,-477.31882580639854,-2489.036871734089
forest,scaled,train,val+test_EU_sample_5pct,all,-1824.039106969797,-643.7478197950709,-2264.2842719759783,-477.31882580639854,-1693.195377943338
forest,scaled,train,train_inter_EWU+EU_sample_5pct,top_5,-1726.0403593121923,-651.9022498872451,-990.6060174884833,-492.53105649787835,-1728.947397731261
forest,scaled,train,train_inter_EWU+EU_sample_5pct,top_10,-1695.9149325022709,-651.9022498872451,-989.3888357245849,-492.53105649787835,-1699.8673690838682
forest,scaled,train,train_inter_EWU+EU_sample_5pct,top_25,-1531.4574225921629,-651.9022498872451,-933.6398766024839,-492.53105649787835,-1512.2653442606104
forest,scaled,train,train_inter_EWU+EU_sample_5pct,top_50,-1529.9952745775,-651.9022498872451,-909.0705335287273,-492.53105649787835,-1510.9852323681039
forest,scaled,train,train_inter_EWU+EU_sample_5pct,all,-1520.0328091554709,-651.9022498872451,-898.5595764734378,-492.53105649787835,-1470.8006802151513
forest,scaled,train,val_inter_EWU+EU_sample_5pct,top_5,-1741.903984277492,-643.5190286652663,-992.4784406482272,-476.310673437173,-1705.662107349669
forest,scaled,train,val_inter_EWU+EU_sample_5pct,top_10,-1765.3587140571633,-643.5190286652663,-998.1710051824653,-476.310673437173,-1784.9806271989926
forest,scaled,train,val_inter_EWU+EU_sample_5pct,top_25,-1983.1705859259714,-643.5190286652663,-962.597530688692,-476.310673437173,-2120.624934396875
forest,scaled,train,val_inter_EWU+EU_sample_5pct,top_50,-1969.84296010073,-643.5190286652663,-1070.1653127439747,-476.310673437173,-2212.6801755126335
forest,scaled,train,val_inter_EWU+EU_sample_5pct,all,-2146.334033338854,-643.5190286652663,-1173.3509607872231,-476.310673437173,-2148.0705728484822
forest,scaled,train,test_inter_EWU+EU_sample_5pct,top_5,-1753.3016094499924,-640.778423240614,-989.2325733281276,-478.4527013995636,-1714.1175813039329
forest,scaled,train,test_inter_EWU+EU_sample_5pct,top_10,-1779.6837686288413,-640.778423240614,-997.1493733750377,-478.4527013995636,-1795.8210083078613
forest,scaled,train,test_inter_EWU+EU_sample_5pct,top_25,-1981.564036171352,-640.778423240614,-958.90196037948,-478.4527013995636,-2137.9103933379315
forest,scaled,train,test_inter_EWU+EU_sample_5pct,top_50,-1967.0474739006472,-640.778423240614,-1050.0200249298823,-478.4527013995636,-2205.841905593701
forest,scaled,train,test_inter_EWU+EU_sample_5pct,all,-2876.625986751605,-640.778423240614,-1137.7106474333048,-478.4527013995636,-2435.1520650359125
forest,scaled,train,val+test_inter_EWU+EU_sample_5pct,top_5,-1747.6581538395767,-642.1380349266137,-990.8395664224396,-477.396462968274,-1708.0162507166438
forest,scaled,train,val+test_inter_EWU+EU_sample_5pct,top_10,-1772.576064295668,-642.1380349266137,-998.5554881341614,-477.396462968274,-1709.9876815121818
forest,scaled,train,val+test_inter_EWU+EU_sample_5pct,top_25,-1968.875564882809,-642.1380349266137,-960.7324925847521,-477.396462968274,-2104.6366811380813
forest,scaled,train,val+test_inter_EWU+EU_sample_5pct,top_50,-1972.2269470115466,-642.1380349266137,-1032.8156363201917,-477.396462968274,-2211.9132622382904
forest,scaled,train,val+test_inter_EWU+EU_sample_5pct,all,-2146.613304628069,-642.1380349266137,-1133.8270915013245,-477.396462968274,-1729.4504210801874
forest,scaled,train,train_tweet_sample_5pct,top_5,-1737.6761022901458,-654.9076817756135,-992.69528777981,-493.834302556752,-1743.416703034885
forest,scaled,train,train_tweet_sample_5pct,top_10,-1729.6464638252316,-654.9076817756135,-986.7332389755662,-493.834302556752,-1713.9713056337796
forest,scaled,train,train_tweet_sample_5pct,top_25,-1658.3865985384818,-654.9076817756135,-979.4488754672252,-493.834302556752,-1670.9211290154
forest,scaled,train,train_tweet_sample_5pct,top_50,-1656.8708931846224,-654.9076817756135,-968.3715255367692,-493.834302556752,-1660.9629873475021
forest,scaled,train,train_tweet_sample_5pct,all,-1728.1694775509839,-654.9076817756135,-949.2876180423613,-493.834302556752,-1623.7056743517896
forest,scaled,train,val_tweet_sample_5pct,top_5,-1712.6059082941058,-642.5069182356792,-989.9442777116935,-476.9748797257578,-1671.4310107594745
forest,scaled,train,val_tweet_sample_5pct,top_10,-1674.6954194852192,-642.5069182356792,-978.2585617035232,-476.9748797257578,-1669.5367973460434
forest,scaled,train,val_tweet_sample_5pct,top_25,-1597.049657473028,-642.5069182356792,-1009.2205988260408,-476.9748797257578,-1613.567546490722
forest,scaled,train,val_tweet_sample_5pct,top_50,-1608.578478701318,-642.5069182356792,-949.5106370815096,-476.9748797257578,-1627.9805562233043
forest,scaled,train,val_tweet_sample_5pct,all,-1729.9405641036233,-642.5069182356792,-935.2822292258687,-476.9748797257578,-1603.5843676631696
forest,scaled,train,test_tweet_sample_5pct,top_5,-1712.077721292838,-645.9246460876343,-993.676475551742,-479.09663944812286,-1674.681770921762
forest,scaled,train,test_tweet_sample_5pct,top_10,-1679.989825069975,-645.9246460876343,-982.1680361753844,-479.09663944812286,-1674.7590096525616
forest,scaled,train,test_tweet_sample_5pct,top_25,-1607.0037244607943,-645.9246460876343,-1013.5957213893872,-479.09663944812286,-1622.851802285508
forest,scaled,train,test_tweet_sample_5pct,top_50,-1621.0204713951755,-645.9246460876343,-952.1569221709268,-479.09663944812286,-1640.2280975298474
forest,scaled,train,test_tweet_sample_5pct,all,-1741.7288479115357,-645.9246460876343,-936.7315018650884,-479.09663944812286,-1620.572441063768
forest,scaled,train,val+test_tweet_sample_5pct,top_5,-1713.5530264440035,-644.2241388731437,-991.8162250227432,-478.04170794948476,-1672.656975724637
forest,scaled,train,val+test_tweet_sample_5pct,top_10,-1676.7930997899027,-644.2241388731437,-980.2195290213672,-478.04170794948476,-1669.9419285181436
forest,scaled,train,val+test_tweet_sample_5pct,top_25,-1599.4008996548228,-644.2241388731437,-1008.6551448888907,-478.04170794948476,-1618.14379726963
forest,scaled,train,val+test_tweet_sample_5pct,top_50,-1614.5321891919273,-644.2241388731437,-951.4759518116016,-478.04170794948476,-1632.9755944164667
forest,scaled,train,val+test_tweet_sample_5pct,all,-1742.7372343893164,-644.2241388731437,-937.0175392039732,-478.04170794948476,-1627.4052256858809
forest,scaled,train,train_random_sample_10pct,top_5,-1731.4392371204874,-654.7634873660787,-992.7567824819472,-492.87399871717855,-1723.5389432286936
forest,scaled,train,train_random_sample_10pct,top_10,-1707.6503033852835,-654.7634873660787,-990.1108050832288,-492.87399871717855,-1701.297362767117
forest,scaled,train,train_random_sample_10pct,top_25,-1594.6769684262156,-654.7634873660787,-976.5255779391955,-492.87399871717855,-1580.864939094222
forest,scaled,train,train_random_sample_10pct,top_50,-1599.420222083743,-654.7634873660787,-946.6511045267844,-492.87399871717855,-1561.749226770614
forest,scaled,train,val_random_sample_10pct,top_5,-1707.8648521391517,-645.0272121121211,-992.82661054875,-477.42722822751404,-1687.8710362317868
forest,scaled,train,val_random_sample_10pct,top_10,-1669.6183141498786,-645.0272121121211,-998.7755215032532,-477.42722822751404,-1653.4917178384271
forest,scaled,train,val_random_sample_10pct,top_25,-1533.9372904704248,-645.0272121121211,-1009.0435011986052,-477.42722822751404,-1528.339920694386
forest,scaled,train,val_random_sample_10pct,top_50,-1535.246480677413,-645.0272121121211,-930.0373360026188,-477.42722822751404,-1526.5794634962065
forest,scaled,train,test_random_sample_10pct,top_5,-1714.7612023130819,-644.1501664214576,-991.686162009608,-477.74603746285624,-1690.4519569107156
forest,scaled,train,test_random_sample_10pct,top_10,-1676.2602238586637,-644.1501664214576,-997.8618916348747,-477.74603746285624,-1656.7220844873318
forest,scaled,train,test_random_sample_10pct,top_25,-1533.1618674557626,-644.1501664214576,-1010.0282174451593,-477.74603746285624,-1540.4697693077676
forest,scaled,train,test_random_sample_10pct,top_50,-1534.5001931214279,-644.1501664214576,-929.3023219595517,-477.74603746285624,-1537.5137953202884
forest,scaled,train,val+test_random_sample_10pct,top_5,-1711.3703468260833,-644.587315875844,-992.2538488150757,-477.58733688684686,-1689.192916716715
forest,scaled,train,val+test_random_sample_10pct,top_10,-1671.0414119433328,-644.587315875844,-998.2804771912648,-477.58733688684686,-1653.0770071527554
forest,scaled,train,val+test_random_sample_10pct,top_25,-1530.491822343046,-644.587315875844,-1011.0626545011113,-477.58733688684686,-1540.181070734933
forest,scaled,train,val+test_random_sample_10pct,top_50,-1530.9519562799558,-644.587315875844,-929.6578335684673,-477.58733688684686,-1545.4242141381626
forest,scaled,train,train_inter_EWU+EU_sample_10pct,top_10,-1695.6536724635434,,,,
forest,scaled,train,train_inter_EWU+EU_sample_10pct,top_25,-1511.3935027640396,,,,
forest,scaled,train,train_inter_EWU+EU_sample_10pct,top_50,-1506.9842841235281,,,,
forest,scaled,train,train_inter_EWU+EU_sample_10pct,all,-1454.1094847817644,,,,
forest,scaled,train,val_inter_EWU+EU_sample_10pct,top_5,-1748.017386997706,-642.2868203926131,-978.3656245709826,,
forest,scaled,train,val_inter_EWU+EU_sample_10pct,top_10,-1740.1290751621937,-642.2868203926131,-970.0347019662407,,
forest,scaled,train,val_inter_EWU+EU_sample_10pct,top_25,-1954.2134308686327,-642.2868203926131,,,
forest,scaled,train,val_inter_EWU+EU_sample_10pct,top_50,-1954.2134308686327,-642.2868203926131,,,
forest,scaled,train,val_inter_EWU+EU_sample_10pct,all,-1970.185899008437,-642.2868203926131,,,
forest,scaled,train,test_inter_EWU+EU_sample_10pct,top_5,-1750.9304391364346,-642.7501979763217,-1025.6308622244792,-476.94599517274804,
forest,scaled,train,test_inter_EWU+EU_sample_10pct,top_10,-1736.7653353932074,-642.7501979763217,-1030.9220660581816,-476.94599517274804,
forest,scaled,train,test_inter_EWU+EU_sample_10pct,top_25,-1836.5990485169045,-642.7501979763217,-1137.6091053354241,-476.94599517274804,
forest,scaled,train,test_inter_EWU+EU_sample_10pct,top_50,-1843.0940973144463,-642.7501979763217,-1092.7579926218518,-476.94599517274804,
forest,scaled,train,test_inter_EWU+EU_sample_10pct,all,-1970.6707145053629,-642.7501979763217,-1209.6984279002454,-476.94599517274804,
forest,scaled,train,val+test_inter_EWU+EU_sample_10pct,top_5,-1749.4851684528285,-642.520609765462,-977.6688396058216,-477.5823279446238,
forest,scaled,train,val+test_inter_EWU+EU_sample_10pct,top_10,-1739.3280306641434,-642.520609765462,-970.1475721056862,-477.5823279446238,
forest,scaled,train,val+test_inter_EWU+EU_sample_10pct,top_25,-1953.2355682760958,-642.520609765462,-992.980733700366,-477.5823279446238,
forest,scaled,train,val+test_inter_EWU+EU_sample_10pct,top_50,-1953.2355682760958,-642.520609765462,-984.823261356714,,
forest,scaled,train,val+test_inter_EWU+EU_sample_10pct,all,-1973.6876609773624,-642.520609765462,-1144.6252922468582,,
forest,scaled,train,train_tweet_sample_10pct,top_5,-1719.4522031373435,,,,
forest,scaled,train,train_tweet_sample_10pct,top_10,-1707.3296263096909,-654.9669532825905,,,
forest,scaled,train,train_tweet_sample_10pct,top_25,-1621.6708029934405,-654.9669532825905,,,
forest,scaled,train,train_tweet_sample_10pct,top_50,-1620.93978405013,,,,
forest,scaled,train,train_tweet_sample_10pct,all,-1564.1826921590525,,,,
forest,scaled,train,val_tweet_sample_10pct,top_5,-1712.2954533538339,-644.9969147732487,,,
forest,scaled,train,val_tweet_sample_10pct,top_10,-1667.8789010340215,-644.9969147732487,,,
forest,scaled,train,val_tweet_sample_10pct,top_25,-1548.9894226286567,-644.9969147732487,,,
forest,scaled,train,val_tweet_sample_10pct,top_50,-1548.9894226286567,,,,
forest,scaled,train,val_tweet_sample_10pct,all,-1546.075497978125,,,,
forest,scaled,train,test_tweet_sample_10pct,top_5,-1708.4375292894006,-643.7250957221893,-999.7008856100807,,
forest,scaled,train,test_tweet_sample_10pct,top_10,-1677.7618717973419,-643.7250957221893,-984.129389268084,,
forest,scaled,train,test_tweet_sample_10pct,top_25,-1563.5033100311248,-643.7250957221893,-1019.1986624490312,,
forest,scaled,train,test_tweet_sample_10pct,top_50,-1563.5033100311248,-643.7250957221893,-928.826712570826,,
forest,scaled,train,test_tweet_sample_10pct,all,-1553.2433808168378,-643.7250957221893,,,
forest,scaled,train,val+test_tweet_sample_10pct,top_5,-1714.877118980654,-644.3596175962132,-998.981005828659,,
forest,scaled,train,val+test_tweet_sample_10pct,top_10,-1674.4934374944555,-644.3596175962132,-983.33475259444,,
forest,scaled,train,val+test_tweet_sample_10pct,top_25,-1557.2129542506907,-644.3596175962132,-1015.0953939415193,,
forest,scaled,train,val+test_tweet_sample_10pct,top_50,-1557.2129542506907,-644.3596175962132,-928.6625675057492,,
forest,scaled,train,val+test_tweet_sample_10pct,all,-1556.8862990243967,-644.3596175962132,,,
forest,scaled,train,train_random_sample_1pct,top_5,-1722.9431821655646,-653.8206511415599,-985.577016886338,-492.35196329572335,-1720.5368175344104
forest,scaled,train,train_random_sample_1pct,top_10,-1713.5046362969422,-653.8206511415599,-985.577016886338,-492.35196329572335,-1717.2801530725767
forest,scaled,train,train_random_sample_1pct,top_25,-1665.1634476319355,-653.8206511415599,-983.5631179488856,-492.35196329572335,-1660.4571358143603
forest,scaled,train,train_random_sample_1pct,top_50,-1661.7950051681796,-653.8206511415599,-978.3846060767488,-492.35196329572335,-1660.2338783666678
forest,scaled,train,train_random_sample_1pct,all,-1645.3443819996414,-653.8206511415599,-971.6477351684103,-492.35196329572335,-1638.1811394144631
forest,scaled,train,val_random_sample_1pct,top_5,-1693.9871206505375,-643.8945397827638,-976.5578104037044,-474.4591065367147,-1680.5888140738778
forest,scaled,train,val_random_sample_1pct,top_10,-1662.3928889239335,-643.8945397827638,-976.5578104037044,-474.4591065367147,-1651.801050920459
forest,scaled,train,val_random_sample_1pct,top_25,-1605.2235830372144,-643.8945397827638,-1017.4729932070156,-474.4591065367147,-1629.7094644819094
forest,scaled,train,val_random_sample_1pct,top_50,-1604.8755578859295,-643.8945397827638,-1007.4019122022501,-474.4591065367147,-1630.0515653877374
forest,scaled,train,val_random_sample_1pct,all,-1587.6125587869456,-643.8945397827638,-955.4713772328745,-474.4591065367147,-1582.8878517169271
forest,scaled,train,test_random_sample_1pct,top_5,-1705.3959557003259,-648.0789218708056,-977.5672278478958,-475.2802410120072,-1686.4638470938498
forest,scaled,train,test_random_sample_1pct,top_10,-1678.0748397975808,-648.0789218708056,-977.5672278478958,-475.2802410120072,-1661.5817527170898
forest,scaled,train,test_random_sample_1pct,top_25,-1615.6748669226893,-648.0789218708056,-1028.0472899184738,-475.2802410120072,-1634.1296885137374
forest,scaled,train,test_random_sample_1pct,top_50,-1619.331090809009,-648.0789218708056,-1018.6150267842266,-475.2802410120072,-1634.6146678421273
forest,scaled,train,test_random_sample_1pct,all,-1595.025089391548,-648.0789218708056,-957.562301238124,-475.2802410120072,-1587.1799567739208
forest,scaled,train,val+test_random_sample_1pct,top_5,-1698.6937605683074,-646.0020014053513,-977.0635553034517,-474.8718083362335,-1683.7071661385417
forest,scaled,train,val+test_random_sample_1pct,top_10,-1667.4093421478753,-646.0020014053513,-977.0635553034517,-474.8718083362335,-1656.2467785647837
forest,scaled,train,val+test_random_sample_1pct,top_25,-1609.4753952067624,-646.0020014053513,-1020.9128544461107,-474.8718083362335,-1631.0996755735819
forest,scaled,train,val+test_random_sample_1pct,top_50,-1611.6818421949704,-646.0020014053513,-1010.9545726648762,-474.8718083362335,-1631.8299626700107
forest,scaled,train,val+test_random_sample_1pct,all,-1598.2722983228894,-646.0020014053513,-957.5117838024772,-474.8718083362335,-1584.0186447865756
forest,scaled,train,train_EWU_sample_1pct,top_5,-1701.8874783338856,-659.8415152792097,-982.1690480614584,-491.69438100873657,-1694.5577513971994
forest,scaled,train,train_EWU_sample_1pct,top_10,-1650.9342457013438,-659.8415152792097,-967.55199159444,-491.69438100873657,-1627.452011349561
forest,scaled,train,train_EWU_sample_1pct,top_25,-1561.2038452741779,-659.8415152792097,-957.0327295580354,-491.69438100873657,-1501.5169530756928
forest,scaled,train,train_EWU_sample_1pct,top_50,-1559.4931337343014,-659.8415152792097,-947.9439964742177,-491.69438100873657,-1521.374645587507
forest,scaled,train,train_EWU_sample_1pct,all,-1503.0392616651015,-656.0844261713565,-925.7970635434295,-491.69438100873657,-1493.5199468201674
forest,scaled,train,val_EWU_sample_1pct,top_5,-1747.4178854067866,-640.6261920025993,-979.4978768506172,-481.7680683020713,-1920.462681620017
forest,scaled,train,val_EWU_sample_1pct,top_10,-1767.9744195125138,-640.6261920025993,-979.4978768506172,-481.7680683020713,-1785.3904958953408
forest,scaled,train,val_EWU_sample_1pct,top_25,-2030.541162098709,-640.6261920025993,-979.4978768506172,-481.7680683020713,-2322.923055837557
forest,scaled,train,val_EWU_sample_1pct,top_50,-2030.541162098709,-640.6261920025993,-979.4978768506172,-481.7680683020713,-2328.573873292031
forest,scaled,train,val_EWU_sample_1pct,all,-1979.1043791387008,-640.6261920025993,-1091.1814455124354,-481.7680683020713,-2328.573873292031
forest,scaled,train,test_EWU_sample_1pct,top_5,-1709.7558573440192,-650.064887669672,-952.0409692502327,-471.5758110688133,-1905.192279178164
forest,scaled,train,test_EWU_sample_1pct,top_10,-1744.712095069108,-650.064887669672,-952.0409692502327,-471.5758110688133,-1751.0062102702316
forest,scaled,train,test_EWU_sample_1pct,top_25,-2040.786559920699,-650.064887669672,-952.0409692502327,-471.5758110688133,-2311.8852444321265
forest,scaled,train,test_EWU_sample_1pct,top_50,-2040.786559920699,-650.064887669672,-952.0409692502327,-471.5758110688133,-2317.782111190948
forest,scaled,train,test_EWU_sample_1pct,all,-1983.45057060187,-650.064887669672,-1028.2052926217461,-471.5758110688133,-2317.782111190948
forest,scaled,train,val+test_EWU_sample_1pct,top_5,-1738.5849624364707,-645.3042860173235,-966.0785434628036,-476.84582881944124,-1921.40996532764
forest,scaled,train,val+test_EWU_sample_1pct,top_10,-1742.7502779534298,-645.3042860173235,-966.0785434628036,-476.84582881944124,-1765.424546191533
forest,scaled,train,val+test_EWU_sample_1pct,top_25,-2035.5711814759848,-645.3042860173235,-966.0785434628036,-476.84582881944124,-2317.566275998049
forest,scaled,train,val+test_EWU_sample_1pct,top_50,-2035.5711814759848,-645.3042860173235,-966.0785434628036,-476.84582881944124,-2323.259682577642
forest,scaled,train,val+test_EWU_sample_1pct,all,-1979.8768255041518,-645.3042860173235,-1063.9530033115666,-476.84582881944124,-2323.259682577642
forest,scaled,train,train_EU_sample_1pct,top_5,-1728.2772151624606,-654.3503578242282,-989.0205028793004,-494.4049660721746,-1721.44249231978
forest,scaled,train,train_EU_sample_1pct,top_10,-1715.9215433262266,-654.3503578242282,-989.0205028793004,-494.4049660721746,-1718.5558695854147
forest,scaled,train,train_EU_sample_1pct,top_25,-1535.3764155696836,-654.316165531697,-879.9011985765219,-494.4049660721746,-1518.3828567344
forest,scaled,train,train_EU_sample_1pct,top_50,-1464.6221495995596,-653.9400511054296,-870.0255006403888,-494.4049660721746,-1487.2703205157368
forest,scaled,train,train_EU_sample_1pct,all,-1421.2799222534616,-654.3503578242282,-857.379702135627,-494.4049660721746,-1466.243251286255
forest,scaled,train,val_EU_sample_1pct,top_5,-1709.6602648034511,-635.8392785612375,-990.6036435842816,-480.3056373952786,-1687.6542068066433
forest,scaled,train,val_EU_sample_1pct,top_10,-1674.9631099768924,-635.8392785612375,-990.6036435842816,-480.3056373952786,-1661.754753905049
forest,scaled,train,val_EU_sample_1pct,top_25,-2872.250237519273,-635.8392785612375,-967.6928093556436,-480.3056373952786,-2497.4230359557955
forest,scaled,train,val_EU_sample_1pct,top_50,-1664.4799603357249,-635.8392785612375,-9349.289795704071,-480.3056373952786,-2497.4230359557955
forest,scaled,train,val_EU_sample_1pct,all,-1743.0664172775519,-635.8392785612375,-1931.287402901013,-480.3056373952786,-1673.505616598995
forest,scaled,train,test_EU_sample_1pct,top_5,-1724.859103882803,-642.023808461509,-979.442206191648,-472.72748284920823,-1684.9862849021465
forest,scaled,train,test_EU_sample_1pct,top_10,-1689.847332426465,-642.023808461509,-979.442206191648,-472.72748284920823,-1660.8486579095181
forest,scaled,train,test_EU_sample_1pct,top_25,-2849.714862786509,-642.023808461509,-958.376154524866,-472.72748284920823,-2485.9845576291714
forest,scaled,train,test_EU_sample_1pct,top_50,-1686.8312838890874,-642.023808461509,-9552.41793096777,-472.72748284920823,-2485.9845576291714
forest,scaled,train,test_EU_sample_1pct,all,-1742.9165441397586,-642.023808461509,-1799.2424031536234,-472.72748284920823,-1694.5067788598776
forest,scaled,train,val+test_EU_sample_1pct,top_5,-1717.0806663575393,-638.9601416713036,-985.0182330145576,-476.55096405661203,-1686.2844418289658
forest,scaled,train,val+test_EU_sample_1pct,top_10,-1680.5117296357932,-638.9601416713036,-985.0182330145576,-476.55096405661203,-1661.2450856597657
forest,scaled,train,val+test_EU_sample_1pct,top_25,-2860.9024453199104,-638.9601416713036,-963.0256524897079,-476.55096405661203,-2491.6719991975283
forest,scaled,train,val+test_EU_sample_1pct,top_50,-1666.9476597310959,-638.9601416713036,-9450.024456871834,-476.55096405661203,-2491.6719991975283
forest,scaled,train,val+test_EU_sample_1pct,all,-1737.5336519228297,-638.9601416713036,-1806.2107955609479,-476.55096405661203,-1667.6093087535971
forest,scaled,train,train_inter_EWU+EU_sample_1pct,top_5,-1713.7393675504422,-652.6742281717411,-982.7118942158638,-493.1037076771711,-1703.8425784338692
forest,scaled,train,train_inter_EWU+EU_sample_1pct,top_10,-1687.8356750609241,-652.6742281717411,-979.1037241274124,-493.1037076771711,-1700.9127739166238
forest,scaled,train,train_inter_EWU+EU_sample_1pct,top_25,-1578.5119639326495,-652.6742281717411,-961.0761663466583,-493.1037076771711,-1568.9485879076026
forest,scaled,train,train_inter_EWU+EU_sample_1pct,top_50,-1590.7993076303312,-652.6742281717411,-938.9247571396428,-493.1037076771711,-1552.3652277113379
forest,scaled,train,train_inter_EWU+EU_sample_1pct,all,-1547.6479056596127,-652.5361038008327,-920.0490679550501,-493.1037076771711,-1522.6223136865035
forest,scaled,train,val_inter_EWU+EU_sample_1pct,top_5,-1733.6167736347052,-644.1139194789228,-1007.6508753390784,-475.83855149807135,-1681.9841756111707
forest,scaled,train,val_inter_EWU+EU_sample_1pct,top_10,-2045.275273885568,-644.1139194789228,-988.0180325073887,-475.83855149807135,-1796.7255338908953
forest,scaled,train,val_inter_EWU+EU_sample_1pct,top_25,-2008.2458260762564,-644.1139194789228,-969.1075343170434,-475.83855149807135,-2124.0437787767423
forest,scaled,train,val_inter_EWU+EU_sample_1pct,top_50,-2035.7270655107068,-644.1139194789228,-1126.476990295845,-475.83855149807135,-2085.1369060235074
forest,scaled,train,val_inter_EWU+EU_sample_1pct,all,-2832.307289193925,-644.1139194789228,-1590.7309490040766,-475.83855149807135,-2163.587815742115
forest,scaled,train,test_inter_EWU+EU_sample_1pct,top_5,-1762.5132983142855,-639.7790596483648,-1004.2265955187953,-477.14495203165006,-1703.4468070479354
forest,scaled,train,test_inter_EWU+EU_sample_1pct,top_10,-2023.3290457408145,-639.7790596483648,-988.5622006508203,-477.14495203165006,-1799.6299807449343
forest,scaled,train,test_inter_EWU+EU_sample_1pct,top_25,-1981.0341472669288,-639.7790596483648,-959.7561242134241,-477.14495203165006,-2156.6564549483082
forest,scaled,train,test_inter_EWU+EU_sample_1pct,top_50,-2007.740477588836,-639.7790596483648,-1152.9799645211788,-477.14495203165006,-2116.7143022720634
forest,scaled,train,test_inter_EWU+EU_sample_1pct,all,-2883.2782652431847,-639.7790596483648,-1874.7822644638145,-477.14495203165006,-2187.9512090616267
forest,scaled,train,val+test_inter_EWU+EU_sample_1pct,top_5,-1747.9594793061246,-641.9534281259039,-1005.9188563399376,-476.49354171110235,-1692.5907033450878
forest,scaled,train,val+test_inter_EWU+EU_sample_1pct,top_10,-2034.819450350708,-641.9534281259039,-988.2536688338032,-476.49354171110235,-1798.0461569230679
forest,scaled,train,val+test_inter_EWU+EU_sample_1pct,top_25,-1991.0349848572785,-641.9534281259039,-964.4388230102077,-476.49354171110235,-2142.478026360359
forest,scaled,train,val+test_inter_EWU+EU_sample_1pct,top_50,-2021.6804233603693,-641.9534281259039,-1144.2650375325065,-476.49354171110235,-2107.8452856440736
forest,scaled,train,val+test_inter_EWU+EU_sample_1pct,all,-2857.6205293374214,-641.9534281259039,-1608.6545468994314,-476.49354171110235,-2175.6357367689607
forest,scaled,train,train_tweet_sample_1pct,top_5,-1750.6005784351667,-656.6465222444677,-987.5815006343852,-493.76821504711853,-1761.7258392501992
forest,scaled,train,train_tweet_sample_1pct,top_10,-1749.160359442841,-656.6465222444677,-987.9148014825444,-493.76821504711853,-1744.747044036792
forest,scaled,train,train_tweet_sample_1pct,top_25,-1725.3335202879941,-656.6465222444677,-982.64208902696,-493.76821504711853,-1701.2900721325063
forest,scaled,train,train_tweet_sample_1pct,top_50,-1714.0567629435147,-656.6465222444677,-977.69068927074,-493.76821504711853,-1705.503812671917
forest,scaled,train,train_tweet_sample_1pct,all,-1649.1124007131916,-656.6465222444677,-974.4293578336844,-493.76821504711853,-1678.8520470637231
forest,scaled,train,val_tweet_sample_1pct,top_5,-1727.5274106742127,-638.243211661429,-1063.7675914480117,-475.59597191316686,-1693.7288748036447
forest,scaled,train,val_tweet_sample_1pct,top_10,-1730.7973961736109,-638.243211661429,-1059.1426968854594,-475.59597191316686,-1693.1473077247108
forest,scaled,train,val_tweet_sample_1pct,top_25,-1692.6927978053104,-638.243211661429,-1077.8525827828323,-475.59597191316686,-1685.2597530507453
forest,scaled,train,val_tweet_sample_1pct,top_50,-1686.6484769915787,-638.243211661429,-1090.886960552637,-475.59597191316686,-1696.3082923224977
forest,scaled,train,val_tweet_sample_1pct,all,-1786.5816495057645,-638.243211661429,-955.8183625085028,-475.59597191316686,-1720.9833314063806
forest,scaled,train,test_tweet_sample_1pct,top_5,-1687.1836984278427,-647.2568233212571,-1057.3471606660553,-476.87127502792015,-1661.0374306584397
forest,scaled,train,test_tweet_sample_1pct,top_10,-1700.2840980268293,-647.2568233212571,-1054.0792299244383,-476.87127502792015,-1669.7653046796274
forest,scaled,train,test_tweet_sample_1pct,top_25,-1666.3920851642526,-647.2568233212571,-1075.584348604061,-476.87127502792015,-1657.4789515101131
forest,scaled,train,test_tweet_sample_1pct,top_50,-1660.3875320045909,-647.2568233212571,-1097.617083323857,-476.87127502792015,-1679.3655453144638
forest,scaled,train,test_tweet_sample_1pct,all,-1790.4389696619025,-647.2568233212571,-953.617079883878,-476.87127502792015,-1714.5573662112326
forest,scaled,train,val+test_tweet_sample_1pct,top_5,-1701.5182457723208,-642.7808683812067,-1060.5618705795846,-476.2344890362458,-1677.4894042161698
forest,scaled,train,val+test_tweet_sample_1pct,top_10,-1716.5927309855506,-642.7808683812067,-1056.1934173590587,-476.2344890362458,-1683.0447685571273
forest,scaled,train,val+test_tweet_sample_1pct,top_25,-1675.5594572879324,-642.7808683812067,-1074.5093977975412,-476.2344890362458,-1667.601095296154
forest,scaled,train,val+test_tweet_sample_1pct,top_50,-1668.6677498814856,-642.7808683812067,-1089.404753568838,-476.2344890362458,-1680.8011612995333
forest,scaled,train,val+test_tweet_sample_1pct,all,-1772.0454652741755,-642.7808683812067,-954.2980625457736,-476.2344890362458,-1725.1244651997638
forest,scaled,train,train_random_sample_2pct,top_5,-1718.9784315901456,-653.9908863550772,-992.9694825213992,-493.4602810347082,-1719.1829678604072
forest,scaled,train,train_random_sample_2pct,top_10,-1715.9355541573855,-653.9908863550772,-986.046628417858,-493.4602810347082,-1716.1216998147027
forest,scaled,train,train_random_sample_2pct,top_25,-1643.2022314048834,-653.9908863550772,-981.4527199570863,-493.4602810347082,-1648.5196325492416
forest,scaled,train,train_random_sample_2pct,top_50,-1636.3545920105926,-653.9908863550772,-982.9028680001846,-493.4602810347082,-1649.0747208589387
forest,scaled,train,train_random_sample_2pct,all,-1618.085385283301,-653.9908863550772,-965.0762905510117,-493.4602810347082,-1630.5275638837882
forest,scaled,train,val_random_sample_2pct,top_5,-1705.0830218182575,-643.68223364036,-1010.523609766312,-475.2325817090963,-1686.3836284044912
forest,scaled,train,val_random_sample_2pct,top_10,-1676.027348816803,-643.68223364036,-978.5055224342386,-475.2325817090963,-1661.8376321144433
forest,scaled,train,val_random_sample_2pct,top_25,-1585.7785216522198,-643.68223364036,-1012.4041604928508,-475.2325817090963,-1615.1621201121698
forest,scaled,train,val_random_sample_2pct,top_50,-1584.2151249293383,-643.68223364036,-958.1362419883568,-475.2325817090963,-1610.8191519603056
forest,scaled,train,val_random_sample_2pct,all,-1571.1534041148898,-643.68223364036,-949.2047115700303,-475.2325817090963,-1586.5651575510587
forest,scaled,train,test_random_sample_2pct,top_5,-1702.5470954515356,-646.3102410999802,-1006.749512631206,-479.3268318211646,-1685.8006196712467
forest,scaled,train,test_random_sample_2pct,top_10,-1672.2321825145111,-646.3102410999802,-976.7722970658168,-479.3268318211646,-1661.6867376269254
forest,scaled,train,test_random_sample_2pct,top_25,-1584.6376085310699,-646.3102410999802,-1011.4012721919237,-479.3268318211646,-1621.401651454951
forest,scaled,train,test_random_sample_2pct,top_50,-1614.535741751921,-646.3102410999802,-957.494756776126,-479.3268318211646,-1617.0198232934747
forest,scaled,train,test_random_sample_2pct,all,-1557.7740921699994,-646.3102410999802,-951.1378582854352,-479.3268318211646,-1576.321522348193
forest,scaled,train,val+test_random_sample_2pct,top_5,-1705.2821621556948,-645.0041774142417,-1008.6257732807964,-477.30184405728244,-1686.2104871645224
forest,scaled,train,val+test_random_sample_2pct,top_10,-1673.8749845603575,-645.0041774142417,-977.6594953920636,-477.30184405728244,-1661.2495493916051
forest,scaled,train,val+test_random_sample_2pct,top_25,-1577.4497441217788,-645.0041774142417,-1010.4184539583052,-477.30184405728244,-1614.0875590945832
forest,scaled,train,val+test_random_sample_2pct,top_50,-1603.2180023431958,-645.0041774142417,-957.5531089193934,-477.30184405728244,-1611.7057419774628
forest,scaled,train,val+test_random_sample_2pct,all,-1567.5930799747891,-645.0041774142417,-949.8898215050716,-477.30184405728244,-1580.3156287439544
forest,scaled,train,train_EWU_sample_2pct,top_5,-1724.8272531146295,-651.3069800980305,-994.9640175240227,-489.1884675474006,-1707.7942125125833
forest,scaled,train,train_EWU_sample_2pct,top_10,-1684.6280595629082,-651.3069800980305,-989.9481037751093,-489.1884675474006,-1678.5876558339123
forest,scaled,train,train_EWU_sample_2pct,top_25,-1552.5052481627874,-651.3069800980305,-988.3796983004986,-489.1884675474006,-1533.3856339110266
forest,scaled,train,train_EWU_sample_2pct,top_50,-1552.6220066817025,-651.3069800980305,-963.5376125120794,-489.1884675474006,-1534.9465636374066
forest,scaled,train,train_EWU_sample_2pct,all,-1530.779161646851,-651.3069800980305,-933.7892091300296,-489.1884675474006,-1501.6990543213788
forest,scaled,train,val_EWU_sample_2pct,top_5,-1783.2079767171927,-642.179718921465,-958.8958740327856,-479.6554793804298,-1715.7774489700635
forest,scaled,train,val_EWU_sample_2pct,top_10,-1753.1079109699906,-642.179718921465,-958.8958740327856,-479.6554793804298,-1743.2613088072924
forest,scaled,train,val_EWU_sample_2pct,top_25,-2059.0280124657515,-642.179718921465,-958.8958740327856,-479.6554793804298,-2196.7238331433346
forest,scaled,train,val_EWU_sample_2pct,top_50,-2059.0280124657515,-642.179718921465,-958.8958740327856,-479.6554793804298,-2249.5304753161495
forest,scaled,train,val_EWU_sample_2pct,all,-2115.8990544333155,-642.179718921465,-1704.8490345435052,-479.6554793804298,-2521.130498856195
forest,scaled,train,test_EWU_sample_2pct,top_5,-1760.1838102748777,-642.136057507978,-956.8102979930233,-475.95585622587197,-1746.3415813547933
forest,scaled,train,test_EWU_sample_2pct,top_10,-1761.2045293717003,-642.136057507978,-956.8102979930233,-475.95585622587197,-1700.238750157467
forest,scaled,train,test_EWU_sample_2pct,top_25,-2041.7474856122776,-642.136057507978,-956.8102979930233,-475.95585622587197,-2196.192889652284
forest,scaled,train,test_EWU_sample_2pct,top_50,-2041.7474856122776,-642.136057507978,-956.8102979930233,-475.95585622587197,-2266.6371375959093
forest,scaled,train,test_EWU_sample_2pct,all,-2073.6765202763227,-642.136057507978,-1631.9883049720722,-475.95585622587197,-2501.8689457956075
forest,scaled,train,val+test_EWU_sample_2pct,top_5,-1771.8868903323364,-642.1583570624125,-957.8759226016847,-477.8569737216865,-1728.2763290710502
forest,scaled,train,val+test_EWU_sample_2pct,top_10,-1757.4014174731396,-642.1583570624125,-957.8759226016847,-477.8569737216865,-1738.8012797670265
forest,scaled,train,val+test_EWU_sample_2pct,top_25,-2075.519506811088,-642.1583570624125,-957.8759226016847,-477.8569737216865,-2206.0994447625453
forest,scaled,train,val+test_EWU_sample_2pct,top_50,-2075.519506811088,-642.1583570624125,-957.8759226016847,-477.8569737216865,-2259.0828044721866
forest,scaled,train,val+test_EWU_sample_2pct,all,-2097.5666166046403,-642.1583570624125,-1725.3862084012476,-477.8569737216865,-2511.6792924812007
forest,scaled,train,train_EU_sample_2pct,top_5,-1731.425696045793,-655.0160652835305,-995.4248633931436,-495.1807935208757,-1728.8475808424412
forest,scaled,train,train_EU_sample_2pct,top_10,-1716.8686427992595,-655.0160652835305,-989.2624328276172,-495.1807935208757,-1719.0684737614429
forest,scaled,train,train_EU_sample_2pct,top_25,-1536.8960562965615,-655.0160652835305,-873.3326720071327,-495.1807935208757,-1513.292893413581
forest,scaled,train,train_EU_sample_2pct,top_50,-1542.4944458931955,-655.0160652835305,-868.9610049829813,-495.1807935208757,-1498.4905689251195
forest,scaled,train,train_EU_sample_2pct,all,-1422.097519109138,-655.0160652835305,-858.0138313827002,-495.1807935208757,-1463.7343087251004
forest,scaled,train,val_EU_sample_2pct,top_5,-1718.9227731724266,-639.8272737834745,-989.728649552688,-480.1967869422422,-1695.5070077584064
forest,scaled,train,val_EU_sample_2pct,top_10,-1676.153193767859,-639.8272737834745,-977.4547098177702,-480.1967869422422,-1666.6749245048495
forest,scaled,train,val_EU_sample_2pct,top_25,-2860.685387262413,-639.8272737834745,-958.4141882548062,-480.1967869422422,-2495.345455994372
forest,scaled,train,val_EU_sample_2pct,top_50,-2764.539971449044,-639.8272737834745,-9551.571922875257,-480.1967869422422,-2495.345455994372
forest,scaled,train,val_EU_sample_2pct,all,-1800.1146926312138,-639.8272737834745,-1996.299529497,-480.1967869422422,-1663.9890198493454
forest,scaled,train,test_EU_sample_2pct,top_5,-1693.2352352134226,-642.8091931388745,-996.9417955671603,-478.72676735357214,-1683.6754139392374
forest,scaled,train,test_EU_sample_2pct,top_10,-1666.8640441673224,-642.8091931388745,-987.0919336361943,-478.72676735357214,-1656.7741229370754
forest,scaled,train,test_EU_sample_2pct,top_25,-2827.4454798561387,-642.8091931388745,-964.8784087026961,-478.72676735357214,-2470.88879963733
forest,scaled,train,test_EU_sample_2pct,top_50,-2733.718629115916,-642.8091931388745,-9409.792619766518,-478.72676735357214,-2470.88879963733
forest,scaled,train,test_EU_sample_2pct,all,-1783.8461698060653,-642.8091931388745,-1827.8174763137085,-478.72676735357214,-1656.6067388209913
forest,scaled,train,val+test_EU_sample_2pct,top_5,-1711.5218878613598,-641.329112495735,-993.3587561600726,-479.4601179774569,-1689.4729302426192
forest,scaled,train,val+test_EU_sample_2pct,top_10,-1673.8831734563782,-641.329112495735,-982.3104753461124,-479.4601179774569,-1661.6236433232534
forest,scaled,train,val+test_EU_sample_2pct,top_25,-2843.944833860337,-641.329112495735,-961.6661538729927,-479.4601179774569,-2483.015741351284
forest,scaled,train,val+test_EU_sample_2pct,top_50,-2749.0549170286663,-641.329112495735,-9479.750860378406,-479.4601179774569,-2483.015741351284
forest,scaled,train,val+test_EU_sample_2pct,all,-1801.557850153965,-641.329112495735,-1992.009801391632,-479.4601179774569,-1666.5245126458285
forest,scaled,train,train_inter_EWU+EU_sample_2pct,top_5,-1717.3877819206311,-654.3078429093215,-988.4434938897143,-494.31832837175887,-1728.5730689343293
forest,scaled,train,train_inter_EWU+EU_sample_2pct,top_10,-1685.26165694979,-654.3078429093215,-983.5829338011844,-494.31832837175887,-1700.6372413732197
forest,scaled,train,train_inter_EWU+EU_sample_2pct,top_25,-1562.2445024149488,-654.3078429093215,-976.2007054418781,-494.31832837175887,-1544.1602962770326
forest,scaled,train,train_inter_EWU+EU_sample_2pct,top_50,-1549.6347438334476,-654.3078429093215,-923.2453425417253,-494.31832837175887,-1572.5232673748294
forest,scaled,train,train_inter_EWU+EU_sample_2pct,all,-1512.697866582204,-654.3078429093215,-913.5927434019444,-494.31832837175887,-1543.8687399938974
forest,scaled,train,val_inter_EWU+EU_sample_2pct,top_5,-1725.129207634829,-639.1068620858376,-991.843445115974,-477.1678507677187,-1730.7907300943955
forest,scaled,train,val_inter_EWU+EU_sample_2pct,top_10,-1752.036155902947,-639.1068620858376,-979.8047458356641,-477.1678507677187,-1780.281704760609
forest,scaled,train,val_inter_EWU+EU_sample_2pct,top_25,-1998.7318937177965,-639.1068620858376,-959.4233770876663,-477.1678507677187,-2122.1109897859146
forest,scaled,train,val_inter_EWU+EU_sample_2pct,top_50,-2020.9993545553527,-639.1068620858376,-1100.5618661295075,-477.1678507677187,-2145.3821035757064
forest,scaled,train,val_inter_EWU+EU_sample_2pct,all,-2870.6904486257845,-639.1068620858376,-1291.3309562161635,-477.1678507677187,-2154.7497061816016
forest,scaled,train,test_inter_EWU+EU_sample_2pct,top_5,-1740.5757510151702,-642.9259021744782,-985.6131884114192,-476.86577568597914,-1745.7370552326236
forest,scaled,train,test_inter_EWU+EU_sample_2pct,top_10,-1769.6083534725797,-642.9259021744782,-973.409534870076,-476.86577568597914,-1791.4019073042346
forest,scaled,train,test_inter_EWU+EU_sample_2pct,top_25,-1981.4456520102165,-642.9259021744782,-956.8548831820694,-476.86577568597914,-2228.3001282708897
forest,scaled,train,test_inter_EWU+EU_sample_2pct,top_50,-1981.747812450392,-642.9259021744782,-1112.2662963083121,-476.86577568597914,-2228.275426398538
forest,scaled,train,test_inter_EWU+EU_sample_2pct,all,-2902.3782681093157,-642.9259021744782,-9586.371669281052,-476.86577568597914,-2175.9649500240507
forest,scaled,train,val+test_inter_EWU+EU_sample_2pct,top_5,-1735.5142638792804,-642.4658588353652,-990.6141328650972,-476.8514465782988,-1740.0593996323264
forest,scaled,train,val+test_inter_EWU+EU_sample_2pct,top_10,-1765.301968755417,-642.4658588353652,-978.4953499617204,-476.8514465782988,-1792.0143780536514
forest,scaled,train,val+test_inter_EWU+EU_sample_2pct,top_25,-1991.7026973349448,-642.4658588353652,-960.0518608612738,-476.8514465782988,-2122.353339299838
forest,scaled,train,val+test_inter_EWU+EU_sample_2pct,top_50,-2024.1714131944045,-642.4658588353652,-1108.946052048106,-476.8514465782988,-2152.971084101121
forest,scaled,train,val+test_inter_EWU+EU_sample_2pct,all,-2882.09291208984,-642.4658588353652,-1293.0514616207531,-476.8514465782988,-2165.2372393455826
forest,scaled,train,train_tweet_sample_2pct,top_5,-1718.8913191751467,-657.2958127206062,-1003.0829409187083,-493.8929895346391,-1724.3298834954935
forest,scaled,train,train_tweet_sample_2pct,top_10,-1718.442846030953,-657.2958127206062,-995.4734197273176,-493.8929895346391,-1703.929180765938
forest,scaled,train,train_tweet_sample_2pct,top_25,-1684.5206695518525,-657.2958127206062,-985.40689668038,-493.8929895346391,-1678.657733697018
forest,scaled,train,train_tweet_sample_2pct,top_50,-1681.2294018798934,-657.2958127206062,-979.9927369801413,-493.8929895346391,-1673.0763598684894
forest,scaled,train,train_tweet_sample_2pct,all,-1658.2008916407851,-657.2958127206062,-972.9341432081925,-493.8929895346391,-1646.1723495421809
forest,scaled,train,val_tweet_sample_2pct,top_5,-1705.259486859563,-640.9310311748814,-958.2213533188257,-479.0698100357134,-1670.6973194966488
forest,scaled,train,val_tweet_sample_2pct,top_10,-1673.8462264078753,-640.9310311748814,-1076.5039255119675,-479.0698100357134,-1669.5352282655194
forest,scaled,train,val_tweet_sample_2pct,top_25,-1646.6186803435064,-640.9310311748814,-1078.6365900423823,-479.0698100357134,-1688.6611020553953
forest,scaled,train,val_tweet_sample_2pct,top_50,-1662.0794270237404,-640.9310311748814,-1107.089712747302,-479.0698100357134,-1694.88328909114
forest,scaled,train,val_tweet_sample_2pct,all,-1704.0194406164478,-640.9310311748814,-951.7208854324347,-479.0698100357134,-1639.2008259676777
forest,scaled,train,test_tweet_sample_2pct,top_5,-1701.9975147306175,-642.5161731965261,-959.2975210441735,-478.60756168803283,-1671.8828003636027
forest,scaled,train,test_tweet_sample_2pct,top_10,-1681.8897828572171,-642.5161731965261,-1071.9400752206773,-478.60756168803283,-1677.3583922405621
forest,scaled,train,test_tweet_sample_2pct,top_25,-1646.3634263972046,-642.5161731965261,-1072.6121565273531,-478.60756168803283,-1688.429193704198
forest,scaled,train,test_tweet_sample_2pct,top_50,-1659.5968223030213,-642.5161731965261,-1101.4586741980652,-478.60756168803283,-1690.0211963096076
forest,scaled,train,test_tweet_sample_2pct,all,-1695.4081945262521,-642.5161731965261,-949.7356702245468,-478.60756168803283,-1635.2698884641557
forest,scaled,train,val+test_tweet_sample_2pct,top_5,-1702.0417208786805,-641.7262816235952,-958.760654197512,-478.8383989177211,-1671.2063495945154
forest,scaled,train,val+test_tweet_sample_2pct,top_10,-1675.8833692644928,-641.7262816235952,-1074.2144507499004,-478.8383989177211,-1674.323572662005
forest,scaled,train,val+test_tweet_sample_2pct,top_25,-1644.6235937304816,-641.7262816235952,-1074.5774800305132,-478.8383989177211,-1692.3501730836663
forest,scaled,train,val+test_tweet_sample_2pct,top_50,-1647.7211793590884,-641.7262816235952,-1104.031679674146,-478.8383989177211,-1693.5101753099
forest,scaled,train,val+test_tweet_sample_2pct,all,-1694.2882733650395,-641.7262816235952,-952.6434631233476,-478.8383989177211,-1645.689196061158
forest,scaled,train,train_random_sample_5pct,top_5,-1732.2353031310934,-654.6389574694002,-992.3982174807286,-492.90126740289435,-1719.6302783818012
forest,scaled,train,train_random_sample_5pct,top_10,-1710.6350978600876,-654.6389574694002,-998.2617770629288,-492.90126740289435,-1712.5584390941306
forest,scaled,train,train_random_sample_5pct,top_25,-1610.179461037652,-654.6389574694002,-979.1968682126227,-492.90126740289435,-1626.3286264550738
forest,scaled,train,train_random_sample_5pct,top_50,-1609.1619820670367,-654.6389574694002,-969.38973120127,-492.90126740289435,-1618.563294682901
forest,scaled,train,train_random_sample_5pct,all,-1603.4889397052705,-654.6389574694002,-951.1324839447664,-492.90126740289435,-1579.0412585777524
forest,scaled,train,val_random_sample_5pct,top_5,-1725.7135086488433,-644.5915088883894,-990.7303469625822,-475.22388332251836,-1688.5129586276087
forest,scaled,train,val_random_sample_5pct,top_10,-1683.5373387418247,-644.5915088883894,-958.5225789375506,-475.22388332251836,-1656.61084204995
forest,scaled,train,val_random_sample_5pct,top_25,-1560.4729083864843,-644.5915088883894,-1013.7180104844257,-475.22388332251836,-1555.6423376074008
forest,scaled,train,val_random_sample_5pct,top_50,-1557.950953333311,-644.5915088883894,-944.8193959569844,-475.22388332251836,-1550.9484170016615
forest,scaled,train,val_random_sample_5pct,all,-1606.2043567642575,-644.5915088883894,-935.0995849968336,-475.22388332251836,-1530.4827859338702
forest,scaled,train,test_random_sample_5pct,top_5,-1722.8472513948236,-643.9245097473048,-990.6509133636656,-478.09866652579217,-1685.6385658111085
forest,scaled,train,test_random_sample_5pct,top_10,-1680.1022802726739,-643.9245097473048,-960.9222624896366,-478.09866652579217,-1656.9019003807753
forest,scaled,train,test_random_sample_5pct,top_25,-1559.4478956584048,-643.9245097473048,-1017.5982013767348,-478.09866652579217,-1555.0165184179978
forest,scaled,train,test_random_sample_5pct,top_50,-1556.4039869679716,-643.9245097473048,-946.3583973971877,-478.09866652579217,-1548.6034844595465
forest,scaled,train,test_random_sample_5pct,all,-1598.083299921054,-643.9245097473048,-938.8808692770932,-478.09866652579217,-1532.4495238453796
forest,scaled,train,val+test_random_sample_5pct,top_5,-1723.8649644302066,-644.2569132439311,-990.6881025055563,-476.6738838099202,-1686.963618927446
forest,scaled,train,val+test_random_sample_5pct,top_10,-1681.521916510249,-644.2569132439311,-959.7276712960647,-476.6738838099202,-1657.7732489111386
forest,scaled,train,val+test_random_sample_5pct,top_25,-1553.975284512756,-644.2569132439311,-1014.9526596145233,-476.6738838099202,-1553.3678816219547
forest,scaled,train,val+test_random_sample_5pct,top_50,-1551.4079541508177,-644.2569132439311,-945.1873058640076,-476.6738838099202,-1549.8923133062906
forest,scaled,train,val+test_random_sample_5pct,all,-1607.1689747786374,-644.2569132439311,-936.3676215800101,-476.6738838099202,-1556.417614484197
forest,scaled,train,train_EWU_sample_5pct,top_5,-1693.0972554222687,-654.1753357611273,-970.1770757034219,-492.52200933002496,-1684.7457155995755
forest,scaled,train,train_EWU_sample_5pct,top_10,-1696.0283032492914,-654.1753357611273,-967.5815876904053,-492.52200933002496,-1671.732849787566
forest,scaled,train,train_EWU_sample_5pct,top_25,-1526.8708202313446,-654.1753357611273,-949.7445043124812,-492.52200933002496,-1519.008367359626
forest,scaled,train,train_EWU_sample_5pct,top_50,-1524.5654699004126,-654.1753357611273,-950.8561241582854,-492.52200933002496,-1517.4815963894393
forest,scaled,train,train_EWU_sample_5pct,all,-1474.665430399022,-653.7245667693783,-905.8943788634127,-492.52200933002496,-1474.3440146038024
forest,scaled,train,train_random_sample_10pct,all,-1557.4916655953755,-654.7634873660787,-931.4757277922894,-492.87399871717855,-1542.3470419678772
forest,scaled,train,val_random_sample_10pct,all,-1591.2081029250785,-645.0272121121211,-924.6399429286753,-477.42722822751404,-1513.0920746149725
forest,scaled,train,test_random_sample_10pct,all,-1589.0126162611996,-644.1501664214576,-924.1777373218187,-477.74603746285624,-1520.7249431096716
forest,scaled,train,val+test_random_sample_10pct,all,-1596.6705996100416,-644.587315875844,-923.089761516314,-477.58733688684686,-1521.2948708484382
forest,scaled,train,train_EWU_sample_10pct,top_5,-1725.215443938844,-656.9293209531155,-993.4861330094252,-492.7414239571757,-1712.3686652484266
forest,scaled,train,train_EWU_sample_10pct,top_10,-1687.3042717161184,-656.9293209531155,-989.5653512376526,-492.7414239571757,-1695.8277995808926
forest,scaled,train,train_EWU_sample_10pct,top_25,-1536.4866392456754,-656.9293209531155,-978.939640169946,-492.7414239571757,-1513.433421343536
forest,scaled,train,train_EWU_sample_10pct,top_50,-1532.9553748095902,-656.9293209531155,-933.5783254636664,-492.7414239571757,-1538.5360754522
forest,scaled,train,train_EWU_sample_10pct,all,-1479.4455304403484,-656.9293209531155,-920.2608997556868,-492.6759411853366,-1480.8620476519054
forest,scaled,train,val_EWU_sample_10pct,top_5,-1770.2906637685305,-643.3426016843367,-964.8866486347576,-476.1249396851381,-1712.1519430998362
forest,scaled,train,val_EWU_sample_10pct,top_10,-1767.6267078385376,-643.3426016843367,-964.8866486347576,-476.1249396851381,-1781.8059776558123
forest,scaled,train,val_EWU_sample_10pct,top_25,-1953.9084039591608,-643.3426016843367,-964.8866486347576,-476.1249396851381,-2126.35525656964
forest,scaled,train,val_EWU_sample_10pct,top_50,-1953.9084039591608,-643.3426016843367,-964.8866486347576,-476.1249396851381,-2173.049215932866
forest,scaled,train,val_EWU_sample_10pct,all,-2082.186780551439,-643.3426016843367,-973.8078275667018,-476.1249396851381,-1919.9801028991046
forest,scaled,train,test_EWU_sample_10pct,top_5,-1799.5949285327995,-644.43998503402,-965.3439464560116,-477.7225202808819,-1730.253388751538
forest,scaled,train,test_EWU_sample_10pct,top_10,-1766.4329676075256,-644.43998503402,-965.3439464560116,-477.7225202808819,-1778.2760192829119
forest,scaled,train,test_EWU_sample_10pct,top_25,-1970.6392878579952,-644.43998503402,-965.3439464560116,-477.7225202808819,-2122.348857569484
forest,scaled,train,test_EWU_sample_10pct,top_50,-1970.6392878579952,-644.43998503402,-965.3439464560116,-477.7225202808819,-2195.4865319686755
forest,scaled,train,test_EWU_sample_10pct,all,-2122.9453641179366,-644.43998503402,-1084.1547807704317,-477.7225202808819,-2010.8399315929125
forest,scaled,train,val+test_EWU_sample_10pct,top_5,-1791.1086281996286,-643.8666222691314,-964.6403799510788,-477.139347805658,-1714.8067816054654
forest,scaled,train,val+test_EWU_sample_10pct,top_10,-1768.501179845383,-643.8666222691314,-964.6403799510788,-477.139347805658,-1781.3757029667088
forest,scaled,train,val+test_EWU_sample_10pct,top_25,-1962.1017638970602,-643.8666222691314,-964.6403799510788,-477.139347805658,-2111.501833124176
forest,scaled,train,val+test_EWU_sample_10pct,top_50,-1962.1017638970602,-643.8666222691314,-964.6403799510788,-477.139347805658,-2183.823296781716
forest,scaled,train,val+test_EWU_sample_10pct,all,-2135.457731441472,-643.8666222691314,-1080.7402409061804,-477.139347805658,-1941.3810615189886
forest,scaled,train,train_EU_sample_10pct,top_5,-1733.0592266179376,-654.5090287308606,-990.1367620239464,-492.8299299909748,-1716.6242980044724
forest,scaled,train,train_EU_sample_10pct,top_10,-1703.9425331016555,-654.5090287308606,-989.8467884012828,-492.8299299909748,-1703.7528345188782
forest,scaled,train,train_EU_sample_10pct,top_25,-1519.42203143928,-654.5090287308606,-878.356322110918,-492.8299299909748,-1484.9944550315329
forest,scaled,train,train_EU_sample_10pct,top_50,-1489.771762816991,-654.5090287308606,-870.0114002994322,-492.8299299909748,-1467.3269768186144
forest,scaled,train,train_EU_sample_10pct,all,-1419.7190016312884,-654.5090287308606,-858.6969443685962,-492.8299299909748,-1433.9471276351162
forest,scaled,train,val_EU_sample_10pct,top_5,-1725.7939791971673,-644.2683486143343,-992.1433828203196,-481.5581590277963,-1695.179640691899
forest,scaled,train,val_EU_sample_10pct,top_25,,-644.2683486143343,-962.2135707563664,-481.5581590277963,-2470.972733244631
forest,scaled,train,val_EU_sample_10pct,top_50,,-644.2683486143343,-9467.760177739327,-481.5581590277963,-2310.8301229795034
forest,scaled,train,val_EU_sample_10pct,all,,-644.2683486143343,-2194.706708310884,-481.5581590277963,-1687.5125669895695
forest,scaled,train,val_EU_sample_10pct,top_10,,,-999.4811050427187,-481.5581590277963,-1665.84719609251
forest,scaled,train,test_EU_sample_10pct,top_25,,-643.912755612852,-960.7506186045067,-479.2978077801329,-2261.5318290092177
forest,scaled,train,test_EU_sample_10pct,top_50,,-643.912755612852,-9499.868475791032,-479.2978077801329,-2254.698264165709
forest,scaled,train,test_EU_sample_10pct,all,,-643.912755612852,-1993.3682525162344,-479.2978077801329,-1673.3646358752205
forest,scaled,train,test_EU_sample_10pct,top_5,,,-991.1545203820965,-479.2978077801329,-1685.585727072972
forest,scaled,train,test_EU_sample_10pct,top_10,,,-999.8015369359321,-479.2978077801329,-1662.5197345334484
forest,scaled,train,val+test_EU_sample_10pct,top_5,,,,-480.4290982300715,-1686.824997114887
forest,scaled,train,val+test_EU_sample_10pct,top_10,,,,-480.4290982300715,-1663.6762491126287
forest,scaled,train,val+test_EU_sample_10pct,all,,,-2167.105663209087,-480.42909823007153,-1678.7413208562834
forest,scaled,train,val+test_EU_sample_10pct,top_50,,,,-480.42909823007153,-2278.6680269882263
forest,scaled,train,val+test_EU_sample_10pct,top_25,,,,,-2264.8013207355243
forest,scaled,train,train_inter_EWU+EU_sample_10pct,top_5,,-656.4998688618075,-990.4663753804534,-492.7285318610296,
