target,statistic,oracle_scaled,scaled
like,max,-1162.3611,-1164.2033
like,mean,-2093.9677,-2214.4902
like,min,-2895.9218,-2883.2783
like,std,410.5297,458.9898
quote,max,-465.8979,-464.9516
quote,mean,-476.7703,-477.5151
quote,min,-494.3183,-606.4848
quote,std,4.0353,10.2948
react,max,-1133.4365,-1153.2383
react,mean,-2078.7428,-2111.6037
react,min,-2518.2889,-2473.5318
react,std,311.75,277.4608
reply,max,-635.8393,-635.8393
reply,mean,-644.1574,-643.8094
reply,min,-703.9051,-780.3436
reply,std,6.8979,7.3513
retweet,max,-861.2585,-862.2688
retweet,mean,-1992.8391,-1955.3938
retweet,min,-9521.8118,-9695.3141
retweet,std,2451.9262,2645.1563
