algorithm,note,trained_on,sample,feature_selection,target,evaluation
tree,scaled,itself,val_EWU_sample_1pct,top_5,like,0.6764018792106103
tree,scaled,itself,val_EWU_sample_1pct,top_5,reply,0.5126592061333004
tree,scaled,itself,val_EWU_sample_1pct,top_5,retweet,0.33290493367937385
tree,scaled,itself,val_EWU_sample_1pct,top_5,quote,0.5035756976216974
tree,scaled,itself,val_EWU_sample_1pct,top_5,react,0.7286153781660589
tree,scaled,itself,val_EWU_sample_1pct,top_10,like,0.6892116312072445
tree,scaled,itself,val_EWU_sample_1pct,top_10,reply,0.5128575540347521
tree,scaled,itself,val_EWU_sample_1pct,top_10,retweet,0.430851856242683
tree,scaled,itself,val_EWU_sample_1pct,top_10,quote,0.5035756976216974
tree,scaled,itself,val_EWU_sample_1pct,top_10,react,0.7401652131470213
tree,scaled,itself,val_EWU_sample_1pct,top_25,like,0.6792938184397624
tree,scaled,itself,val_EWU_sample_1pct,top_25,reply,0.5128575540347521
tree,scaled,itself,val_EWU_sample_1pct,top_25,retweet,0.3837527063569823
tree,scaled,itself,val_EWU_sample_1pct,top_25,quote,0.5035756976216974
tree,scaled,itself,val_EWU_sample_1pct,top_25,react,0.7241861189947041
tree,scaled,itself,val_EWU_sample_1pct,top_50,like,0.6802074044964084
tree,scaled,itself,val_EWU_sample_1pct,top_50,reply,0.5130559019362038
tree,scaled,itself,val_EWU_sample_1pct,top_50,retweet,0.4375049132690306
tree,scaled,itself,val_EWU_sample_1pct,top_50,quote,0.5035756976216974
tree,scaled,itself,val_EWU_sample_1pct,top_50,react,0.7228443100353092
tree,scaled,itself,val_EWU_sample_1pct,all,like,0.7558302400015859
tree,scaled,itself,val_EWU_sample_1pct,all,reply,0.5130559019362038
tree,scaled,itself,val_EWU_sample_1pct,all,retweet,0.4296679759677135
tree,scaled,itself,val_EWU_sample_1pct,all,quote,0.5035756976216974
tree,scaled,itself,val_EWU_sample_1pct,all,react,0.8047988768404374
tree,scaled,itself,test_EWU_sample_1pct,top_5,like,0.6775419982127997
tree,scaled,itself,test_EWU_sample_1pct,top_5,reply,0.5141869956241122
tree,scaled,itself,test_EWU_sample_1pct,top_5,retweet,0.548543585225179
tree,scaled,itself,test_EWU_sample_1pct,top_5,quote,0.5032176609096818
tree,scaled,itself,test_EWU_sample_1pct,top_5,react,0.7319885245447746
tree,scaled,itself,test_EWU_sample_1pct,top_10,like,0.690670457344772
tree,scaled,itself,test_EWU_sample_1pct,top_10,reply,0.5134140234612229
tree,scaled,itself,test_EWU_sample_1pct,top_10,retweet,0.3580626496811136
tree,scaled,itself,test_EWU_sample_1pct,top_10,quote,0.5032176609096818
tree,scaled,itself,test_EWU_sample_1pct,top_10,react,0.7415100429852438
tree,scaled,itself,test_EWU_sample_1pct,top_25,like,0.6866013097586614
tree,scaled,itself,test_EWU_sample_1pct,top_25,reply,0.5134140234612229
tree,scaled,itself,test_EWU_sample_1pct,top_25,retweet,0.4779938759446816
tree,scaled,itself,test_EWU_sample_1pct,top_25,quote,0.5032176609096818
tree,scaled,itself,test_EWU_sample_1pct,top_25,react,0.7220215224867069
tree,scaled,itself,test_EWU_sample_1pct,top_50,like,0.6892228621848013
tree,scaled,itself,test_EWU_sample_1pct,top_50,reply,0.5136072665019452
tree,scaled,itself,test_EWU_sample_1pct,top_50,retweet,0.37944434896810414
tree,scaled,itself,test_EWU_sample_1pct,top_50,quote,0.5040401482260565
tree,scaled,itself,test_EWU_sample_1pct,top_50,react,0.7229201737009049
tree,scaled,itself,test_EWU_sample_1pct,all,like,0.7594767909899695
tree,scaled,itself,test_EWU_sample_1pct,all,reply,0.4522667247462791
tree,scaled,itself,test_EWU_sample_1pct,all,retweet,0.4224883936938938
tree,scaled,itself,test_EWU_sample_1pct,all,quote,0.4542420038851238
tree,scaled,itself,test_EWU_sample_1pct,all,react,0.8036011176104749
tree,scaled,itself,val+test_EWU_sample_1pct,top_5,like,0.6805767157578266
tree,scaled,itself,val+test_EWU_sample_1pct,top_5,reply,0.513030314141885
tree,scaled,itself,val+test_EWU_sample_1pct,top_5,retweet,0.3559867293382249
tree,scaled,itself,val+test_EWU_sample_1pct,top_5,quote,0.5033996678906868
tree,scaled,itself,val+test_EWU_sample_1pct,top_5,react,0.7296695199375934
tree,scaled,itself,val+test_EWU_sample_1pct,top_10,like,0.6859562255902572
tree,scaled,itself,val+test_EWU_sample_1pct,top_10,reply,0.513030314141885
tree,scaled,itself,val+test_EWU_sample_1pct,top_10,retweet,0.3870872664300809
tree,scaled,itself,val+test_EWU_sample_1pct,top_10,quote,0.5033996678906868
tree,scaled,itself,val+test_EWU_sample_1pct,top_10,react,0.73736136111698
tree,scaled,itself,val+test_EWU_sample_1pct,top_25,like,0.7038343657756533
tree,scaled,itself,val+test_EWU_sample_1pct,top_25,reply,0.513030314141885
tree,scaled,itself,val+test_EWU_sample_1pct,top_25,retweet,0.3196666805179019
tree,scaled,itself,val+test_EWU_sample_1pct,top_25,quote,0.503782256744392
tree,scaled,itself,val+test_EWU_sample_1pct,top_25,react,0.7227874343835494
tree,scaled,itself,val+test_EWU_sample_1pct,top_50,like,0.6805873407379316
tree,scaled,itself,val+test_EWU_sample_1pct,top_50,reply,0.388323964203709
tree,scaled,itself,val+test_EWU_sample_1pct,top_50,retweet,0.3748572535924973
tree,scaled,itself,val+test_EWU_sample_1pct,top_50,quote,0.503782256744392
tree,scaled,itself,val+test_EWU_sample_1pct,top_50,react,0.755396887784703
tree,scaled,itself,val+test_EWU_sample_1pct,all,like,0.7369076174298874
tree,scaled,itself,val+test_EWU_sample_1pct,all,reply,0.513030314141885
tree,scaled,itself,val+test_EWU_sample_1pct,all,retweet,0.3883335343441165
tree,scaled,itself,val+test_EWU_sample_1pct,all,quote,0.5049300233055075
tree,scaled,itself,val+test_EWU_sample_1pct,all,react,0.7876501238244639
tree,scaled,itself,val_EU_sample_1pct,top_5,like,0.6749028210333232
tree,scaled,itself,val_EU_sample_1pct,top_5,reply,0.5130646874252677
tree,scaled,itself,val_EU_sample_1pct,top_5,retweet,0.3287563562587221
tree,scaled,itself,val_EU_sample_1pct,top_5,quote,0.5035227852572909
tree,scaled,itself,val_EU_sample_1pct,top_5,react,0.7170809331062964
tree,scaled,itself,val_EU_sample_1pct,top_10,like,0.6773758837317876
tree,scaled,itself,val_EU_sample_1pct,top_10,reply,0.5124803650501779
tree,scaled,itself,val_EU_sample_1pct,top_10,retweet,0.33855998740626564
tree,scaled,itself,val_EU_sample_1pct,top_10,quote,0.5042142577012222
tree,scaled,itself,val_EU_sample_1pct,top_10,react,0.729351414747119
tree,scaled,itself,val_EU_sample_1pct,top_25,like,0.6852681025042399
tree,scaled,itself,val_EU_sample_1pct,top_25,reply,0.5128699133002378
tree,scaled,itself,val_EU_sample_1pct,top_25,retweet,0.35910113884633954
tree,scaled,itself,val_EU_sample_1pct,top_25,quote,0.5055972025890849
tree,scaled,itself,val_EU_sample_1pct,top_25,react,0.7351344754295792
tree,scaled,itself,val_EU_sample_1pct,top_50,like,0.6826103898288635
tree,scaled,itself,val_EU_sample_1pct,top_50,reply,0.5126751391752079
tree,scaled,itself,val_EU_sample_1pct,top_50,retweet,0.4197681189479557
tree,scaled,itself,val_EU_sample_1pct,top_50,quote,0.5055972025890849
tree,scaled,itself,val_EU_sample_1pct,top_50,react,0.7349048118689536
tree,scaled,itself,val_EU_sample_1pct,all,like,0.6941287483537961
tree,scaled,itself,val_EU_sample_1pct,all,reply,0.5122855909251481
tree,scaled,itself,val_EU_sample_1pct,all,retweet,0.3835359330277361
tree,scaled,itself,val_EU_sample_1pct,all,quote,0.5055972025890849
tree,scaled,itself,val_EU_sample_1pct,all,react,0.7355393892930888
tree,scaled,itself,test_EU_sample_1pct,top_5,like,0.6757476818346061
tree,scaled,itself,test_EU_sample_1pct,top_5,reply,0.5127694584542286
tree,scaled,itself,test_EU_sample_1pct,top_5,retweet,0.3829189430301392
tree,scaled,itself,test_EU_sample_1pct,top_5,quote,0.5032568691215703
tree,scaled,itself,test_EU_sample_1pct,top_5,react,0.7301295610499571
tree,scaled,itself,test_EU_sample_1pct,top_10,like,0.677972068341953
tree,scaled,itself,test_EU_sample_1pct,top_10,reply,0.5127694584542286
tree,scaled,itself,test_EU_sample_1pct,top_10,retweet,0.5495412120240308
tree,scaled,itself,test_EU_sample_1pct,top_10,quote,0.5032568691215703
tree,scaled,itself,test_EU_sample_1pct,top_10,react,0.7293743493069297
tree,scaled,itself,test_EU_sample_1pct,top_25,like,0.6749486159529731
tree,scaled,itself,test_EU_sample_1pct,top_25,reply,0.5127694584542286
tree,scaled,itself,test_EU_sample_1pct,top_25,retweet,0.3943991308939806
tree,scaled,itself,test_EU_sample_1pct,top_25,quote,0.5032568691215703
tree,scaled,itself,test_EU_sample_1pct,top_25,react,0.7318018790228918
tree,scaled,itself,test_EU_sample_1pct,top_50,like,0.682983814135295
tree,scaled,itself,test_EU_sample_1pct,top_50,reply,0.5127694584542286
tree,scaled,itself,test_EU_sample_1pct,top_50,retweet,0.366811656072109
tree,scaled,itself,test_EU_sample_1pct,top_50,quote,0.5032568691215703
tree,scaled,itself,test_EU_sample_1pct,top_50,react,0.7323628707619592
tree,scaled,itself,test_EU_sample_1pct,all,like,
tree,scaled,itself,test_EU_sample_1pct,all,reply,
tree,scaled,itself,test_EU_sample_1pct,all,retweet,0.3775349158891417
tree,scaled,itself,test_EU_sample_1pct,all,quote,0.5032568691215703
tree,scaled,itself,test_EU_sample_1pct,all,react,0.7380598800452614
tree,scaled,itself,val+test_EU_sample_1pct,top_5,like,0.6717245979447273
tree,scaled,itself,val+test_EU_sample_1pct,top_5,reply,0.5128137061147371
tree,scaled,itself,val+test_EU_sample_1pct,top_5,retweet,0.5500821058187612
tree,scaled,itself,val+test_EU_sample_1pct,top_5,quote,0.5033893086494571
tree,scaled,itself,val+test_EU_sample_1pct,top_5,react,0.7314414159750136
tree,scaled,itself,val+test_EU_sample_1pct,top_10,like,0.6763147287957184
tree,scaled,itself,val+test_EU_sample_1pct,top_10,reply,0.5126235475300823
tree,scaled,itself,val+test_EU_sample_1pct,top_10,retweet,0.5500821058187612
tree,scaled,itself,val+test_EU_sample_1pct,top_10,quote,0.5033893086494571
tree,scaled,itself,val+test_EU_sample_1pct,top_10,react,0.7268267959567742
tree,scaled,itself,val+test_EU_sample_1pct,top_25,like,0.6784286880826194
tree,scaled,itself,val+test_EU_sample_1pct,top_25,reply,0.512528468237755
tree,scaled,itself,val+test_EU_sample_1pct,top_25,retweet,0.3485494804905215
tree,scaled,itself,val+test_EU_sample_1pct,top_25,quote,0.5044634485730703
tree,scaled,itself,val+test_EU_sample_1pct,top_25,react,0.7310356353083585
tree,scaled,itself,val+test_EU_sample_1pct,top_50,like,0.6828613258279284
tree,scaled,itself,val+test_EU_sample_1pct,top_50,reply,0.512528468237755
tree,scaled,itself,val+test_EU_sample_1pct,top_50,retweet,0.4160555207417572
tree,scaled,itself,val+test_EU_sample_1pct,top_50,quote,0.5044634485730703
tree,scaled,itself,val+test_EU_sample_1pct,top_50,react,0.7327428303719954
tree,scaled,itself,val+test_EU_sample_1pct,all,like,0.6932361384851224
tree,scaled,itself,val+test_EU_sample_1pct,all,reply,0.5126235475300823
tree,scaled,itself,val+test_EU_sample_1pct,all,retweet,0.3517432181400328
tree,scaled,itself,val+test_EU_sample_1pct,all,quote,0.5044634485730703
tree,scaled,itself,val+test_EU_sample_1pct,all,react,0.7359253391594975
tree,scaled,itself,val_inter_EWU+EU_sample_1pct,top_5,like,0.6792029020656728
tree,scaled,itself,val_inter_EWU+EU_sample_1pct,top_5,reply,0.5129353233830846
tree,scaled,itself,val_inter_EWU+EU_sample_1pct,top_5,retweet,0.3844748552264641
tree,scaled,itself,val_inter_EWU+EU_sample_1pct,top_5,quote,0.503364366287375
tree,scaled,itself,val_inter_EWU+EU_sample_1pct,top_5,react,0.7327355299931543
tree,scaled,itself,val_inter_EWU+EU_sample_1pct,top_10,like,0.6878335391064538
tree,scaled,itself,val_inter_EWU+EU_sample_1pct,top_10,reply,0.5129353233830846
tree,scaled,itself,val_inter_EWU+EU_sample_1pct,top_10,retweet,0.4511415218931309
tree,scaled,itself,val_inter_EWU+EU_sample_1pct,top_10,quote,0.5040915048433232
tree,scaled,itself,val_inter_EWU+EU_sample_1pct,top_10,react,0.7328041640864028
tree,scaled,itself,val_inter_EWU+EU_sample_1pct,top_25,like,0.6841952038971062
tree,scaled,itself,val_inter_EWU+EU_sample_1pct,top_25,reply,0.3884917567531724
tree,scaled,itself,val_inter_EWU+EU_sample_1pct,top_25,retweet,0.366208387934228
tree,scaled,itself,val_inter_EWU+EU_sample_1pct,top_25,quote,0.503364366287375
tree,scaled,itself,val_inter_EWU+EU_sample_1pct,top_25,react,0.7235500262338194
tree,scaled,itself,val_inter_EWU+EU_sample_1pct,top_50,like,0.6831119636343732
tree,scaled,itself,val_inter_EWU+EU_sample_1pct,top_50,reply,0.3884917567531724
tree,scaled,itself,val_inter_EWU+EU_sample_1pct,top_50,retweet,0.3956726736485136
tree,scaled,itself,val_inter_EWU+EU_sample_1pct,top_50,quote,0.503364366287375
tree,scaled,itself,val_inter_EWU+EU_sample_1pct,top_50,react,0.7252464187204842
tree,scaled,itself,val_inter_EWU+EU_sample_1pct,all,like,0.6769342198444437
tree,scaled,itself,val_inter_EWU+EU_sample_1pct,all,reply,0.5129353233830846
tree,scaled,itself,val_inter_EWU+EU_sample_1pct,all,retweet,0.38598426994489
tree,scaled,itself,val_inter_EWU+EU_sample_1pct,all,quote,0.3827271976230643
tree,scaled,itself,val_inter_EWU+EU_sample_1pct,all,react,0.7258060492010303
tree,scaled,itself,test_inter_EWU+EU_sample_1pct,top_5,like,0.6717652971045631
tree,scaled,itself,test_inter_EWU+EU_sample_1pct,top_5,reply,0.5125926363341108
tree,scaled,itself,test_inter_EWU+EU_sample_1pct,top_5,retweet,0.5496524799453636
tree,scaled,itself,test_inter_EWU+EU_sample_1pct,top_5,quote,0.5041267779169696
tree,scaled,itself,test_inter_EWU+EU_sample_1pct,top_5,react,0.7227483264940553
tree,scaled,itself,test_inter_EWU+EU_sample_1pct,top_10,like,0.6766615331276269
tree,scaled,itself,test_inter_EWU+EU_sample_1pct,top_10,reply,0.5125926363341108
tree,scaled,itself,test_inter_EWU+EU_sample_1pct,top_10,retweet,0.3110294102689217
tree,scaled,itself,test_inter_EWU+EU_sample_1pct,top_10,quote,0.5041267779169696
tree,scaled,itself,test_inter_EWU+EU_sample_1pct,top_10,react,0.7239867329066619
tree,scaled,itself,test_inter_EWU+EU_sample_1pct,top_25,like,0.6697412536370981
tree,scaled,itself,test_inter_EWU+EU_sample_1pct,top_25,reply,0.5125926363341108
tree,scaled,itself,test_inter_EWU+EU_sample_1pct,top_25,retweet,0.5497418346120411
tree,scaled,itself,test_inter_EWU+EU_sample_1pct,top_25,quote,0.5048433577176676
tree,scaled,itself,test_inter_EWU+EU_sample_1pct,top_25,react,0.7243458871070199
tree,scaled,itself,test_inter_EWU+EU_sample_1pct,top_50,like,0.6697512359910684
tree,scaled,itself,test_inter_EWU+EU_sample_1pct,top_50,reply,0.5125926363341108
tree,scaled,itself,test_inter_EWU+EU_sample_1pct,top_50,retweet,0.32367539533946005
tree,scaled,itself,test_inter_EWU+EU_sample_1pct,top_50,quote,0.5048433577176676
tree,scaled,itself,test_inter_EWU+EU_sample_1pct,top_50,react,0.7250059507882465
tree,scaled,itself,test_inter_EWU+EU_sample_1pct,all,like,0.6765494014309229
tree,scaled,itself,test_inter_EWU+EU_sample_1pct,all,reply,0.3463069054733573
tree,scaled,itself,test_inter_EWU+EU_sample_1pct,all,retweet,0.3295250673749593
tree,scaled,itself,test_inter_EWU+EU_sample_1pct,all,quote,0.33817669105100084
tree,scaled,itself,test_inter_EWU+EU_sample_1pct,all,react,0.7191133558354377
tree,scaled,itself,val+test_inter_EWU+EU_sample_1pct,top_5,like,0.6736622494377771
tree,scaled,itself,val+test_inter_EWU+EU_sample_1pct,top_5,reply,0.5128578641317
tree,scaled,itself,val+test_inter_EWU+EU_sample_1pct,top_5,retweet,0.4075404558024081
tree,scaled,itself,val+test_inter_EWU+EU_sample_1pct,top_5,quote,0.5037482041068875
tree,scaled,itself,val+test_inter_EWU+EU_sample_1pct,top_5,react,0.7279960152446686
tree,scaled,itself,val+test_inter_EWU+EU_sample_1pct,top_10,like,0.678504570986557
tree,scaled,itself,val+test_inter_EWU+EU_sample_1pct,top_10,reply,0.5128578641317
tree,scaled,itself,val+test_inter_EWU+EU_sample_1pct,top_10,retweet,0.5502875260939777
tree,scaled,itself,val+test_inter_EWU+EU_sample_1pct,top_10,quote,0.5037482041068875
tree,scaled,itself,val+test_inter_EWU+EU_sample_1pct,top_10,react,0.7276461253483475
tree,scaled,itself,val+test_inter_EWU+EU_sample_1pct,top_25,like,0.6753819963981597
tree,scaled,itself,val+test_inter_EWU+EU_sample_1pct,top_25,reply,0.5128578641317
tree,scaled,itself,val+test_inter_EWU+EU_sample_1pct,top_25,retweet,0.5502875260939777
tree,scaled,itself,val+test_inter_EWU+EU_sample_1pct,top_25,quote,0.5033872937098743
tree,scaled,itself,val+test_inter_EWU+EU_sample_1pct,top_25,react,0.7292378800507027
tree,scaled,itself,val+test_inter_EWU+EU_sample_1pct,top_50,like,0.6733624862575842
tree,scaled,itself,val+test_inter_EWU+EU_sample_1pct,top_50,reply,0.5127638938122809
tree,scaled,itself,val+test_inter_EWU+EU_sample_1pct,top_50,retweet,0.4351230558405088
tree,scaled,itself,val+test_inter_EWU+EU_sample_1pct,top_50,quote,0.5033872937098743
tree,scaled,itself,val+test_inter_EWU+EU_sample_1pct,top_50,react,0.7260286258145595
tree,scaled,itself,val+test_inter_EWU+EU_sample_1pct,all,like,0.7157435283833985
tree,scaled,itself,val+test_inter_EWU+EU_sample_1pct,all,reply,0.34628516778445234
tree,scaled,itself,val+test_inter_EWU+EU_sample_1pct,all,retweet,0.3612469163177996
tree,scaled,itself,val+test_inter_EWU+EU_sample_1pct,all,quote,0.5037482041068875
tree,scaled,itself,val+test_inter_EWU+EU_sample_1pct,all,react,0.7734698405255775
tree,scaled,itself,val_tweet_sample_1pct,top_5,like,0.6813409564170003
tree,scaled,itself,val_tweet_sample_1pct,top_5,reply,0.5124724406376212
tree,scaled,itself,val_tweet_sample_1pct,top_5,retweet,0.5489776208221958
tree,scaled,itself,val_tweet_sample_1pct,top_5,quote,0.5033559011179833
tree,scaled,itself,val_tweet_sample_1pct,top_5,react,0.7282129322287773
tree,scaled,itself,val_tweet_sample_1pct,top_10,like,0.6952603264911978
tree,scaled,itself,val_tweet_sample_1pct,top_10,reply,0.34618710174519185
tree,scaled,itself,val_tweet_sample_1pct,top_10,retweet,0.3229966427134243
tree,scaled,itself,val_tweet_sample_1pct,top_10,quote,0.5033559011179833
tree,scaled,itself,val_tweet_sample_1pct,top_10,react,0.7448555454122208
tree,scaled,itself,val_tweet_sample_1pct,top_25,like,0.7205882954206435
tree,scaled,itself,val_tweet_sample_1pct,top_25,reply,0.5124724406376212
tree,scaled,itself,val_tweet_sample_1pct,top_25,retweet,0.3412978473099418
tree,scaled,itself,val_tweet_sample_1pct,top_25,quote,0.5033559011179833
tree,scaled,itself,val_tweet_sample_1pct,top_25,react,0.7662711020447659
tree,scaled,itself,val_tweet_sample_1pct,top_50,like,0.7249903625160916
tree,scaled,itself,val_tweet_sample_1pct,top_50,reply,0.5124724406376212
tree,scaled,itself,val_tweet_sample_1pct,top_50,retweet,0.3757010853271524
tree,scaled,itself,val_tweet_sample_1pct,top_50,quote,0.5055215003863642
tree,scaled,itself,val_tweet_sample_1pct,top_50,react,0.7646772340982398
tree,scaled,itself,val_tweet_sample_1pct,all,like,0.7496713255821588
tree,scaled,itself,val_tweet_sample_1pct,all,reply,0.5126631045247398
tree,scaled,itself,val_tweet_sample_1pct,all,retweet,0.3603933687172303
tree,scaled,itself,val_tweet_sample_1pct,all,quote,0.5055215003863642
tree,scaled,itself,val_tweet_sample_1pct,all,react,0.790652746938231
tree,scaled,itself,test_tweet_sample_1pct,top_10,like,0.6972474357830027
tree,scaled,itself,test_tweet_sample_1pct,top_10,reply,0.5131869527829893
tree,scaled,itself,test_tweet_sample_1pct,top_10,retweet,0.37506016480793203
tree,scaled,itself,test_tweet_sample_1pct,top_10,quote,0.5034005628517824
tree,scaled,itself,test_tweet_sample_1pct,top_10,react,0.7542993181179599
tree,scaled,itself,test_tweet_sample_1pct,top_25,like,0.7246972481621683
tree,scaled,itself,test_tweet_sample_1pct,top_25,reply,0.5131869527829893
tree,scaled,itself,test_tweet_sample_1pct,top_25,retweet,0.3555957520888724
tree,scaled,itself,test_tweet_sample_1pct,top_25,quote,0.5041140677902137
tree,scaled,itself,test_tweet_sample_1pct,top_25,react,0.7694546388333422
tree,scaled,itself,test_tweet_sample_1pct,top_50,like,0.7264334971880451
tree,scaled,itself,test_tweet_sample_1pct,top_50,reply,0.5135476886460623
tree,scaled,itself,test_tweet_sample_1pct,top_50,retweet,0.3618472103837759
tree,scaled,itself,test_tweet_sample_1pct,top_50,quote,0.5041140677902137
tree,scaled,itself,test_tweet_sample_1pct,top_50,react,0.7717709543005302
tree,scaled,itself,test_tweet_sample_1pct,all,like,0.7570918266301253
tree,scaled,itself,test_tweet_sample_1pct,all,reply,0.5131869527829893
tree,scaled,itself,test_tweet_sample_1pct,all,retweet,0.3638384744072161
tree,scaled,itself,test_tweet_sample_1pct,all,quote,0.5048275727286451
tree,scaled,itself,test_tweet_sample_1pct,all,react,0.7978776111358952
tree,scaled,itself,test_tweet_sample_1pct,top_5,like,
tree,scaled,itself,test_tweet_sample_1pct,top_5,reply,
tree,scaled,itself,test_tweet_sample_1pct,top_5,retweet,0.3931339025305892
tree,scaled,itself,test_tweet_sample_1pct,top_5,quote,0.5034005628517824
tree,scaled,itself,test_tweet_sample_1pct,top_5,react,0.7341893770211096
tree,scaled,itself,val+test_tweet_sample_1pct,top_5,like,0.6775378165915218
tree,scaled,itself,val+test_tweet_sample_1pct,top_5,reply,0.5128294002206579
tree,scaled,itself,val+test_tweet_sample_1pct,top_5,retweet,0.5489778370036144
tree,scaled,itself,val+test_tweet_sample_1pct,top_5,quote,0.5033782134523194
tree,scaled,itself,val+test_tweet_sample_1pct,top_5,react,0.7330752350155622
tree,scaled,itself,val+test_tweet_sample_1pct,top_10,like,0.6908751919976539
tree,scaled,itself,val+test_tweet_sample_1pct,top_10,reply,0.5128294002206579
tree,scaled,itself,val+test_tweet_sample_1pct,top_10,retweet,0.5489328360394841
tree,scaled,itself,val+test_tweet_sample_1pct,top_10,quote,0.5033782134523194
tree,scaled,itself,val+test_tweet_sample_1pct,top_10,react,0.7443480896514364
tree,scaled,itself,val+test_tweet_sample_1pct,top_25,like,0.7138127400952274
tree,scaled,itself,val+test_tweet_sample_1pct,top_25,reply,0.5129220886909356
tree,scaled,itself,val+test_tweet_sample_1pct,top_25,retweet,0.5489328360394841
tree,scaled,itself,val+test_tweet_sample_1pct,top_25,quote,0.5033782134523194
tree,scaled,itself,val+test_tweet_sample_1pct,top_25,react,0.7625645576743849
tree,scaled,itself,val+test_tweet_sample_1pct,top_50,like,0.7162815502019901
tree,scaled,itself,val+test_tweet_sample_1pct,top_50,reply,0.5128294002206579
tree,scaled,itself,val+test_tweet_sample_1pct,top_50,retweet,0.3643095411270468
tree,scaled,itself,val+test_tweet_sample_1pct,top_50,quote,0.5033782134523194
tree,scaled,itself,val+test_tweet_sample_1pct,top_50,react,0.7659114875246164
tree,scaled,itself,val+test_tweet_sample_1pct,all,like,0.7396084966024628
tree,scaled,itself,val+test_tweet_sample_1pct,all,reply,0.5128294002206579
tree,scaled,itself,val+test_tweet_sample_1pct,all,retweet,0.3643770169170287
tree,scaled,itself,val+test_tweet_sample_1pct,all,quote,0.505172367305454
tree,scaled,itself,val+test_tweet_sample_1pct,all,react,0.786458889586606
tree,scaled,itself,val_random_sample_2pct,top_5,like,0.6778956706178162
tree,scaled,itself,val_random_sample_2pct,top_5,reply,0.5129009694681133
tree,scaled,itself,val_random_sample_2pct,top_5,retweet,0.5496524063266138
tree,scaled,itself,val_random_sample_2pct,top_5,quote,0.5033432464953386
tree,scaled,itself,val_random_sample_2pct,top_5,react,0.7217862505262947
tree,scaled,itself,val_random_sample_2pct,top_10,like,0.6818777428971824
tree,scaled,itself,val_random_sample_2pct,top_10,reply,0.5129009694681133
tree,scaled,itself,val_random_sample_2pct,top_10,retweet,0.3830523197299758
tree,scaled,itself,val_random_sample_2pct,top_10,quote,0.5033432464953386
tree,scaled,itself,val_random_sample_2pct,top_10,react,0.7213712566956012
tree,scaled,itself,val_random_sample_2pct,top_25,like,0.6937896470628255
tree,scaled,itself,val_random_sample_2pct,top_25,reply,0.5129009694681133
tree,scaled,itself,val_random_sample_2pct,top_25,retweet,0.3319066323291452
tree,scaled,itself,val_random_sample_2pct,top_25,quote,0.5044332027941784
tree,scaled,itself,val_random_sample_2pct,top_25,react,0.7336351683203848
tree,scaled,itself,val_random_sample_2pct,top_50,like,0.6929264793682313
tree,scaled,itself,val_random_sample_2pct,top_50,reply,0.5129009694681133
tree,scaled,itself,val_random_sample_2pct,top_50,retweet,0.3738155877863261
tree,scaled,itself,val_random_sample_2pct,top_50,quote,0.3816131153918578
tree,scaled,itself,val_random_sample_2pct,top_50,react,0.7331386591729279
tree,scaled,itself,val_random_sample_2pct,all,like,0.7019185902851334
tree,scaled,itself,val_random_sample_2pct,all,reply,0.5129009694681133
tree,scaled,itself,val_random_sample_2pct,all,retweet,0.3928441983768696
tree,scaled,itself,val_random_sample_2pct,all,quote,0.5037065652616185
tree,scaled,itself,val_random_sample_2pct,all,react,0.7394374302875079
tree,scaled,itself,test_random_sample_2pct,top_5,like,0.6785015536441881
tree,scaled,itself,test_random_sample_2pct,top_5,reply,0.5131108867444615
tree,scaled,itself,test_random_sample_2pct,top_5,retweet,0.5498417567908666
tree,scaled,itself,test_random_sample_2pct,top_5,quote,0.5034876609129565
tree,scaled,itself,test_random_sample_2pct,top_5,react,0.7306186741433061
tree,scaled,itself,test_random_sample_2pct,top_10,like,0.6773144695240579
tree,scaled,itself,test_random_sample_2pct,top_10,reply,0.5131108867444615
tree,scaled,itself,test_random_sample_2pct,top_10,retweet,0.5498417567908666
tree,scaled,itself,test_random_sample_2pct,top_10,quote,0.5034876609129565
tree,scaled,itself,test_random_sample_2pct,top_10,react,0.7227224500075312
tree,scaled,itself,test_random_sample_2pct,top_25,like,0.6811240283360196
tree,scaled,itself,test_random_sample_2pct,top_25,reply,0.5131108867444615
tree,scaled,itself,test_random_sample_2pct,top_25,retweet,0.33247008697998626
tree,scaled,itself,test_random_sample_2pct,top_25,quote,0.5034876609129565
tree,scaled,itself,test_random_sample_2pct,top_25,react,0.7373797459739395
tree,scaled,itself,test_random_sample_2pct,top_50,like,0.6800249668050558
tree,scaled,itself,test_random_sample_2pct,top_50,reply,0.5132911492817646
tree,scaled,itself,test_random_sample_2pct,top_50,retweet,0.3823349842092372
tree,scaled,itself,test_random_sample_2pct,top_50,quote,0.5034876609129565
tree,scaled,itself,test_random_sample_2pct,top_50,react,0.7373665608172415
tree,scaled,itself,test_random_sample_2pct,all,like,0.7006149641692867
tree,scaled,itself,test_random_sample_2pct,all,reply,0.5131108867444615
tree,scaled,itself,test_random_sample_2pct,all,retweet,0.3834217229185565
tree,scaled,itself,test_random_sample_2pct,all,quote,0.5034876609129565
tree,scaled,itself,test_random_sample_2pct,all,react,0.7409124423908691
tree,scaled,itself,val+test_random_sample_2pct,top_5,like,0.6756356499568987
tree,scaled,itself,val+test_random_sample_2pct,top_5,reply,0.5130063295765177
tree,scaled,itself,val+test_random_sample_2pct,top_5,retweet,0.5497363894614257
tree,scaled,itself,val+test_random_sample_2pct,top_5,quote,0.5034157298990873
tree,scaled,itself,val+test_random_sample_2pct,top_5,react,0.7275697635110152
tree,scaled,itself,val+test_random_sample_2pct,top_10,like,0.6811486467878792
tree,scaled,itself,val+test_random_sample_2pct,top_10,reply,0.5130519410470079
tree,scaled,itself,val+test_random_sample_2pct,top_10,retweet,0.5497363894614257
tree,scaled,itself,val+test_random_sample_2pct,top_10,quote,0.5035928284262274
tree,scaled,itself,val+test_random_sample_2pct,top_10,react,0.7206188505661957
tree,scaled,itself,val+test_random_sample_2pct,top_25,like,0.6826492740255707
tree,scaled,itself,val+test_random_sample_2pct,top_25,reply,0.5130519410470079
tree,scaled,itself,val+test_random_sample_2pct,top_25,retweet,0.33560224237734143
tree,scaled,itself,val+test_random_sample_2pct,top_25,quote,0.5034157298990873
tree,scaled,itself,val+test_random_sample_2pct,top_25,react,0.7333804381958335
tree,scaled,itself,val+test_random_sample_2pct,top_50,like,0.6799054716634687
tree,scaled,itself,val+test_random_sample_2pct,top_50,reply,0.5130063295765177
tree,scaled,itself,val+test_random_sample_2pct,top_50,retweet,0.3918906042742019
tree,scaled,itself,val+test_random_sample_2pct,top_50,quote,0.5034157298990873
tree,scaled,itself,val+test_random_sample_2pct,top_50,react,0.7322843421830075
tree,scaled,itself,val+test_random_sample_2pct,all,like,0.7023463495220825
tree,scaled,itself,val+test_random_sample_2pct,all,reply,0.5130063295765177
tree,scaled,itself,val+test_random_sample_2pct,all,retweet,0.3739543163545144
tree,scaled,itself,val+test_random_sample_2pct,all,quote,0.5034157298990873
tree,scaled,itself,val+test_random_sample_2pct,all,react,0.7388142479457722
tree,scaled,itself,val_EWU_sample_2pct,top_5,like,0.6703739003465562
tree,scaled,itself,val_EWU_sample_2pct,top_5,reply,0.5127817903261107
tree,scaled,itself,val_EWU_sample_2pct,top_5,retweet,0.3694369104738848
tree,scaled,itself,val_EWU_sample_2pct,top_5,quote,0.5034994285158435
tree,scaled,itself,val_EWU_sample_2pct,top_5,react,0.7197680824742004
tree,scaled,itself,val_EWU_sample_2pct,top_10,like,0.6771390086434035
tree,scaled,itself,val_EWU_sample_2pct,top_10,reply,0.5128744878545874
tree,scaled,itself,val_EWU_sample_2pct,top_10,retweet,0.4067367925149067
tree,scaled,itself,val_EWU_sample_2pct,top_10,quote,0.5034994285158435
tree,scaled,itself,val_EWU_sample_2pct,top_10,react,0.7270476395316943
tree,scaled,itself,val_EWU_sample_2pct,top_25,like,0.6632163998429088
tree,scaled,itself,val_EWU_sample_2pct,top_25,reply,0.3463005187163976
tree,scaled,itself,val_EWU_sample_2pct,top_25,retweet,0.39299365916469503
tree,scaled,itself,val_EWU_sample_2pct,top_25,quote,0.5034994285158435
tree,scaled,itself,val_EWU_sample_2pct,top_25,react,0.7140689356239514
tree,scaled,itself,val_EWU_sample_2pct,top_50,like,0.6652430757508119
tree,scaled,itself,val_EWU_sample_2pct,top_50,reply,0.5127817903261107
tree,scaled,itself,val_EWU_sample_2pct,top_50,retweet,0.3631227175568199
tree,scaled,itself,val_EWU_sample_2pct,top_50,quote,0.5034994285158435
tree,scaled,itself,val_EWU_sample_2pct,top_50,react,0.7205575404950522
tree,scaled,itself,val_EWU_sample_2pct,all,like,0.7410733453422595
tree,scaled,itself,val_EWU_sample_2pct,all,reply,0.5127817903261107
tree,scaled,itself,val_EWU_sample_2pct,all,retweet,0.3660610350343453
tree,scaled,itself,val_EWU_sample_2pct,all,quote,0.5038444601846997
tree,scaled,itself,val_EWU_sample_2pct,all,react,0.7856246655219856
tree,scaled,itself,test_EWU_sample_2pct,top_5,like,0.6707588527062294
tree,scaled,itself,test_EWU_sample_2pct,top_5,reply,0.5128751224138013
tree,scaled,itself,test_EWU_sample_2pct,top_5,retweet,0.5491816178785017
tree,scaled,itself,test_EWU_sample_2pct,top_5,quote,0.5033684648735366
tree,scaled,itself,test_EWU_sample_2pct,top_5,react,0.7271227470903214
tree,scaled,itself,test_EWU_sample_2pct,top_10,like,0.6820190521333088
tree,scaled,itself,test_EWU_sample_2pct,top_10,reply,0.5127783362271162
tree,scaled,itself,test_EWU_sample_2pct,top_10,retweet,0.5492048859240306
tree,scaled,itself,test_EWU_sample_2pct,top_10,quote,0.3374503008973393
tree,scaled,itself,test_EWU_sample_2pct,top_10,react,0.7356798430041555
tree,scaled,itself,test_EWU_sample_2pct,top_25,like,0.6862344750694871
tree,scaled,itself,test_EWU_sample_2pct,top_25,reply,0.5127783362271162
tree,scaled,itself,test_EWU_sample_2pct,top_25,retweet,0.5491816178785017
tree,scaled,itself,test_EWU_sample_2pct,top_25,quote,0.5033684648735366
tree,scaled,itself,test_EWU_sample_2pct,top_25,react,0.7223486629335196
tree,scaled,itself,test_EWU_sample_2pct,top_50,like,0.6775883530080015
tree,scaled,itself,test_EWU_sample_2pct,top_50,reply,0.5127783362271162
tree,scaled,itself,test_EWU_sample_2pct,top_50,retweet,0.3863372216023834
tree,scaled,itself,test_EWU_sample_2pct,top_50,quote,0.5033684648735366
tree,scaled,itself,test_EWU_sample_2pct,top_50,react,0.7223728502585961
tree,scaled,itself,test_EWU_sample_2pct,all,like,0.7465514179637986
tree,scaled,itself,test_EWU_sample_2pct,all,reply,0.5127783362271162
tree,scaled,itself,test_EWU_sample_2pct,all,retweet,0.3691738598808527
tree,scaled,itself,test_EWU_sample_2pct,all,quote,0.5048654702544754
tree,scaled,itself,test_EWU_sample_2pct,all,react,0.7853711358258866
tree,scaled,itself,val+test_EWU_sample_2pct,top_5,like,0.6731437607292742
tree,scaled,itself,val+test_EWU_sample_2pct,top_5,reply,0.5127801003032945
tree,scaled,itself,val+test_EWU_sample_2pct,top_5,retweet,0.3466417749499129
tree,scaled,itself,val+test_EWU_sample_2pct,top_5,quote,0.5034353505771538
tree,scaled,itself,val+test_EWU_sample_2pct,top_5,react,0.7186032323883743
tree,scaled,itself,val+test_EWU_sample_2pct,top_10,like,0.6757700705489282
tree,scaled,itself,val+test_EWU_sample_2pct,top_10,reply,0.5127801003032945
tree,scaled,itself,val+test_EWU_sample_2pct,top_10,retweet,0.5493810390383165
tree,scaled,itself,val+test_EWU_sample_2pct,top_10,quote,0.5034353505771538
tree,scaled,itself,val+test_EWU_sample_2pct,top_10,react,0.7249036180555989
tree,scaled,itself,val+test_EWU_sample_2pct,top_25,like,0.6963541237601389
tree,scaled,itself,val+test_EWU_sample_2pct,top_25,reply,0.5127801003032945
tree,scaled,itself,val+test_EWU_sample_2pct,top_25,retweet,0.37463137073754427
tree,scaled,itself,val+test_EWU_sample_2pct,top_25,quote,0.5036148750346457
tree,scaled,itself,val+test_EWU_sample_2pct,top_25,react,0.7188260837042366
tree,scaled,itself,val+test_EWU_sample_2pct,top_50,like,0.6815509360805669
tree,scaled,itself,val+test_EWU_sample_2pct,top_50,reply,0.5127801003032945
tree,scaled,itself,val+test_EWU_sample_2pct,top_50,retweet,0.3641559756198101
tree,scaled,itself,val+test_EWU_sample_2pct,top_50,quote,0.5034353505771538
tree,scaled,itself,val+test_EWU_sample_2pct,top_50,react,0.7467371733468482
tree,scaled,itself,val+test_EWU_sample_2pct,all,like,0.7296351916206266
tree,scaled,itself,val+test_EWU_sample_2pct,all,reply,0.5127801003032945
tree,scaled,itself,val+test_EWU_sample_2pct,all,retweet,0.3702464535039551
tree,scaled,itself,val+test_EWU_sample_2pct,all,quote,0.5034353505771538
tree,scaled,itself,val+test_EWU_sample_2pct,all,react,0.7746924116403853
tree,scaled,itself,val_EU_sample_2pct,top_5,like,0.6789694719318232
tree,scaled,itself,val_EU_sample_2pct,top_5,reply,0.512596419913314
tree,scaled,itself,val_EU_sample_2pct,top_5,retweet,0.3572844655441516
tree,scaled,itself,val_EU_sample_2pct,top_5,quote,0.5035188676935133
tree,scaled,itself,val_EU_sample_2pct,top_5,react,0.7184351325942191
tree,scaled,itself,val_EU_sample_2pct,top_10,like,0.6725632327129373
tree,scaled,itself,val_EU_sample_2pct,top_10,reply,0.4129754273628369
tree,scaled,itself,val_EU_sample_2pct,top_10,retweet,0.3828808322349865
tree,scaled,itself,val_EU_sample_2pct,top_10,quote,0.5035188676935133
tree,scaled,itself,val_EU_sample_2pct,top_10,react,0.7300050519650142
tree,scaled,itself,val_EU_sample_2pct,top_25,like,0.6783502688588244
tree,scaled,itself,val_EU_sample_2pct,top_25,reply,0.5128806755004562
tree,scaled,itself,val_EU_sample_2pct,top_25,retweet,0.3327033311756513
tree,scaled,itself,val_EU_sample_2pct,top_25,quote,0.503864366045849
tree,scaled,itself,val_EU_sample_2pct,top_25,react,0.733164512900651
tree,scaled,itself,val_EU_sample_2pct,top_50,like,0.6752801295895834
tree,scaled,itself,val_EU_sample_2pct,top_50,reply,0.5129754273628371
tree,scaled,itself,val_EU_sample_2pct,top_50,retweet,0.32880668196239426
tree,scaled,itself,val_EU_sample_2pct,top_50,quote,0.5035188676935133
tree,scaled,itself,val_EU_sample_2pct,top_50,react,0.7326044464807759
tree,scaled,itself,val_EU_sample_2pct,all,like,0.6965658089112087
tree,scaled,itself,val_EU_sample_2pct,all,reply,0.5127859236380755
tree,scaled,itself,val_EU_sample_2pct,all,retweet,0.35787276718727834
tree,scaled,itself,val_EU_sample_2pct,all,quote,0.5035188676935133
tree,scaled,itself,val_EU_sample_2pct,all,react,0.7384928959235443
tree,scaled,itself,test_EU_sample_2pct,top_5,like,0.6865991709067023
tree,scaled,itself,test_EU_sample_2pct,top_5,reply,0.5128316458950861
tree,scaled,itself,test_EU_sample_2pct,top_5,retweet,
tree,scaled,itself,test_EU_sample_2pct,top_10,like,0.6789914752948887
tree,scaled,itself,test_EU_sample_2pct,top_25,like,0.6833401314975671
tree,scaled,itself,test_EU_sample_2pct,top_50,like,0.6922170149048597
tree,scaled,itself,test_EU_sample_2pct,all,like,0.7009158227284825
tree,scaled,itself,test_EU_sample_2pct,top_10,reply,0.5128316458950861
tree,scaled,itself,test_EU_sample_2pct,top_25,reply,0.512923738211552
tree,scaled,itself,test_EU_sample_2pct,top_50,reply,0.512923738211552
tree,scaled,itself,test_EU_sample_2pct,all,reply,0.5128316458950861
tree,scaled,itself,test_EU_sample_2pct,top_10,retweet,0.3538034526775351
tree,scaled,itself,test_EU_sample_2pct,top_25,retweet,0.3412453209323938
tree,scaled,itself,test_EU_sample_2pct,top_50,retweet,0.3445379494930804
tree,scaled,itself,test_EU_sample_2pct,all,retweet,0.40653894303686505
tree,scaled,itself,test_EU_sample_2pct,top_5,quote,0.5034662423410355
tree,scaled,itself,test_EU_sample_2pct,top_10,quote,0.5034662423410355
tree,scaled,itself,test_EU_sample_2pct,top_25,quote,0.5034662423410355
tree,scaled,itself,test_EU_sample_2pct,top_50,quote,0.5034662423410355
tree,scaled,itself,test_EU_sample_2pct,all,quote,0.3795086505096688
tree,scaled,itself,test_EU_sample_2pct,top_5,react,0.7294160893167123
tree,scaled,itself,test_EU_sample_2pct,top_10,react,0.7300989147597137
tree,scaled,itself,test_EU_sample_2pct,top_25,react,0.7351758011890658
tree,scaled,itself,test_EU_sample_2pct,top_50,react,0.7365981098443497
tree,scaled,itself,test_EU_sample_2pct,all,react,0.7417021214932916
tree,scaled,itself,val+test_EU_sample_2pct,top_5,like,0.6798839502738871
tree,scaled,itself,val+test_EU_sample_2pct,top_10,like,0.6812711221396157
tree,scaled,itself,val+test_EU_sample_2pct,top_25,like,0.6780462237663558
tree,scaled,itself,val+test_EU_sample_2pct,top_50,like,0.6781248844207896
tree,scaled,itself,val+test_EU_sample_2pct,all,like,0.699820616297276
tree,scaled,itself,val+test_EU_sample_2pct,top_5,reply,0.5127145907057
tree,scaled,itself,val+test_EU_sample_2pct,top_10,reply,0.5127145907057
tree,scaled,itself,val+test_EU_sample_2pct,top_25,reply,0.5127145907057
tree,scaled,itself,val+test_EU_sample_2pct,top_50,reply,0.5127145907057
tree,scaled,itself,val+test_EU_sample_2pct,all,reply,0.5127145907057
tree,scaled,itself,val+test_EU_sample_2pct,top_5,retweet,0.3999616902104162
tree,scaled,itself,val+test_EU_sample_2pct,top_10,retweet,0.3714122522722538
tree,scaled,itself,val+test_EU_sample_2pct,top_25,retweet,0.33413301381419114
tree,scaled,itself,val+test_EU_sample_2pct,top_50,retweet,0.3707560304598386
tree,scaled,itself,val+test_EU_sample_2pct,all,retweet,0.3655678195127193
tree,scaled,itself,val+test_EU_sample_2pct,top_5,quote,0.5034924302245098
tree,scaled,itself,val+test_EU_sample_2pct,top_10,quote,0.5034924302245098
tree,scaled,itself,val+test_EU_sample_2pct,top_25,quote,0.5034924302245098
tree,scaled,itself,val+test_EU_sample_2pct,top_50,quote,0.5034924302245098
tree,scaled,itself,val+test_EU_sample_2pct,all,quote,0.5034924302245098
tree,scaled,itself,val+test_EU_sample_2pct,top_5,react,0.7268521298061669
tree,scaled,itself,val+test_EU_sample_2pct,top_10,react,0.7305031791073714
tree,scaled,itself,val+test_EU_sample_2pct,top_25,react,0.7345466741116731
tree,scaled,itself,val+test_EU_sample_2pct,top_50,react,0.7351686619868466
tree,scaled,itself,val+test_EU_sample_2pct,all,react,0.7397953989595794
tree,scaled,itself,val_inter_EWU+EU_sample_2pct,top_5,like,0.6752771240912706
tree,scaled,itself,val_inter_EWU+EU_sample_2pct,top_10,like,0.6818975150922914
tree,scaled,itself,val_inter_EWU+EU_sample_2pct,top_25,like,0.6810613481716052
tree,scaled,itself,val_inter_EWU+EU_sample_2pct,top_50,like,0.6790492105647856
tree,scaled,itself,val_inter_EWU+EU_sample_2pct,all,like,0.6742360028144818
tree,scaled,itself,val_inter_EWU+EU_sample_2pct,top_5,reply,0.5125399514901227
tree,scaled,itself,val_inter_EWU+EU_sample_2pct,top_10,reply,0.5125399514901227
tree,scaled,itself,val_inter_EWU+EU_sample_2pct,top_25,reply,0.5125399514901227
tree,scaled,itself,val_inter_EWU+EU_sample_2pct,top_50,reply,0.5125399514901227
tree,scaled,itself,val_inter_EWU+EU_sample_2pct,all,reply,0.5125399514901227
tree,scaled,itself,val_inter_EWU+EU_sample_2pct,top_5,retweet,0.5495596073762677
tree,scaled,itself,val_inter_EWU+EU_sample_2pct,top_10,retweet,0.5495596073762677
tree,scaled,itself,val_inter_EWU+EU_sample_2pct,top_25,retweet,0.5495596073762677
tree,scaled,itself,val_inter_EWU+EU_sample_2pct,top_50,retweet,0.38030042636239203
tree,scaled,itself,val_inter_EWU+EU_sample_2pct,all,retweet,0.3601770525597965
tree,scaled,itself,val_inter_EWU+EU_sample_2pct,top_5,quote,0.5034110051226826
tree,scaled,itself,val_inter_EWU+EU_sample_2pct,top_10,quote,0.5034110051226826
tree,scaled,itself,val_inter_EWU+EU_sample_2pct,top_25,quote,0.5034110051226826
tree,scaled,itself,val_inter_EWU+EU_sample_2pct,top_50,quote,0.5034110051226826
tree,scaled,itself,val_inter_EWU+EU_sample_2pct,all,quote,0.3794897647060511
tree,scaled,itself,val_inter_EWU+EU_sample_2pct,top_5,react,0.727512440090996
tree,scaled,itself,val_inter_EWU+EU_sample_2pct,top_10,react,0.7274909219448781
tree,scaled,itself,val_inter_EWU+EU_sample_2pct,top_25,react,0.7198031155467818
tree,scaled,itself,val_inter_EWU+EU_sample_2pct,top_50,react,0.7161294745380378
tree,scaled,itself,val_inter_EWU+EU_sample_2pct,all,react,0.7274065209093207
tree,scaled,itself,test_inter_EWU+EU_sample_2pct,top_5,like,0.6658125649679539
tree,scaled,itself,test_inter_EWU+EU_sample_2pct,top_10,like,0.6703477697153744
tree,scaled,itself,test_inter_EWU+EU_sample_2pct,top_25,like,0.6757176064817363
tree,scaled,itself,test_inter_EWU+EU_sample_2pct,top_50,like,0.6760383295814056
tree,scaled,itself,test_inter_EWU+EU_sample_2pct,all,like,0.6783847907197044
tree,scaled,itself,test_inter_EWU+EU_sample_2pct,top_5,reply,0.5128409012337143
tree,scaled,itself,test_inter_EWU+EU_sample_2pct,top_10,reply,0.5128409012337143
tree,scaled,itself,test_inter_EWU+EU_sample_2pct,top_25,reply,0.5128409012337143
tree,scaled,itself,test_inter_EWU+EU_sample_2pct,top_50,reply,0.5128409012337143
tree,scaled,itself,test_inter_EWU+EU_sample_2pct,all,reply,0.5131219545599256
tree,scaled,itself,test_inter_EWU+EU_sample_2pct,top_5,retweet,0.5492106921950226
tree,scaled,itself,test_inter_EWU+EU_sample_2pct,top_10,retweet,0.36152349556401225
tree,scaled,itself,test_inter_EWU+EU_sample_2pct,top_25,retweet,0.3365689335181416
tree,scaled,itself,test_inter_EWU+EU_sample_2pct,top_50,retweet,0.3291671566196279
tree,scaled,itself,test_inter_EWU+EU_sample_2pct,all,retweet,0.39537745170052535
tree,scaled,itself,test_inter_EWU+EU_sample_2pct,top_5,quote,0.5034003694228508
tree,scaled,itself,test_inter_EWU+EU_sample_2pct,top_10,quote,0.5034003694228508
tree,scaled,itself,test_inter_EWU+EU_sample_2pct,top_25,quote,0.5034003694228508
tree,scaled,itself,test_inter_EWU+EU_sample_2pct,top_50,quote,0.5034003694228508
tree,scaled,itself,test_inter_EWU+EU_sample_2pct,all,quote,0.5037610082250129
tree,scaled,itself,test_inter_EWU+EU_sample_2pct,top_5,react,0.7207178965276609
tree,scaled,itself,test_inter_EWU+EU_sample_2pct,top_10,react,0.7214006457804101
tree,scaled,itself,test_inter_EWU+EU_sample_2pct,top_25,react,0.7237824529676556
tree,scaled,itself,test_inter_EWU+EU_sample_2pct,top_50,react,0.7220550011212123
tree,scaled,itself,test_inter_EWU+EU_sample_2pct,all,react,0.7233285851797141
tree,scaled,itself,val+test_inter_EWU+EU_sample_2pct,top_5,like,0.6705413780084507
tree,scaled,itself,val+test_inter_EWU+EU_sample_2pct,top_10,like,0.676643045404958
tree,scaled,itself,val+test_inter_EWU+EU_sample_2pct,top_25,like,0.6781834935546378
tree,scaled,itself,val+test_inter_EWU+EU_sample_2pct,top_50,like,0.6790792171984079
tree,scaled,itself,val+test_inter_EWU+EU_sample_2pct,all,like,0.7194868487131821
tree,scaled,itself,val+test_inter_EWU+EU_sample_2pct,top_5,reply,0.5128044398917547
tree,scaled,itself,val+test_inter_EWU+EU_sample_2pct,top_10,reply,0.5128044398917547
tree,scaled,itself,val+test_inter_EWU+EU_sample_2pct,top_25,reply,0.5128771556469948
tree,scaled,itself,val+test_inter_EWU+EU_sample_2pct,top_50,reply,0.5128044398917547
tree,scaled,itself,val+test_inter_EWU+EU_sample_2pct,all,reply,0.5128771556469948
tree,scaled,itself,val+test_inter_EWU+EU_sample_2pct,top_5,retweet,0.3241388832726696
tree,scaled,itself,val+test_inter_EWU+EU_sample_2pct,top_10,retweet,0.5496506490131026
tree,scaled,itself,val+test_inter_EWU+EU_sample_2pct,top_25,retweet,0.5496506490131026
tree,scaled,itself,val+test_inter_EWU+EU_sample_2pct,top_50,retweet,0.3365851408287699
tree,scaled,itself,val+test_inter_EWU+EU_sample_2pct,all,retweet,0.3750385405972241
tree,scaled,itself,val+test_inter_EWU+EU_sample_2pct,top_5,quote,0.5033998654578257
tree,scaled,itself,val+test_inter_EWU+EU_sample_2pct,top_10,quote,0.5033998654578257
tree,scaled,itself,val+test_inter_EWU+EU_sample_2pct,top_25,quote,0.5033998654578257
tree,scaled,itself,val+test_inter_EWU+EU_sample_2pct,top_50,quote,0.5033998654578257
tree,scaled,itself,val+test_inter_EWU+EU_sample_2pct,all,quote,0.5033998654578257
tree,scaled,itself,val+test_inter_EWU+EU_sample_2pct,top_5,react,0.7260396741256065
tree,scaled,itself,val+test_inter_EWU+EU_sample_2pct,top_10,react,0.7248721416161656
tree,scaled,itself,val+test_inter_EWU+EU_sample_2pct,top_25,react,0.7185135543818691
tree,scaled,itself,val+test_inter_EWU+EU_sample_2pct,top_50,react,0.7164993041549381
tree,scaled,itself,val+test_inter_EWU+EU_sample_2pct,all,react,0.7653826851175188
tree,scaled,itself,val_tweet_sample_2pct,top_5,like,0.6876636697368143
tree,scaled,itself,val_tweet_sample_2pct,top_10,like,0.7020530570301421
tree,scaled,itself,val_tweet_sample_2pct,top_25,like,0.7265236188237474
tree,scaled,itself,val_tweet_sample_2pct,top_50,like,0.7308598108581292
tree,scaled,itself,val_tweet_sample_2pct,all,like,0.7542051708973357
tree,scaled,itself,val_tweet_sample_2pct,top_5,reply,0.5126832086454576
tree,scaled,itself,val_tweet_sample_2pct,top_10,reply,0.5126832086454576
tree,scaled,itself,val_tweet_sample_2pct,top_25,reply,0.5126832086454576
tree,scaled,itself,val_tweet_sample_2pct,top_50,reply,0.5126832086454576
tree,scaled,itself,val_tweet_sample_2pct,all,reply,0.5126832086454576
tree,scaled,itself,val_tweet_sample_2pct,top_5,retweet,0.4342224941068056
tree,scaled,itself,val_tweet_sample_2pct,top_10,retweet,0.4342224941068056
tree,scaled,itself,val_tweet_sample_2pct,top_25,retweet,0.3442288460012901
tree,scaled,itself,val_tweet_sample_2pct,top_50,retweet,0.37315409718087744
tree,scaled,itself,val_tweet_sample_2pct,all,retweet,0.39879893034238784
tree,scaled,itself,val_tweet_sample_2pct,top_5,quote,0.5034784761701322
tree,scaled,itself,val_tweet_sample_2pct,top_10,quote,0.5034784761701322
tree,scaled,itself,val_tweet_sample_2pct,top_25,quote,0.5034784761701322
tree,scaled,itself,val_tweet_sample_2pct,top_50,quote,0.5034784761701322
tree,scaled,itself,val_tweet_sample_2pct,all,quote,0.5041714580596366
tree,scaled,itself,val_tweet_sample_2pct,top_5,react,0.7307516336446752
tree,scaled,itself,val_tweet_sample_2pct,top_10,react,0.7476662882680825
tree,scaled,itself,val_tweet_sample_2pct,top_25,react,0.7706324957949141
tree,scaled,itself,val_tweet_sample_2pct,top_50,react,0.7748738895805963
tree,scaled,itself,val_tweet_sample_2pct,all,react,0.7967825929259325
tree,scaled,itself,test_tweet_sample_2pct,top_5,like,0.6859841624449791
tree,scaled,itself,test_tweet_sample_2pct,top_10,like,0.6999424240756844
tree,scaled,itself,test_tweet_sample_2pct,top_25,like,0.727648467991851
tree,scaled,itself,test_tweet_sample_2pct,top_50,like,0.7298372517971413
tree,scaled,itself,test_tweet_sample_2pct,all,like,0.7520438712447842
tree,scaled,itself,test_tweet_sample_2pct,top_5,reply,0.5128084248393507
tree,scaled,itself,test_tweet_sample_2pct,top_10,reply,0.5128084248393507
tree,scaled,itself,test_tweet_sample_2pct,top_25,reply,0.5128084248393507
tree,scaled,itself,test_tweet_sample_2pct,top_50,reply,0.5128084248393507
tree,scaled,itself,test_tweet_sample_2pct,all,reply,0.41317625539817343
tree,scaled,itself,test_tweet_sample_2pct,top_5,retweet,0.5495853463337699
tree,scaled,itself,test_tweet_sample_2pct,top_10,retweet,0.5495633641642401
tree,scaled,itself,test_tweet_sample_2pct,top_25,retweet,0.3807632352654112
tree,scaled,itself,test_tweet_sample_2pct,top_50,retweet,0.3894371533137452
tree,scaled,itself,test_tweet_sample_2pct,all,retweet,0.3912116302019206
tree,scaled,itself,test_tweet_sample_2pct,top_5,quote,0.5034619978048226
tree,scaled,itself,test_tweet_sample_2pct,top_10,quote,0.5034619978048226
tree,scaled,itself,test_tweet_sample_2pct,top_25,quote,0.5034619978048226
tree,scaled,itself,test_tweet_sample_2pct,top_50,quote,0.5034619978048226
tree,scaled,itself,test_tweet_sample_2pct,all,quote,0.5055424642944673
tree,scaled,itself,test_tweet_sample_2pct,top_5,react,0.7308918587765197
tree,scaled,itself,test_tweet_sample_2pct,top_10,react,0.7597814744348432
tree,scaled,itself,test_tweet_sample_2pct,top_25,react,0.7715420951383983
tree,scaled,itself,test_tweet_sample_2pct,top_50,react,0.7725799203254918
tree,scaled,itself,test_tweet_sample_2pct,all,react,0.7930421758868191
tree,scaled,itself,val+test_tweet_sample_2pct,top_5,like,0.68470243538606
tree,scaled,itself,val+test_tweet_sample_2pct,top_10,like,0.6969222056903729
tree,scaled,itself,val+test_tweet_sample_2pct,top_25,like,0.7172884909117776
tree,scaled,itself,val+test_tweet_sample_2pct,top_50,like,0.7200266999058149
tree,scaled,itself,val+test_tweet_sample_2pct,all,like,0.7410750362625496
tree,scaled,itself,val+test_tweet_sample_2pct,top_5,reply,0.5127459435365481
tree,scaled,itself,val+test_tweet_sample_2pct,top_10,reply,0.5127459435365481
tree,scaled,itself,val+test_tweet_sample_2pct,top_25,reply,0.5127459435365481
tree,scaled,itself,val+test_tweet_sample_2pct,top_50,reply,0.5127922472575843
tree,scaled,itself,val+test_tweet_sample_2pct,all,reply,0.4296441288083956
tree,scaled,itself,val+test_tweet_sample_2pct,top_5,retweet,0.5494746927444897
tree,scaled,itself,val+test_tweet_sample_2pct,top_10,retweet,0.5494636601921521
tree,scaled,itself,val+test_tweet_sample_2pct,top_25,retweet,0.3305929463279051
tree,scaled,itself,val+test_tweet_sample_2pct,top_50,retweet,0.3674318813923606
tree,scaled,itself,val+test_tweet_sample_2pct,all,retweet,0.3919891482537024
tree,scaled,itself,val+test_tweet_sample_2pct,top_5,quote,0.5036435291250845
tree,scaled,itself,val+test_tweet_sample_2pct,top_10,quote,0.5034702203014549
tree,scaled,itself,val+test_tweet_sample_2pct,top_25,quote,0.5034702203014549
tree,scaled,itself,val+test_tweet_sample_2pct,top_50,quote,0.5034702203014549
tree,scaled,itself,val+test_tweet_sample_2pct,all,quote,0.5046833820668615
tree,scaled,itself,val+test_tweet_sample_2pct,top_5,react,0.7293532112751244
tree,scaled,itself,val+test_tweet_sample_2pct,top_10,react,0.7443634922854457
tree,scaled,itself,val+test_tweet_sample_2pct,top_25,react,0.7679102200342163
tree,scaled,itself,val+test_tweet_sample_2pct,top_50,react,0.7686741642240997
tree,scaled,itself,val+test_tweet_sample_2pct,all,react,0.7852500276074055
tree,scaled,itself,val_random_sample_5pct,top_5,like,0.6843189166990111
tree,scaled,itself,val_random_sample_5pct,top_10,like,0.6754269232415973
tree,scaled,itself,val_random_sample_5pct,top_25,like,0.6883222853136471
tree,scaled,itself,val_random_sample_5pct,top_50,like,0.6886722188771992
tree,scaled,itself,val_random_sample_5pct,all,like,0.6789357840241406
tree,scaled,itself,val_random_sample_5pct,top_5,reply,0.5129733889191928
tree,scaled,itself,val_random_sample_5pct,top_10,reply,0.5130099552238012
tree,scaled,itself,val_random_sample_5pct,top_25,reply,0.5130099552238012
tree,scaled,itself,val_random_sample_5pct,top_50,reply,0.5130099552238012
tree,scaled,itself,val_random_sample_5pct,all,reply,0.5129733889191928
tree,scaled,itself,val_random_sample_5pct,top_5,retweet,0.5494292059534014
tree,scaled,itself,val_random_sample_5pct,top_10,retweet,0.5494292059534014
tree,scaled,itself,val_random_sample_5pct,top_25,retweet,0.3376846548717389
tree,scaled,itself,val_random_sample_5pct,top_50,retweet,0.3821903913607928
tree,scaled,itself,val_random_sample_5pct,all,retweet,0.40082318794749855
tree,scaled,itself,val_random_sample_5pct,top_5,quote,0.5033429439725707
tree,scaled,itself,val_random_sample_5pct,top_10,quote,0.5033429439725707
tree,scaled,itself,val_random_sample_5pct,top_25,quote,0.5036323711613979
tree,scaled,itself,val_random_sample_5pct,top_50,quote,0.5042112255390523
tree,scaled,itself,val_random_sample_5pct,all,quote,0.5033429439725707
tree,scaled,itself,val_random_sample_5pct,top_5,react,0.7222409456029673
tree,scaled,itself,val_random_sample_5pct,top_10,react,0.7200714564985422
tree,scaled,itself,val_random_sample_5pct,top_25,react,0.7447040370646929
tree,scaled,itself,val_random_sample_5pct,top_50,react,0.7433268524857132
tree,scaled,itself,val_random_sample_5pct,all,react,0.7440318481680397
tree,scaled,itself,test_random_sample_5pct,top_5,like,0.6808714673994594
tree,scaled,itself,test_random_sample_5pct,top_10,like,0.675879370847328
tree,scaled,itself,test_random_sample_5pct,top_25,like,0.6833474961337281
tree,scaled,itself,test_random_sample_5pct,top_50,like,0.6833474961337281
tree,scaled,itself,test_random_sample_5pct,all,like,0.675898121642805
tree,scaled,itself,test_random_sample_5pct,top_5,reply,0.5129202438095533
tree,scaled,itself,test_random_sample_5pct,top_10,reply,0.5129202438095533
tree,scaled,itself,test_random_sample_5pct,top_25,reply,0.5129202438095533
tree,scaled,itself,test_random_sample_5pct,top_50,reply,0.5129202438095533
tree,scaled,itself,test_random_sample_5pct,all,reply,0.5129202438095533
tree,scaled,itself,test_random_sample_5pct,top_5,retweet,0.3070770400275389
tree,scaled,itself,test_random_sample_5pct,top_10,retweet,0.5497768172143618
tree,scaled,itself,test_random_sample_5pct,top_25,retweet,0.39785892547315777
tree,scaled,itself,test_random_sample_5pct,top_50,retweet,0.3972910042014653
tree,scaled,itself,test_random_sample_5pct,all,retweet,0.4004345458779619
tree,scaled,itself,test_random_sample_5pct,top_5,quote,0.5034439162634426
tree,scaled,itself,test_random_sample_5pct,top_10,quote,0.5034439162634426
tree,scaled,itself,test_random_sample_5pct,top_25,quote,0.5034439162634426
tree,scaled,itself,test_random_sample_5pct,top_50,quote,0.5034439162634426
tree,scaled,itself,test_random_sample_5pct,all,quote,0.30428010388691146
tree,scaled,itself,test_random_sample_5pct,top_5,react,0.7298352012875088
tree,scaled,itself,test_random_sample_5pct,top_10,react,0.7209519213595066
tree,scaled,itself,test_random_sample_5pct,top_25,react,0.7434260198074357
tree,scaled,itself,test_random_sample_5pct,top_50,react,0.7438184053711139
tree,scaled,itself,test_random_sample_5pct,all,react,0.7429806506664873
tree,scaled,itself,val+test_random_sample_5pct,top_5,like,0.6826350949959386
tree,scaled,itself,val+test_random_sample_5pct,top_10,like,0.6811367018275182
tree,scaled,itself,val+test_random_sample_5pct,top_25,like,0.6862717210225049
tree,scaled,itself,val+test_random_sample_5pct,top_50,like,0.6906166186045096
tree,scaled,itself,val+test_random_sample_5pct,all,like,0.6779275697172633
tree,scaled,itself,val+test_random_sample_5pct,top_5,reply,0.5129467140302482
tree,scaled,itself,val+test_random_sample_5pct,top_10,reply,0.5129649652963042
tree,scaled,itself,val+test_random_sample_5pct,top_25,reply,0.5129467140302482
tree,scaled,itself,val+test_random_sample_5pct,top_50,reply,0.5129467140302482
tree,scaled,itself,val+test_random_sample_5pct,all,reply,0.5129467140302482
tree,scaled,itself,val+test_random_sample_5pct,top_5,retweet,0.5496036809304014
tree,scaled,itself,val+test_random_sample_5pct,top_10,retweet,0.5496036809304014
tree,scaled,itself,val+test_random_sample_5pct,top_25,retweet,0.33019027139477064
tree,scaled,itself,val+test_random_sample_5pct,top_50,retweet,0.38265026095845855
tree,scaled,itself,val+test_random_sample_5pct,all,retweet,0.4061904959454795
tree,scaled,itself,val+test_random_sample_5pct,top_5,quote,0.5034646190245271
tree,scaled,itself,val+test_random_sample_5pct,top_10,quote,0.5034646190245271
tree,scaled,itself,val+test_random_sample_5pct,top_25,quote,0.5033936245462635
tree,scaled,itself,val+test_random_sample_5pct,top_50,quote,0.5033936245462635
tree,scaled,itself,val+test_random_sample_5pct,all,quote,0.5037485969375813
tree,scaled,itself,val+test_random_sample_5pct,top_5,react,0.7285974581807463
tree,scaled,itself,val+test_random_sample_5pct,top_10,react,0.7202449321367647
tree,scaled,itself,val+test_random_sample_5pct,top_25,react,0.7442792871434399
tree,scaled,itself,val+test_random_sample_5pct,top_50,react,0.7441624679873907
tree,scaled,itself,val+test_random_sample_5pct,all,react,0.7431665352944299
tree,scaled,itself,val_EWU_sample_5pct,top_5,like,0.6719637501521374
tree,scaled,itself,val_EWU_sample_5pct,top_10,like,0.67732320112682
tree,scaled,itself,val_EWU_sample_5pct,top_25,like,0.6727520452525524
tree,scaled,itself,val_EWU_sample_5pct,top_50,like,0.6865922577538468
tree,scaled,itself,val_EWU_sample_5pct,all,like,0.7326208630489939
tree,scaled,itself,val_EWU_sample_5pct,top_5,reply,0.5129188362862573
tree,scaled,itself,val_EWU_sample_5pct,top_10,reply,0.5129188362862573
tree,scaled,itself,val_EWU_sample_5pct,top_25,reply,0.5129188362862573
tree,scaled,itself,val_EWU_sample_5pct,top_50,reply,0.5129188362862573
tree,scaled,itself,val_EWU_sample_5pct,all,reply,0.5129188362862573
tree,scaled,itself,val_EWU_sample_5pct,top_5,retweet,0.4663751680934508
tree,scaled,itself,val_EWU_sample_5pct,top_10,retweet,0.4015513598595829
tree,scaled,itself,val_EWU_sample_5pct,top_25,retweet,0.3450715632882184
tree,scaled,itself,val_EWU_sample_5pct,top_50,retweet,0.36729755853732377
tree,scaled,itself,val_EWU_sample_5pct,all,retweet,0.3686343211654925
tree,scaled,itself,val_EWU_sample_5pct,top_5,quote,0.5034074481318364
tree,scaled,itself,val_EWU_sample_5pct,top_10,quote,0.5034074481318364
tree,scaled,itself,val_EWU_sample_5pct,top_25,quote,0.5034074481318364
tree,scaled,itself,val_EWU_sample_5pct,top_50,quote,0.5034074481318364
tree,scaled,itself,val_EWU_sample_5pct,all,quote,0.4419161967862407
tree,scaled,itself,val_EWU_sample_5pct,top_5,react,0.7264180836310656
tree,scaled,itself,val_EWU_sample_5pct,top_10,react,0.7310922002141976
tree,scaled,itself,val_EWU_sample_5pct,top_25,react,0.7277449953044327
tree,scaled,itself,val_EWU_sample_5pct,top_50,react,0.7236487712129204
tree,scaled,itself,val_EWU_sample_5pct,all,react,0.7773239983246172
tree,scaled,itself,test_EWU_sample_5pct,top_5,like,0.6728335280991566
tree,scaled,itself,test_EWU_sample_5pct,top_10,like,0.6788548818698621
tree,scaled,itself,test_EWU_sample_5pct,top_25,like,0.6921699701246156
tree,scaled,itself,test_EWU_sample_5pct,top_50,like,0.645723568679214
tree,scaled,itself,test_EWU_sample_5pct,all,like,0.7327667063485834
tree,scaled,itself,test_EWU_sample_5pct,top_5,reply,0.5129734301026546
tree,scaled,itself,test_EWU_sample_5pct,top_10,reply,0.5129734301026546
tree,scaled,itself,test_EWU_sample_5pct,top_25,reply,0.5129734301026546
tree,scaled,itself,test_EWU_sample_5pct,top_50,reply,0.5129734301026546
tree,scaled,itself,test_EWU_sample_5pct,all,reply,0.5129734301026546
tree,scaled,itself,test_EWU_sample_5pct,top_5,retweet,0.5495627900545451
tree,scaled,itself,test_EWU_sample_5pct,top_10,retweet,0.30519819063963266
tree,scaled,itself,test_EWU_sample_5pct,top_25,retweet,0.33785630686714546
tree,scaled,itself,test_EWU_sample_5pct,top_50,retweet,0.3791269447107439
tree,scaled,itself,test_EWU_sample_5pct,all,retweet,0.36388824503950856
tree,scaled,itself,test_EWU_sample_5pct,top_5,quote,0.5033563928688615
tree,scaled,itself,test_EWU_sample_5pct,top_10,quote,0.5033563928688615
tree,scaled,itself,test_EWU_sample_5pct,top_25,quote,0.5033563928688615
tree,scaled,itself,test_EWU_sample_5pct,top_50,quote,0.5033563928688615
tree,scaled,itself,test_EWU_sample_5pct,all,quote,0.5039343895021243
tree,scaled,itself,test_EWU_sample_5pct,top_5,react,0.7291385990575454
tree,scaled,itself,test_EWU_sample_5pct,top_10,react,0.734905107915045
tree,scaled,itself,test_EWU_sample_5pct,top_25,react,0.7307367308375801
tree,scaled,itself,test_EWU_sample_5pct,top_50,react,0.7283298936427894
tree,scaled,itself,test_EWU_sample_5pct,all,react,0.7775448082918806
tree,scaled,itself,val+test_EWU_sample_5pct,top_5,like,0.6731353461023101
tree,scaled,itself,val+test_EWU_sample_5pct,top_10,like,0.6750538380781483
tree,scaled,itself,val+test_EWU_sample_5pct,top_25,like,0.6872374352732272
tree,scaled,itself,val+test_EWU_sample_5pct,top_50,like,0.6421146977392933
tree,scaled,itself,val+test_EWU_sample_5pct,all,like,0.7240256657149455
tree,scaled,itself,val+test_EWU_sample_5pct,top_5,reply,0.5129463035478277
tree,scaled,itself,val+test_EWU_sample_5pct,top_10,reply,0.5129463035478277
tree,scaled,itself,val+test_EWU_sample_5pct,top_25,reply,0.5129463035478277
tree,scaled,itself,val+test_EWU_sample_5pct,top_50,reply,0.5129463035478277
tree,scaled,itself,val+test_EWU_sample_5pct,all,reply,0.5129647875590782
tree,scaled,itself,val+test_EWU_sample_5pct,top_5,retweet,0.4019525678604313
tree,scaled,itself,val+test_EWU_sample_5pct,top_10,retweet,0.5495413520166263
tree,scaled,itself,val+test_EWU_sample_5pct,top_25,retweet,0.356101570765177
tree,scaled,itself,val+test_EWU_sample_5pct,top_50,retweet,0.36194911142218
tree,scaled,itself,val+test_EWU_sample_5pct,all,retweet,0.3644236853431321
tree,scaled,itself,val+test_EWU_sample_5pct,top_5,quote,0.5033817611886033
tree,scaled,itself,val+test_EWU_sample_5pct,top_10,quote,0.5033817611886033
tree,scaled,itself,val+test_EWU_sample_5pct,top_25,quote,0.5033817611886033
tree,scaled,itself,val+test_EWU_sample_5pct,top_50,quote,0.5033817611886033
tree,scaled,itself,val+test_EWU_sample_5pct,all,quote,0.5033817611886033
tree,scaled,itself,val+test_EWU_sample_5pct,top_5,react,0.7279556636403164
tree,scaled,itself,val+test_EWU_sample_5pct,top_10,react,0.7313215979881666
tree,scaled,itself,val+test_EWU_sample_5pct,top_25,react,0.728262752611536
tree,scaled,itself,val+test_EWU_sample_5pct,top_50,react,0.7431128382906158
tree,scaled,itself,val+test_EWU_sample_5pct,all,react,0.7701952738365678
tree,scaled,itself,val_EU_sample_5pct,top_5,like,0.6825234282558031
tree,scaled,itself,val_EU_sample_5pct,top_10,like,0.6745875594408021
tree,scaled,itself,val_EU_sample_5pct,top_25,like,0.6783206862929613
tree,scaled,itself,val_EU_sample_5pct,top_50,like,0.6764765271012281
tree,scaled,itself,val_EU_sample_5pct,all,like,0.6996906268915711
tree,scaled,itself,val_EU_sample_5pct,top_5,reply,0.5128275529020939
tree,scaled,itself,val_EU_sample_5pct,top_10,reply,0.5128275529020939
tree,scaled,itself,val_EU_sample_5pct,top_25,reply,0.5128275529020939
tree,scaled,itself,val_EU_sample_5pct,top_50,reply,0.5128275529020939
tree,scaled,itself,val_EU_sample_5pct,all,reply,0.5128275529020939
tree,scaled,itself,val_EU_sample_5pct,top_5,retweet,0.3078281541978106
tree,scaled,itself,val_EU_sample_5pct,top_10,retweet,0.5490474994304274
tree,scaled,itself,val_EU_sample_5pct,top_25,retweet,0.3447803806833434
tree,scaled,itself,val_EU_sample_5pct,top_50,retweet,0.32983309761424146
tree,scaled,itself,val_EU_sample_5pct,all,retweet,0.3577685956895611
tree,scaled,itself,val_EU_sample_5pct,top_5,quote,0.5034184089745163
tree,scaled,itself,val_EU_sample_5pct,top_10,quote,0.5034184089745163
tree,scaled,itself,val_EU_sample_5pct,top_25,quote,0.5034184089745163
tree,scaled,itself,val_EU_sample_5pct,top_50,quote,0.5034184089745163
tree,scaled,itself,val_EU_sample_5pct,all,quote,0.5035598449161356
tree,scaled,itself,val_EU_sample_5pct,top_5,react,0.7233645567492123
tree,scaled,itself,val_EU_sample_5pct,top_10,react,0.722229970778823
tree,scaled,itself,val_EU_sample_5pct,top_25,react,0.7392118945984216
tree,scaled,itself,val_EU_sample_5pct,top_50,react,0.7360659189322225
tree,scaled,itself,val_EU_sample_5pct,all,react,0.7366570329859095
tree,scaled,itself,test_EU_sample_5pct,top_5,like,0.6829422986065694
tree,scaled,itself,test_EU_sample_5pct,top_10,like,0.6717103358499745
tree,scaled,itself,test_EU_sample_5pct,top_25,like,0.6775840441405034
tree,scaled,itself,test_EU_sample_5pct,top_50,like,0.6770873714699988
tree,scaled,itself,test_EU_sample_5pct,all,like,0.6952146527502858
tree,scaled,itself,test_EU_sample_5pct,top_5,reply,0.5129840577446346
tree,scaled,itself,test_EU_sample_5pct,top_10,reply,0.5129840577446346
tree,scaled,itself,test_EU_sample_5pct,top_25,reply,0.5129840577446346
tree,scaled,itself,test_EU_sample_5pct,top_50,reply,0.5129840577446346
tree,scaled,itself,test_EU_sample_5pct,all,reply,0.5130563904257953
tree,scaled,itself,test_EU_sample_5pct,top_5,retweet,0.3128473714148667
tree,scaled,itself,test_EU_sample_5pct,top_10,retweet,0.5497908627562148
tree,scaled,itself,test_EU_sample_5pct,top_25,retweet,0.34843714113886
tree,scaled,itself,test_EU_sample_5pct,top_50,retweet,0.5497908627562148
tree,scaled,itself,test_EU_sample_5pct,all,retweet,0.36285170502512265
tree,scaled,itself,test_EU_sample_5pct,top_5,quote,0.5035545079969639
tree,scaled,itself,test_EU_sample_5pct,top_10,quote,0.5035545079969639
tree,scaled,itself,test_EU_sample_5pct,top_25,quote,0.5034142691574149
tree,scaled,itself,test_EU_sample_5pct,top_50,quote,0.5034142691574149
tree,scaled,itself,test_EU_sample_5pct,all,quote,0.5034142691574149
tree,scaled,itself,test_EU_sample_5pct,top_5,react,0.7230090945611204
tree,scaled,itself,test_EU_sample_5pct,top_10,react,0.7214768239225191
tree,scaled,itself,test_EU_sample_5pct,top_25,react,0.7401041544357252
tree,scaled,itself,test_EU_sample_5pct,top_50,react,0.736086703766976
tree,scaled,itself,test_EU_sample_5pct,all,react,0.7452271268756843
tree,scaled,itself,val+test_EU_sample_5pct,top_5,like,0.6807328475157367
tree,scaled,itself,val+test_EU_sample_5pct,top_10,like,0.6793785679792647
tree,scaled,itself,val+test_EU_sample_5pct,top_25,like,0.6797062036549935
tree,scaled,itself,val+test_EU_sample_5pct,top_50,like,0.6742321666760671
tree,scaled,itself,val+test_EU_sample_5pct,all,like,0.695536789336786
tree,scaled,itself,val+test_EU_sample_5pct,top_5,reply,0.5129061856289397
tree,scaled,itself,val+test_EU_sample_5pct,top_10,reply,0.5129061856289397
tree,scaled,itself,val+test_EU_sample_5pct,top_25,reply,0.5129061856289397
tree,scaled,itself,val+test_EU_sample_5pct,top_50,reply,0.5129061856289397
tree,scaled,itself,val+test_EU_sample_5pct,all,reply,0.5129061856289397
tree,scaled,itself,val+test_EU_sample_5pct,top_5,retweet,0.30953809483929945
tree,scaled,itself,val+test_EU_sample_5pct,top_10,retweet,0.5494209874605417
tree,scaled,itself,val+test_EU_sample_5pct,top_25,retweet,0.3448190409638369
tree,scaled,itself,val+test_EU_sample_5pct,top_50,retweet,0.3654905258001909
tree,scaled,itself,val+test_EU_sample_5pct,all,retweet,0.3577670164328858
tree,scaled,itself,val+test_EU_sample_5pct,top_5,quote,0.5034867464298086
tree,scaled,itself,val+test_EU_sample_5pct,top_10,quote,0.5034867464298086
tree,scaled,itself,val+test_EU_sample_5pct,top_25,quote,0.5034163290062417
tree,scaled,itself,val+test_EU_sample_5pct,top_50,quote,0.5034163290062417
tree,scaled,itself,val+test_EU_sample_5pct,all,quote,0.5034163290062417
tree,scaled,itself,val+test_EU_sample_5pct,top_5,react,0.7290623869333641
tree,scaled,itself,val+test_EU_sample_5pct,top_10,react,0.7221650538934209
tree,scaled,itself,val+test_EU_sample_5pct,top_25,react,0.7412876992208544
tree,scaled,itself,val+test_EU_sample_5pct,top_50,react,0.7360038934560189
tree,scaled,itself,val+test_EU_sample_5pct,all,react,0.7423086090139416
tree,scaled,itself,val_inter_EWU+EU_sample_5pct,top_5,like,0.6765751866845867
tree,scaled,itself,val_inter_EWU+EU_sample_5pct,top_10,like,0.6810374664497167
tree,scaled,itself,val_inter_EWU+EU_sample_5pct,top_25,like,0.6799082282512645
tree,scaled,itself,val_inter_EWU+EU_sample_5pct,top_50,like,0.6797579482092961
tree,scaled,itself,val_inter_EWU+EU_sample_5pct,all,like,0.683141476698349
tree,scaled,itself,val_inter_EWU+EU_sample_5pct,top_5,reply,0.5129256442954652
tree,scaled,itself,val_inter_EWU+EU_sample_5pct,top_10,reply,0.5128879945810256
tree,scaled,itself,val_inter_EWU+EU_sample_5pct,top_25,reply,0.5129256442954652
tree,scaled,itself,val_inter_EWU+EU_sample_5pct,top_50,reply,0.5128879945810256
tree,scaled,itself,val_inter_EWU+EU_sample_5pct,all,reply,0.3462966273432381
tree,scaled,itself,val_inter_EWU+EU_sample_5pct,top_5,retweet,0.5500288839473314
tree,scaled,itself,val_inter_EWU+EU_sample_5pct,top_10,retweet,0.3499161055279951
tree,scaled,itself,val_inter_EWU+EU_sample_5pct,top_25,retweet,0.31750308256945065
tree,scaled,itself,val_inter_EWU+EU_sample_5pct,top_50,retweet,0.3511318482334784
tree,scaled,itself,val_inter_EWU+EU_sample_5pct,all,retweet,0.3579371136944923
tree,scaled,itself,val_inter_EWU+EU_sample_5pct,top_5,quote,0.5033808821771526
tree,scaled,itself,val_inter_EWU+EU_sample_5pct,top_10,quote,0.5033808821771526
tree,scaled,itself,val_inter_EWU+EU_sample_5pct,top_25,quote,0.5033808821771526
tree,scaled,itself,val_inter_EWU+EU_sample_5pct,top_50,quote,0.5033808821771526
tree,scaled,itself,val_inter_EWU+EU_sample_5pct,all,quote,0.5036735275029174
tree,scaled,itself,val_inter_EWU+EU_sample_5pct,top_5,react,0.7287429138416335
tree,scaled,itself,val_inter_EWU+EU_sample_5pct,top_10,react,0.7283374374592534
tree,scaled,itself,val_inter_EWU+EU_sample_5pct,top_25,react,0.7271402650121721
tree,scaled,itself,val_inter_EWU+EU_sample_5pct,top_50,react,0.7268993866950023
tree,scaled,itself,val_inter_EWU+EU_sample_5pct,all,react,0.722024082863088
tree,scaled,itself,test_inter_EWU+EU_sample_5pct,top_5,like,0.6734402414341719
tree,scaled,itself,test_inter_EWU+EU_sample_5pct,top_10,like,0.6761885064029396
tree,scaled,itself,test_inter_EWU+EU_sample_5pct,top_25,like,0.6803637629991349
tree,scaled,itself,test_inter_EWU+EU_sample_5pct,top_50,like,0.6831495836562831
tree,scaled,itself,test_inter_EWU+EU_sample_5pct,all,like,0.6851424202745278
tree,scaled,itself,test_inter_EWU+EU_sample_5pct,top_5,reply,0.5126711894187125
tree,scaled,itself,test_inter_EWU+EU_sample_5pct,top_10,reply,0.5126711894187125
tree,scaled,itself,test_inter_EWU+EU_sample_5pct,top_25,reply,0.5126711894187125
tree,scaled,itself,test_inter_EWU+EU_sample_5pct,top_50,reply,0.5126711894187125
tree,scaled,itself,test_inter_EWU+EU_sample_5pct,all,reply,0.5126711894187125
tree,scaled,itself,test_inter_EWU+EU_sample_5pct,top_5,retweet,0.5494841134267168
tree,scaled,itself,test_inter_EWU+EU_sample_5pct,top_10,retweet,0.3829063164263959
tree,scaled,itself,test_inter_EWU+EU_sample_5pct,top_25,retweet,0.3677281403749771
tree,scaled,itself,test_inter_EWU+EU_sample_5pct,top_50,retweet,0.375056906247373
tree,scaled,itself,test_inter_EWU+EU_sample_5pct,all,retweet,0.3805755855901502
tree,scaled,itself,test_inter_EWU+EU_sample_5pct,top_5,quote,0.5034564888476744
tree,scaled,itself,test_inter_EWU+EU_sample_5pct,top_10,quote,0.5035967157641251
tree,scaled,itself,test_inter_EWU+EU_sample_5pct,top_25,quote,0.5034564888476744
tree,scaled,itself,test_inter_EWU+EU_sample_5pct,top_50,quote,0.5034564888476744
tree,scaled,itself,test_inter_EWU+EU_sample_5pct,all,quote,0.5034564888476744
tree,scaled,itself,test_inter_EWU+EU_sample_5pct,top_5,react,0.7206570700078727
tree,scaled,itself,test_inter_EWU+EU_sample_5pct,top_10,react,0.7210979315775434
tree,scaled,itself,test_inter_EWU+EU_sample_5pct,top_25,react,0.7267798941061191
tree,scaled,itself,test_inter_EWU+EU_sample_5pct,top_50,react,0.7196818700425018
tree,scaled,itself,test_inter_EWU+EU_sample_5pct,all,react,0.7242820510710436
tree,scaled,itself,val+test_inter_EWU+EU_sample_5pct,top_5,like,0.6743753500337257
tree,scaled,itself,val+test_inter_EWU+EU_sample_5pct,top_10,like,0.6757999864179951
tree,scaled,itself,val+test_inter_EWU+EU_sample_5pct,top_25,like,0.6817072754948194
tree,scaled,itself,val+test_inter_EWU+EU_sample_5pct,top_50,like,0.6811999508576425
tree,scaled,itself,val+test_inter_EWU+EU_sample_5pct,all,like,0.7037249945463213
tree,scaled,itself,val+test_inter_EWU+EU_sample_5pct,top_5,reply,0.5127784926515903
tree,scaled,itself,val+test_inter_EWU+EU_sample_5pct,top_10,reply,0.5127972905028712
tree,scaled,itself,val+test_inter_EWU+EU_sample_5pct,top_25,reply,0.5127972905028712
tree,scaled,itself,val+test_inter_EWU+EU_sample_5pct,top_50,reply,0.5127784926515903
tree,scaled,itself,val+test_inter_EWU+EU_sample_5pct,all,reply,0.5127784926515903
tree,scaled,itself,val+test_inter_EWU+EU_sample_5pct,top_5,retweet,0.3830915584667551
tree,scaled,itself,val+test_inter_EWU+EU_sample_5pct,top_10,retweet,0.4917793219653094
tree,scaled,itself,val+test_inter_EWU+EU_sample_5pct,top_25,retweet,0.4909927016189602
tree,scaled,itself,val+test_inter_EWU+EU_sample_5pct,top_50,retweet,0.362208077754709
tree,scaled,itself,val+test_inter_EWU+EU_sample_5pct,all,retweet,0.3685415536184743
tree,scaled,itself,val+test_inter_EWU+EU_sample_5pct,top_5,quote,0.5034190688891848
tree,scaled,itself,val+test_inter_EWU+EU_sample_5pct,top_10,quote,0.5034190688891848
tree,scaled,itself,val+test_inter_EWU+EU_sample_5pct,top_25,quote,0.5034190688891848
tree,scaled,itself,val+test_inter_EWU+EU_sample_5pct,top_50,quote,0.5034190688891848
tree,scaled,itself,val+test_inter_EWU+EU_sample_5pct,all,quote,0.5034190688891848
tree,scaled,itself,val+test_inter_EWU+EU_sample_5pct,top_5,react,0.7274926994493198
tree,scaled,itself,val+test_inter_EWU+EU_sample_5pct,top_10,react,0.7254660041847982
tree,scaled,itself,val+test_inter_EWU+EU_sample_5pct,top_25,react,0.7272232056522625
tree,scaled,itself,val+test_inter_EWU+EU_sample_5pct,top_50,react,0.7272411973682772
tree,scaled,itself,val+test_inter_EWU+EU_sample_5pct,all,react,0.7564003166524284
tree,scaled,itself,val_tweet_sample_5pct,top_5,like,0.6882549161076588
tree,scaled,itself,val_tweet_sample_5pct,top_10,like,0.7015384196122484
tree,scaled,itself,val_tweet_sample_5pct,top_25,like,0.7282855343851381
tree,scaled,itself,val_tweet_sample_5pct,top_50,like,0.726940950366076
tree,scaled,itself,val_tweet_sample_5pct,all,like,0.7479225407393507
tree,scaled,itself,val_tweet_sample_5pct,top_5,reply,0.512807691785906
tree,scaled,itself,val_tweet_sample_5pct,top_10,reply,0.512807691785906
tree,scaled,itself,val_tweet_sample_5pct,top_25,reply,0.512807691785906
tree,scaled,itself,val_tweet_sample_5pct,top_50,reply,0.512807691785906
tree,scaled,itself,val_tweet_sample_5pct,all,reply,0.512807691785906
tree,scaled,itself,val_tweet_sample_5pct,top_5,retweet,0.3193366855168297
tree,scaled,itself,val_tweet_sample_5pct,top_10,retweet,0.3133235605665993
tree,scaled,itself,val_tweet_sample_5pct,top_25,retweet,0.3946101789528049
tree,scaled,itself,val_tweet_sample_5pct,top_50,retweet,0.39078854918142425
tree,scaled,itself,val_tweet_sample_5pct,all,retweet,0.4094665989940372
tree,scaled,itself,val_tweet_sample_5pct,top_5,quote,0.5034042083108033
tree,scaled,itself,val_tweet_sample_5pct,top_10,quote,0.5034042083108033
tree,scaled,itself,val_tweet_sample_5pct,top_25,quote,0.5034042083108033
tree,scaled,itself,val_tweet_sample_5pct,top_50,quote,0.5034042083108033
tree,scaled,itself,val_tweet_sample_5pct,all,quote,0.5038282866982408
tree,scaled,itself,val_tweet_sample_5pct,top_5,react,0.7313425496834101
tree,scaled,itself,val_tweet_sample_5pct,top_10,react,0.7469700816137388
tree,scaled,itself,val_tweet_sample_5pct,top_25,react,0.7706199439712312
tree,scaled,itself,val_tweet_sample_5pct,top_50,react,0.7727337964136878
tree,scaled,itself,val_tweet_sample_5pct,all,react,0.7887177002624081
tree,scaled,itself,test_tweet_sample_5pct,top_5,like,0.6867439196966938
tree,scaled,itself,test_tweet_sample_5pct,top_10,like,0.7021968642794759
tree,scaled,itself,test_tweet_sample_5pct,top_25,like,0.7239674912527685
tree,scaled,itself,test_tweet_sample_5pct,top_50,like,0.7260042994158199
tree,scaled,itself,test_tweet_sample_5pct,all,like,0.747564149137889
tree,scaled,itself,test_tweet_sample_5pct,top_5,reply,0.5130799700411548
tree,scaled,itself,test_tweet_sample_5pct,top_10,reply,0.5130799700411548
tree,scaled,itself,test_tweet_sample_5pct,top_25,reply,0.5130799700411548
tree,scaled,itself,test_tweet_sample_5pct,top_50,reply,0.5130799700411548
tree,scaled,itself,test_tweet_sample_5pct,all,reply,0.5130799700411548
tree,scaled,itself,test_tweet_sample_5pct,top_5,retweet,0.4071704762580133
tree,scaled,itself,test_tweet_sample_5pct,top_10,retweet,0.4250884461561965
tree,scaled,itself,test_tweet_sample_5pct,top_25,retweet,0.3837287729860294
tree,scaled,itself,test_tweet_sample_5pct,top_50,retweet,0.3883485596096163
tree,scaled,itself,test_tweet_sample_5pct,all,retweet,0.4150864968671926
tree,scaled,itself,test_tweet_sample_5pct,top_5,quote,0.5034794341793362
tree,scaled,itself,test_tweet_sample_5pct,top_10,quote,0.5034794341793362
tree,scaled,itself,test_tweet_sample_5pct,top_25,quote,0.5036171652655556
tree,scaled,itself,test_tweet_sample_5pct,top_50,quote,0.5036171652655556
tree,scaled,itself,test_tweet_sample_5pct,all,quote,0.4345300223027125
tree,scaled,itself,test_tweet_sample_5pct,top_5,react,0.7323195795595141
tree,scaled,itself,test_tweet_sample_5pct,top_10,react,0.7655522610209292
tree,scaled,itself,test_tweet_sample_5pct,top_25,react,0.771170864472055
tree,scaled,itself,test_tweet_sample_5pct,top_50,react,0.7728322960231621
tree,scaled,itself,test_tweet_sample_5pct,all,react,0.7891248088154803
tree,scaled,itself,val+test_tweet_sample_5pct,top_5,like,0.6856120666838795
tree,scaled,itself,val+test_tweet_sample_5pct,top_10,like,0.6978580001075931
tree,scaled,itself,val+test_tweet_sample_5pct,top_25,like,0.7154110118309677
tree,scaled,itself,val+test_tweet_sample_5pct,top_50,like,0.7192520385575096
tree,scaled,itself,val+test_tweet_sample_5pct,all,like,0.7390484996177569
tree,scaled,itself,val+test_tweet_sample_5pct,top_5,reply,0.5129441027907503
tree,scaled,itself,val+test_tweet_sample_5pct,top_10,reply,0.5129441027907503
tree,scaled,itself,val+test_tweet_sample_5pct,top_25,reply,0.5129441027907503
tree,scaled,itself,val+test_tweet_sample_5pct,top_50,reply,0.5129441027907503
tree,scaled,itself,val+test_tweet_sample_5pct,all,reply,0.5129441027907503
tree,scaled,itself,val+test_tweet_sample_5pct,top_5,retweet,0.31320644515391804
tree,scaled,itself,val+test_tweet_sample_5pct,top_10,retweet,0.5498301295038892
tree,scaled,itself,val+test_tweet_sample_5pct,top_25,retweet,0.3934898742518316
tree,scaled,itself,val+test_tweet_sample_5pct,top_50,retweet,0.3875008877769565
tree,scaled,itself,val+test_tweet_sample_5pct,all,retweet,0.3991782433312679
tree,scaled,itself,val+test_tweet_sample_5pct,top_5,quote,0.5034418963601389
tree,scaled,itself,val+test_tweet_sample_5pct,top_10,quote,0.5034418963601389
tree,scaled,itself,val+test_tweet_sample_5pct,top_25,quote,0.5034418963601389
tree,scaled,itself,val+test_tweet_sample_5pct,top_50,quote,0.5034418963601389
tree,scaled,itself,val+test_tweet_sample_5pct,all,quote,0.5044883098968906
tree,scaled,itself,val+test_tweet_sample_5pct,top_5,react,0.7308007662356273
tree,scaled,itself,val+test_tweet_sample_5pct,top_10,react,0.7453869270711899
tree,scaled,itself,val+test_tweet_sample_5pct,top_25,react,0.7682480352496066
tree,scaled,itself,val+test_tweet_sample_5pct,top_50,react,0.7711221495252559
tree,scaled,itself,val+test_tweet_sample_5pct,all,react,0.7800996975236377
tree,scaled,itself,val_random_sample_10pct,top_5,like,0.6856863052353017
tree,scaled,itself,val_random_sample_10pct,top_5,reply,0.5130081696404677
tree,scaled,itself,val_random_sample_10pct,top_10,like,0.6957765670150573
tree,scaled,itself,val_random_sample_10pct,top_25,like,0.7225472605130816
tree,scaled,itself,val_random_sample_10pct,top_50,like,0.7261522615827156
tree,scaled,itself,val_random_sample_10pct,all,like,0.7421661035213609
tree,scaled,itself,val_random_sample_10pct,top_10,reply,0.5130081696404677
tree,scaled,itself,val_random_sample_10pct,top_25,reply,0.5130263858382069
tree,scaled,itself,val_random_sample_10pct,top_50,reply,0.513044602035946
tree,scaled,itself,val_random_sample_10pct,all,reply,0.5130081696404677
tree,scaled,itself,val_random_sample_10pct,top_5,retweet,0.5497029737942069
tree,scaled,itself,val_random_sample_10pct,top_10,retweet,0.5496985650822073
tree,scaled,itself,val_random_sample_10pct,top_25,retweet,0.40273671276234096
tree,scaled,itself,val_random_sample_10pct,top_50,retweet,0.4132125716128847
tree,scaled,itself,val_random_sample_10pct,all,retweet,0.43156951921335823
tree,scaled,itself,val_random_sample_10pct,top_5,quote,0.5034201550236721
tree,scaled,itself,val_random_sample_10pct,top_10,quote,0.5034908023198701
tree,scaled,itself,val_random_sample_10pct,top_25,quote,0.5034908023198701
tree,scaled,itself,val_random_sample_10pct,top_50,quote,0.5034201550236721
tree,scaled,itself,val_random_sample_10pct,all,quote,0.5035614496160682
tree,scaled,itself,val_random_sample_10pct,top_5,react,0.7318432543145205
tree,scaled,itself,val_random_sample_10pct,top_10,react,0.7444554474260223
tree,scaled,itself,val_random_sample_10pct,top_25,react,0.771668652553364
tree,scaled,itself,val_random_sample_10pct,top_50,react,0.7731863944957017
tree,scaled,itself,val_random_sample_10pct,all,react,0.7826265446236633
tree,scaled,itself,test_random_sample_10pct,top_5,like,0.6831939105006681
tree,scaled,itself,test_random_sample_10pct,top_10,like,0.6959577590698968
tree,scaled,itself,test_random_sample_10pct,top_25,like,0.7232971988106462
tree,scaled,itself,test_random_sample_10pct,top_50,like,0.7270883192612444
tree,scaled,itself,test_random_sample_10pct,top_5,reply,0.5129382102327593
tree,scaled,itself,test_random_sample_10pct,top_10,reply,0.5129382102327593
tree,scaled,itself,test_random_sample_10pct,top_25,reply,0.5129563862147636
tree,scaled,itself,test_random_sample_10pct,top_50,reply,0.5129563862147636
tree,scaled,itself,test_random_sample_10pct,top_5,retweet,0.5497631269940594
tree,scaled,itself,test_random_sample_10pct,top_10,retweet,0.5497631269940594
tree,scaled,itself,test_random_sample_10pct,top_25,retweet,0.39328335942114856
tree,scaled,itself,test_random_sample_10pct,top_50,retweet,0.4182260422141391
tree,scaled,itself,test_random_sample_10pct,top_5,quote,0.503431423671464
tree,scaled,itself,test_random_sample_10pct,top_10,quote,0.503431423671464
tree,scaled,itself,test_random_sample_10pct,top_25,quote,0.503431423671464
tree,scaled,itself,test_random_sample_10pct,top_50,quote,0.503431423671464
tree,scaled,itself,test_random_sample_10pct,top_5,react,0.7308230881109441
tree,scaled,itself,test_random_sample_10pct,top_10,react,0.7444720478465653
tree,scaled,itself,test_random_sample_10pct,top_25,react,0.7719054140178674
tree,scaled,itself,test_random_sample_10pct,all,like,0.7398726160638808
tree,scaled,itself,test_random_sample_10pct,all,reply,0.5129382102327593
tree,scaled,itself,test_random_sample_10pct,all,retweet,0.4370018357105225
tree,scaled,itself,test_random_sample_10pct,all,quote,0.503431423671464
tree,scaled,itself,test_random_sample_10pct,top_50,react,0.7728887500994357
tree,scaled,itself,test_random_sample_10pct,all,react,0.7817393710083661
tree,scaled,itself,val+test_random_sample_10pct,top_5,like,0.6822206636990931
tree,scaled,itself,val+test_random_sample_10pct,top_10,like,0.6932472315011514
tree,scaled,itself,val+test_random_sample_10pct,top_25,like,0.7179519382049019
tree,scaled,itself,val+test_random_sample_10pct,top_50,like,0.7208258423790264
tree,scaled,itself,val+test_random_sample_10pct,top_5,reply,0.5129730544538211
tree,scaled,itself,val+test_random_sample_10pct,top_10,reply,0.5129730544538211
tree,scaled,itself,val+test_random_sample_10pct,top_25,reply,0.5129730544538211
tree,scaled,itself,val+test_random_sample_10pct,top_50,reply,0.5129730544538211
tree,scaled,itself,val+test_random_sample_10pct,top_5,retweet,0.5497309710681813
tree,scaled,itself,val+test_random_sample_10pct,top_10,retweet,0.5497309710681813
tree,scaled,itself,val+test_random_sample_10pct,top_25,retweet,0.3957749908284191
tree,scaled,itself,val+test_random_sample_10pct,top_50,retweet,0.4169631321034757
tree,scaled,itself,val+test_random_sample_10pct,top_5,quote,0.5034258111703352
tree,scaled,itself,val+test_random_sample_10pct,top_10,quote,0.5034258111703352
tree,scaled,itself,val+test_random_sample_10pct,top_25,quote,0.5034609395085377
tree,scaled,itself,val+test_random_sample_10pct,top_50,quote,0.5034258111703352
tree,scaled,itself,val+test_random_sample_10pct,top_5,react,0.7316080093418098
tree,scaled,itself,val+test_random_sample_10pct,top_10,react,0.7418461406055741
tree,scaled,itself,val+test_random_sample_10pct,top_25,react,0.7673359098966128
tree,scaled,itself,val+test_random_sample_10pct,top_50,react,0.7688800746891699
tree,scaled,itself,val+test_random_sample_10pct,all,like,0.7347732851215238
tree,scaled,itself,val+test_random_sample_10pct,all,reply,0.5129730544538211
tree,scaled,itself,val+test_random_sample_10pct,all,retweet,0.4338194629899527
tree,scaled,itself,val+test_random_sample_10pct,all,quote,0.5034258111703352
tree,scaled,itself,val+test_random_sample_10pct,all,react,0.7764922565395924
tree,scaled,itself,val_EWU_sample_10pct,top_5,like,0.6767777708601018
tree,scaled,itself,val_EWU_sample_10pct,top_10,like,0.6788437001285943
tree,scaled,itself,val_EWU_sample_10pct,top_25,like,0.6918546240900529
tree,scaled,itself,val_EWU_sample_10pct,top_50,like,0.6956462047037446
tree,scaled,itself,val_EWU_sample_10pct,all,like,0.7277762652342277
tree,scaled,itself,val_EWU_sample_10pct,top_5,reply,0.5128923372585534
tree,scaled,itself,val_EWU_sample_10pct,top_10,reply,0.5128923372585534
tree,scaled,itself,val_EWU_sample_10pct,top_25,reply,0.5128739766229431
tree,scaled,itself,val_EWU_sample_10pct,top_50,reply,0.5128923372585534
tree,scaled,itself,val_EWU_sample_10pct,all,reply,0.5128739766229431
tree,scaled,itself,val_EWU_sample_10pct,top_5,retweet,0.35812720766918177
tree,scaled,itself,val_EWU_sample_10pct,top_10,retweet,0.5503526744641949
tree,scaled,itself,val_EWU_sample_10pct,top_25,retweet,0.3915051059990513
tree,scaled,itself,val_EWU_sample_10pct,top_50,retweet,0.4028772767506353
tree,scaled,itself,val_EWU_sample_10pct,all,retweet,0.4118997950040921
tree,scaled,itself,val_EWU_sample_10pct,top_5,quote,0.5033743784039783
tree,scaled,itself,val_EWU_sample_10pct,top_10,quote,0.5033743784039783
tree,scaled,itself,val_EWU_sample_10pct,top_25,quote,0.5033743784039783
tree,scaled,itself,val_EWU_sample_10pct,top_50,quote,0.5034457942253179
tree,scaled,itself,val_EWU_sample_10pct,all,quote,0.5033743784039783
tree,scaled,itself,val_EWU_sample_10pct,top_5,react,0.729565252977048
tree,scaled,itself,val_EWU_sample_10pct,top_10,react,0.7346257424666491
tree,scaled,itself,val_EWU_sample_10pct,top_25,react,0.7488377658652492
tree,scaled,itself,val_EWU_sample_10pct,top_50,react,0.7509109420136569
tree,scaled,itself,val_EWU_sample_10pct,all,react,0.7726373222178368
tree,scaled,itself,test_EWU_sample_10pct,top_5,like,0.6793630953172128
tree,scaled,itself,test_EWU_sample_10pct,top_10,like,0.6839645140303525
tree,scaled,itself,test_EWU_sample_10pct,top_5,reply,0.5129613052779557
tree,scaled,itself,test_EWU_sample_10pct,top_10,reply,0.5129613052779557
tree,scaled,itself,test_EWU_sample_10pct,top_5,retweet,0.3846518420098169
tree,scaled,itself,test_EWU_sample_10pct,top_10,retweet,0.5504192264974168
tree,scaled,itself,test_EWU_sample_10pct,top_5,quote,0.5034305915948976
tree,scaled,itself,test_EWU_sample_10pct,top_10,quote,0.5034305915948976
tree,scaled,itself,test_EWU_sample_10pct,top_5,react,0.7342179399619441
tree,scaled,itself,test_EWU_sample_10pct,top_25,like,0.696755212603791
tree,scaled,itself,test_EWU_sample_10pct,top_50,like,0.6977280688223901
tree,scaled,itself,test_EWU_sample_10pct,all,like,0.7299887241725302
tree,scaled,itself,test_EWU_sample_10pct,top_25,reply,0.5129613052779557
tree,scaled,itself,test_EWU_sample_10pct,top_50,reply,0.5129613052779557
tree,scaled,itself,test_EWU_sample_10pct,all,reply,0.5129613052779557
tree,scaled,itself,test_EWU_sample_10pct,top_25,retweet,0.3892217729042234
tree,scaled,itself,test_EWU_sample_10pct,top_50,retweet,0.3832113736460135
tree,scaled,itself,test_EWU_sample_10pct,all,retweet,0.3838358726685952
tree,scaled,itself,test_EWU_sample_10pct,top_25,quote,0.5034305915948976
tree,scaled,itself,test_EWU_sample_10pct,top_50,quote,0.5034305915948976
tree,scaled,itself,test_EWU_sample_10pct,all,quote,0.5036964684867796
tree,scaled,itself,test_EWU_sample_10pct,top_10,react,0.7387842264520901
tree,scaled,itself,test_EWU_sample_10pct,top_25,react,0.7516049994544477
tree,scaled,itself,test_EWU_sample_10pct,top_50,react,0.7531759564860153
tree,scaled,itself,test_EWU_sample_10pct,all,react,0.7756649320486335
tree,scaled,itself,val+test_EWU_sample_10pct,top_5,like,0.6759674510745829
tree,scaled,itself,val+test_EWU_sample_10pct,top_10,like,0.6789125294452353
tree,scaled,itself,val+test_EWU_sample_10pct,top_25,like,0.6904806854961625
tree,scaled,itself,val+test_EWU_sample_10pct,top_50,like,0.6933391064238611
tree,scaled,itself,val+test_EWU_sample_10pct,top_5,reply,0.5129156371154442
tree,scaled,itself,val+test_EWU_sample_10pct,top_10,reply,0.5129156371154442
tree,scaled,itself,val+test_EWU_sample_10pct,top_25,reply,0.5129156371154442
tree,scaled,itself,val+test_EWU_sample_10pct,top_50,reply,0.5129265207093774
tree,scaled,itself,val+test_EWU_sample_10pct,top_5,retweet,0.3508448424340132
tree,scaled,itself,val+test_EWU_sample_10pct,top_10,retweet,0.5503168449298174
tree,scaled,itself,val+test_EWU_sample_10pct,top_25,retweet,0.3904661793497866
tree,scaled,itself,val+test_EWU_sample_10pct,top_50,retweet,0.3874299221267035
tree,scaled,itself,val+test_EWU_sample_10pct,top_5,quote,0.5034100006291301
tree,scaled,itself,val+test_EWU_sample_10pct,top_10,quote,0.5034100006291301
tree,scaled,itself,val+test_EWU_sample_10pct,top_25,quote,0.5034100006291301
tree,scaled,itself,val+test_EWU_sample_10pct,top_50,quote,0.5034100006291301
tree,scaled,itself,val+test_EWU_sample_10pct,top_5,react,0.731704401333872
tree,scaled,itself,val+test_EWU_sample_10pct,top_10,react,0.7349799841417965
tree,scaled,itself,val+test_EWU_sample_10pct,top_25,react,0.7466472423932293
tree,scaled,itself,val+test_EWU_sample_10pct,top_50,react,0.7484866636193628
tree,scaled,itself,val+test_EWU_sample_10pct,all,like,0.7242319959154827
tree,scaled,itself,val+test_EWU_sample_10pct,all,reply,0.5129156371154442
tree,scaled,itself,val+test_EWU_sample_10pct,all,retweet,0.3893777434653777
tree,scaled,itself,val+test_EWU_sample_10pct,all,quote,0.5034100006291301
tree,scaled,itself,val+test_EWU_sample_10pct,all,react,0.7697294493799636
tree,scaled,itself,val_EU_sample_10pct,top_5,like,0.6837110278992444
tree,scaled,itself,val_EU_sample_10pct,top_10,like,0.696134831312046
tree,scaled,itself,val_EU_sample_10pct,top_25,like,0.7169132257206758
tree,scaled,itself,val_EU_sample_10pct,top_50,like,0.7167493570866132
tree,scaled,itself,val_EU_sample_10pct,all,like,0.7233867271872112
tree,scaled,itself,val_EU_sample_10pct,top_5,reply,0.512947625191164
tree,scaled,itself,val_EU_sample_10pct,top_10,reply,0.512947625191164
tree,scaled,itself,val_EU_sample_10pct,top_25,reply,0.512947625191164
tree,scaled,itself,val_EU_sample_10pct,top_50,reply,0.512947625191164
tree,scaled,itself,val_EU_sample_10pct,all,reply,0.512947625191164
tree,scaled,itself,val_EU_sample_10pct,top_5,retweet,0.5499641734568579
tree,scaled,itself,val_EU_sample_10pct,top_10,retweet,0.5499641734568579
tree,scaled,itself,val_EU_sample_10pct,top_25,retweet,0.3599556251255523
tree,scaled,itself,val_EU_sample_10pct,top_50,retweet,0.36935503311041584
tree,scaled,itself,val_EU_sample_10pct,all,retweet,0.3657367508294216
tree,scaled,itself,val_EU_sample_10pct,top_5,quote,0.5035680709180831
tree,scaled,itself,val_EU_sample_10pct,top_10,quote,0.5035680709180831
tree,scaled,itself,val_EU_sample_10pct,top_25,quote,0.5035680709180831
tree,scaled,itself,val_EU_sample_10pct,top_50,quote,0.5035680709180831
tree,scaled,itself,val_EU_sample_10pct,all,quote,0.5035680709180831
tree,scaled,itself,val_EU_sample_10pct,top_5,react,0.731366452126019
tree,scaled,itself,val_EU_sample_10pct,top_10,react,0.7441181526563363
tree,scaled,itself,val_EU_sample_10pct,top_25,react,0.7646442742737158
tree,scaled,itself,val_EU_sample_10pct,top_50,react,0.7664192958291048
tree,scaled,itself,val_EU_sample_10pct,all,react,0.7724659829978915
tree,scaled,itself,test_EU_sample_10pct,top_5,like,0.6820062903839152
tree,scaled,itself,test_EU_sample_10pct,top_10,like,0.6946200996230761
tree,scaled,itself,test_EU_sample_10pct,top_25,like,0.7137809903512387
tree,scaled,itself,test_EU_sample_10pct,top_50,like,0.7165458692761442
tree,scaled,itself,test_EU_sample_10pct,top_5,reply,0.5129193083406324
tree,scaled,itself,test_EU_sample_10pct,top_10,reply,0.5129193083406324
tree,scaled,itself,test_EU_sample_10pct,top_25,reply,0.5129193083406324
tree,scaled,itself,test_EU_sample_10pct,top_50,reply,0.5129193083406324
tree,scaled,itself,test_EU_sample_10pct,top_5,retweet,0.5497519291712346
tree,scaled,itself,test_EU_sample_10pct,top_10,retweet,0.5497519291712346
tree,scaled,itself,test_EU_sample_10pct,top_25,retweet,0.3422995598635464
tree,scaled,itself,test_EU_sample_10pct,top_50,retweet,0.36995028136382296
tree,scaled,itself,test_EU_sample_10pct,top_5,quote,0.5034866229304068
tree,scaled,itself,test_EU_sample_10pct,top_10,quote,0.5034866229304068
tree,scaled,itself,test_EU_sample_10pct,top_25,quote,0.5034866229304068
tree,scaled,itself,test_EU_sample_10pct,top_50,quote,0.5034866229304068
tree,scaled,itself,test_EU_sample_10pct,top_5,react,0.7304320730963438
tree,scaled,itself,test_EU_sample_10pct,top_10,react,0.7432207739960646
tree,scaled,itself,test_EU_sample_10pct,top_25,react,0.7637429581651866
tree,scaled,itself,test_EU_sample_10pct,top_50,react,0.7650343549150056
tree,scaled,itself,test_EU_sample_10pct,all,like,0.7241623025860229
tree,scaled,itself,test_EU_sample_10pct,all,reply,0.5129193083406324
tree,scaled,itself,test_EU_sample_10pct,all,retweet,0.3515648452275403
tree,scaled,itself,test_EU_sample_10pct,all,quote,0.5034866229304068
tree,scaled,itself,test_EU_sample_10pct,all,react,0.7718168889839555
tree,scaled,itself,val+test_EU_sample_10pct,top_5,like,0.6827068604946379
tree,scaled,itself,val+test_EU_sample_10pct,top_10,like,0.6928801703372116
tree,scaled,itself,val+test_EU_sample_10pct,top_25,like,0.7088063180382425
tree,scaled,itself,val+test_EU_sample_10pct,top_50,like,0.7113512349346384
tree,scaled,itself,val+test_EU_sample_10pct,top_5,reply,0.512933426856408
tree,scaled,itself,val+test_EU_sample_10pct,top_10,reply,0.512933426856408
tree,scaled,itself,val+test_EU_sample_10pct,top_25,reply,0.512933426856408
tree,scaled,itself,val+test_EU_sample_10pct,top_50,reply,0.512933426856408
tree,scaled,itself,val+test_EU_sample_10pct,top_5,retweet,0.5498577521790408
tree,scaled,itself,val+test_EU_sample_10pct,top_10,retweet,0.5498577521790408
tree,scaled,itself,val+test_EU_sample_10pct,top_25,retweet,0.34495417969347
tree,scaled,itself,val+test_EU_sample_10pct,top_50,retweet,0.3781913694816033
tree,scaled,itself,val+test_EU_sample_10pct,top_5,quote,0.5035272321322534
tree,scaled,itself,val+test_EU_sample_10pct,top_10,quote,0.5035272321322534
tree,scaled,itself,val+test_EU_sample_10pct,top_25,quote,0.5035272321322534
tree,scaled,itself,val+test_EU_sample_10pct,top_50,quote,0.5035272321322534
tree,scaled,itself,val+test_EU_sample_10pct,top_5,react,0.7309767423474296
tree,scaled,itself,val+test_EU_sample_10pct,top_10,react,0.7417299718459899
tree,scaled,itself,val+test_EU_sample_10pct,top_25,react,0.7602166903524528
tree,scaled,itself,val+test_EU_sample_10pct,top_50,react,0.7627140190973022
tree,scaled,itself,val+test_EU_sample_10pct,all,like,0.7196234138417652
tree,scaled,itself,val+test_EU_sample_10pct,all,reply,0.512933426856408
tree,scaled,itself,val+test_EU_sample_10pct,all,retweet,0.3796438827057641
tree,scaled,itself,val+test_EU_sample_10pct,all,quote,0.5035272321322534
tree,scaled,itself,val+test_EU_sample_10pct,all,react,0.7691938278420363
