algorithm,note,trained_on,sample,feature_selection,target,evaluation
GradientBoosting,scaled,itself,val_random_sample_1pct,top_5,like,-1656.471229734931
GradientBoosting,scaled,itself,val_random_sample_1pct,top_10,like,-1621.245755688503
GradientBoosting,scaled,itself,val_random_sample_1pct,top_5,reply,-643.8945397827638
GradientBoosting,scaled,itself,val_random_sample_1pct,top_10,reply,-643.8945397827638
GradientBoosting,scaled,itself,val_random_sample_1pct,top_5,retweet,-957.8836562431896
GradientBoosting,scaled,itself,val_random_sample_1pct,top_5,quote,-474.4591065367147
GradientBoosting,scaled,itself,val_random_sample_1pct,top_5,react,-1652.728500882764
GradientBoosting,scaled,itself,val_random_sample_1pct,top_25,like,-1534.1254950868952
GradientBoosting,scaled,itself,val_random_sample_1pct,top_25,reply,-643.8945397827638
GradientBoosting,scaled,itself,val_random_sample_1pct,top_10,retweet,-958.513086966194
GradientBoosting,scaled,itself,val_random_sample_1pct,top_25,retweet,-944.8753986334616
GradientBoosting,scaled,itself,val_random_sample_1pct,top_10,quote,-474.4591065367147
GradientBoosting,scaled,itself,val_random_sample_1pct,top_10,react,-1610.8915069140305
GradientBoosting,scaled,itself,val_random_sample_1pct,top_50,like,-1532.7334520733145
GradientBoosting,scaled,itself,val_random_sample_1pct,top_50,reply,-643.8945397827638
GradientBoosting,scaled,itself,val_random_sample_1pct,top_50,retweet,-932.6014861771613
GradientBoosting,scaled,itself,val_random_sample_1pct,top_25,quote,-474.4591065367147
GradientBoosting,scaled,itself,val_random_sample_1pct,top_25,react,-1530.3945681956882
GradientBoosting,scaled,itself,val_random_sample_1pct,all,like,-1490.8371780949021
GradientBoosting,scaled,itself,val_random_sample_1pct,all,reply,-643.8945397827638
GradientBoosting,scaled,itself,val_random_sample_1pct,all,retweet,-921.1669693105457
GradientBoosting,scaled,itself,val_random_sample_1pct,top_50,quote,-474.4591065367147
GradientBoosting,scaled,itself,val_random_sample_1pct,top_50,react,-1523.894294575
GradientBoosting,scaled,itself,val_random_sample_1pct,all,quote,-474.4591065367147
GradientBoosting,scaled,itself,val_random_sample_1pct,all,react,-1480.0547806244845
GradientBoosting,scaled,itself,test_random_sample_1pct,top_5,like,-1652.9264183476441
GradientBoosting,scaled,itself,test_random_sample_1pct,top_5,reply,-648.0789218708056
GradientBoosting,scaled,itself,test_random_sample_1pct,top_5,retweet,-960.7749191964548
GradientBoosting,scaled,itself,test_random_sample_1pct,top_5,quote,-475.2802410120072
GradientBoosting,scaled,itself,test_random_sample_1pct,top_10,like,-1637.4140712003036
GradientBoosting,scaled,itself,test_random_sample_1pct,top_10,reply,-648.0789218708056
GradientBoosting,scaled,itself,test_random_sample_1pct,top_10,retweet,-953.2085846494183
GradientBoosting,scaled,itself,test_random_sample_1pct,top_10,quote,-475.2802410120072
GradientBoosting,scaled,itself,test_random_sample_1pct,top_5,react,-1664.832428607594
GradientBoosting,scaled,itself,test_random_sample_1pct,top_10,react,-1622.2950327882138
GradientBoosting,scaled,itself,test_random_sample_1pct,top_25,like,-1553.6718720973072
GradientBoosting,scaled,itself,test_random_sample_1pct,top_50,like,-1546.1141743953806
GradientBoosting,scaled,itself,test_random_sample_1pct,top_25,reply,-647.255650863611
GradientBoosting,scaled,itself,test_random_sample_1pct,top_25,retweet,-941.3926294774872
GradientBoosting,scaled,itself,test_random_sample_1pct,top_25,quote,-475.2802410120072
GradientBoosting,scaled,itself,test_random_sample_1pct,top_25,react,-1549.9783564692368
GradientBoosting,scaled,itself,test_random_sample_1pct,top_50,reply,-648.0789218708056
GradientBoosting,scaled,itself,test_random_sample_1pct,top_50,retweet,-933.411278857973
