algorithm,note,trained_on,sample,feature_selection,like,reply,retweet,quote,react
bayes,scaled,train,train_random_sample_10pct,top_25,-1979.1378410137568,-7054.033254080051,-2434.046830295524,-6847.69086453497,-1866.3273741077564
bayes,scaled,train,train_random_sample_10pct,top_50,-2012.2010964262674,-12797.281139328941,-3059.5478639436737,-13758.861039900488,-1886.4654233751266
bayes,scaled,train,train_random_sample_10pct,all,-1896.8616341945,-13646.577222940672,-3812.4643966736458,-30174.06919027163,-1828.879296270724
bayes,scaled,train,val_random_sample_10pct,top_5,-1990.0678538148647,-824.6139079356852,-1228.7683512575481,-477.42722822751404,-2112.284421753948
bayes,scaled,train,val_random_sample_10pct,top_10,-2187.6427116897967,-993.4712105178846,-1213.226612878602,-477.42722822751404,-2056.5654969234947
bayes,scaled,train,val_random_sample_10pct,top_25,-1941.318954107775,-7495.825749854906,-1505.0994920881344,-3348.4476256684784,-1934.4028625753647
bayes,scaled,train,val_random_sample_10pct,top_50,-1957.6966387671466,-15639.121913765874,-1949.7534722820426,-8243.015859009089,-1910.223348995286
bayes,scaled,train,val_random_sample_10pct,all,-1979.1770279836428,-15486.874344787066,-4234.7774007773,-36654.51121290431,-1907.5931301387368
bayes,scaled,train,test_random_sample_10pct,top_5,-2008.6303763928427,-814.0782871137801,-1218.448189991688,-477.74603746285624,-2118.136348822667
bayes,scaled,train,test_random_sample_10pct,top_10,-2174.706385879835,-975.6753312666817,-1207.6408043886315,-477.74603746285624,-2047.751653577997
bayes,scaled,train,test_random_sample_10pct,top_25,-1926.7889883702007,-7095.644031826093,-1372.8747915643767,-2466.6960129148997,-1938.8654814209976
bayes,scaled,train,test_random_sample_10pct,top_50,-1945.092220065757,-15307.706230681419,-1595.0172980864081,-5484.264249604713,-1909.6597177130616
bayes,scaled,train,test_random_sample_10pct,all,-1971.4096964983053,-15405.402799277776,-4134.971033268637,-35683.68208663029,-1901.0454166404093
bayes,scaled,train,val+test_random_sample_10pct,top_5,-1986.199863961712,-824.2601206769441,-1216.7323279158036,-477.58733688684686,-2108.8932344971045
bayes,scaled,train,val+test_random_sample_10pct,top_10,-2157.46284118886,-960.1867079609738,-1202.1311087287932,-477.58733688684686,-2055.5220918247505
bayes,scaled,train,val+test_random_sample_10pct,top_25,-1936.6883489933907,-7569.509868586003,-1469.5638617439738,-2660.384426177969,-1907.1874192888488
bayes,scaled,train,val+test_random_sample_10pct,top_50,-1947.4848257997155,-14938.97297894036,-1742.1744930832958,-6497.32782143565,-1901.2363042919865
bayes,scaled,train,val+test_random_sample_10pct,all,-1976.697011640981,-15224.012145992207,-4249.943585357331,-35976.094150307435,-1901.2025629054453
bayes,scaled,train,train_EWU_sample_10pct,top_5,-2059.2610351319768,-1252.7194684629312,-1306.3520406616851,-492.7414239571757,-2133.0113290427757
bayes,scaled,train,train_EWU_sample_10pct,top_10,-2145.781231255587,-2089.9644755652066,-1309.5121267423492,-492.7414239571757,-2059.640168689646
bayes,scaled,train,train_EWU_sample_10pct,top_25,-1840.7668946816682,-8305.434223046841,-2616.490381719545,-9994.060437260978,-1727.8173926247684
bayes,scaled,train,train_EWU_sample_10pct,top_50,-1854.3921199609736,-12060.352869310196,-3294.1527949193955,-22900.08397331061,-1753.354339643504
bayes,scaled,train,train_EWU_sample_10pct,all,-1712.4815447665692,-656.9293209531155,-3360.752363027696,-492.7414239571757,-1678.8796036410424
bayes,scaled,train,val_EWU_sample_10pct,top_5,-2089.94948656858,-1324.782062558384,-1386.704271464252,-476.1249396851381,-2120.708157982976
bayes,scaled,train,val_EWU_sample_10pct,top_10,-2016.7388802825296,-872.4503808414515,-1373.907461970777,-476.1249396851381,-2161.571422234708
bayes,scaled,train,val_EWU_sample_10pct,top_25,-1957.7857379151865,-2484.0786127481783,-5179.638978133895,-29566.391920601807,-2162.624786982271
bayes,scaled,train,val_EWU_sample_10pct,top_50,-1975.230646156516,-871.3017252461336,-3684.933008906498,-21582.97280067189,-2251.8556116837017
bayes,scaled,train,val_EWU_sample_10pct,all,-1906.649224497794,-643.3426016843367,-3561.537713516337,-476.1249396851381,-2165.8635338256227
bayes,scaled,train,test_EWU_sample_10pct,top_5,-2046.1277614572964,-1394.9817737450187,-1393.7075821502801,-477.7225202808819,-2176.137207684956
bayes,scaled,train,test_EWU_sample_10pct,top_10,-2028.6754946881408,-891.8775316630382,-1379.0626702205932,-477.7225202808819,-2138.695062677262
bayes,scaled,train,test_EWU_sample_10pct,top_25,-1975.8648583152687,-2648.030645417009,-4949.063795293911,-28059.84885125644,-2186.855153827698
bayes,scaled,train,test_EWU_sample_10pct,top_50,-2002.7766057571234,-793.4089842816885,-3365.4641041617024,-19724.282332357987,-2290.8077920577884
bayes,scaled,train,test_EWU_sample_10pct,all,-1925.3679516061584,-644.43998503402,-3476.0162031199247,-477.7225202808819,-2190.648164522189
bayes,scaled,train,val+test_EWU_sample_10pct,top_5,-2090.76036815205,-1354.275147484464,-1387.7890479469586,-477.139347805658,-2125.6518345700983
bayes,scaled,train,val+test_EWU_sample_10pct,top_10,-2023.160613813333,-879.3452776305472,-1372.2121589652984,-477.139347805658,-2160.756803386769
bayes,scaled,train,val+test_EWU_sample_10pct,top_25,-1966.445504662305,-1880.3337027744005,-5045.357394616972,-27241.33240165326,-2161.7742592683976
bayes,scaled,train,val+test_EWU_sample_10pct,top_50,-1982.0046294349315,-792.5804111798752,-3676.7435074441632,-19628.932636899488,-2260.811324329064
bayes,scaled,train,val+test_EWU_sample_10pct,all,-1903.3704744102845,-643.8666222691314,-3600.322474654088,-477.139347805658,-2163.873355848865
bayes,scaled,train,train_EU_sample_10pct,top_5,-2088.707787114321,-856.3638603602429,-1338.3837751437634,-492.8299299909748,-2189.581082856396
bayes,scaled,train,train_EU_sample_10pct,top_10,-2220.8939999598238,-920.3246709126697,-1361.172388883777,-492.8299299909748,-2096.6028212012866
bayes,scaled,train,train_EU_sample_10pct,top_25,-1831.1678873958665,-6850.7732863097335,-2083.817362531772,-8582.335523463284,-1803.2912786390448
bayes,scaled,train,train_EU_sample_10pct,top_50,-1865.7284072883185,-12708.112480689204,-2327.352463158089,-15230.332302562092,-1834.5488507913406
bayes,scaled,train,train_EU_sample_10pct,all,-1572.2636060800598,-13543.81886940966,-3077.484416741313,-29828.401851538765,-1654.0951389388406
bayes,scaled,train,val_EU_sample_10pct,top_5,-1983.942248616689,-853.3726831252361,-1251.2260745759115,-481.5581590277963,-2118.2011488476182
bayes,scaled,train,val_EU_sample_10pct,top_10,-2191.3938417386435,-1213.6258515447364,-1207.468721948434,-481.5581590277963,-2057.984431758653
bayes,scaled,train,val_EU_sample_10pct,top_25,-2312.842569227045,-6459.314682637099,-2197.74235082191,-5594.081755850754,-2018.2820686211253
bayes,scaled,train,val_EU_sample_10pct,top_50,-2271.092616726093,-16138.778038167637,-5015.9707943826925,-20103.901117299964,-2021.3370883450118
bayes,scaled,train,val_EU_sample_10pct,all,-2083.720750794399,-15365.653702864058,-4537.1601157625955,-36470.94542476192,-1925.1295963984146
bayes,scaled,train,test_EU_sample_10pct,top_5,-2011.4611934860368,-850.9729974138278,-1252.1927784957186,-479.2978077801329,-2123.0068287509416
bayes,scaled,train,test_EU_sample_10pct,top_10,-2195.392705497311,-1205.4445408650506,-1214.853196729657,-479.2978077801329,-2059.6970615881255
bayes,scaled,train,test_EU_sample_10pct,top_25,-2245.001464771111,-6761.140591714053,-1855.497564917912,-5579.214149061364,-1983.9155804636944
bayes,scaled,train,test_EU_sample_10pct,top_50,-2232.946789901898,-16267.0672749641,-4778.826651661675,-21750.4579379706,-2003.6504911017828
bayes,scaled,train,test_EU_sample_10pct,all,-2077.871925854862,-15554.506047419685,-4598.476696196742,-37876.001214852105,-1926.7937524624124
bayes,scaled,train,val+test_EU_sample_10pct,top_5,-1983.2180088747305,-854.93138062425,-1249.8307121310422,-480.4290982300715,-2106.181588538528
bayes,scaled,train,val+test_EU_sample_10pct,top_10,-2210.8967902593768,-1307.0411804517175,-1224.5662810078325,-480.4290982300715,-2066.880855862289
bayes,scaled,train,val+test_EU_sample_10pct,top_25,-2283.191928404835,-6243.795883354325,-1668.7754005668005,-4180.138480712398,-1995.1275243937964
bayes,scaled,train,val+test_EU_sample_10pct,top_50,-2251.001320095497,-15344.286793647334,-4258.163269078888,-17343.340326102465,-2004.1828935432488
bayes,scaled,train,val+test_EU_sample_10pct,all,-2076.603405819073,-15011.137912464907,-4416.088419508737,-35860.150207690465,-1924.7038831598666
bayes,scaled,train,train_inter_EWU+EU_sample_10pct,top_5,-2089.599628126836,-937.9066822785992,-1324.910651913788,-492.72853186102964,-2165.0568358651158
bayes,scaled,train,train_inter_EWU+EU_sample_10pct,top_10,-2202.3876500367305,-1004.7322053451587,-1352.9553575578786,-492.72853186102964,-2074.087939247912
bayes,scaled,train,train_inter_EWU+EU_sample_10pct,top_25,-1860.456325109569,-7908.3989388116015,-2449.8038415556744,-8073.6101418360695,-1749.8986915137475
bayes,scaled,train,train_inter_EWU+EU_sample_10pct,top_50,-1880.5749635149066,-12674.116930188007,-3014.4091832608065,-18239.238524158096,-1767.9586788219467
bayes,scaled,train,train_inter_EWU+EU_sample_10pct,all,-1703.8251128770291,-13135.201153631007,-3290.2317247062683,-492.72853186102964,-1684.6771838859313
bayes,scaled,train,val_inter_EWU+EU_sample_10pct,top_5,-2070.305479644823,-988.6252349181312,-1383.5374892043885,-478.22697127192004,-2182.1457813007573
bayes,scaled,train,val_inter_EWU+EU_sample_10pct,top_10,-1956.5507141979565,-805.4962584659196,-1406.1364736122962,-478.22697127192004,-1918.4134342754064
bayes,scaled,train,val_inter_EWU+EU_sample_10pct,top_25,-1965.6881480926208,-3592.671035973403,-4421.612921816183,-22973.703571214966,-2178.9162857676997
bayes,scaled,train,val_inter_EWU+EU_sample_10pct,top_50,-1949.5984809738889,-9252.461593464277,-4259.5882105069895,-24630.012297021804,-2184.116715251947
bayes,scaled,train,val_inter_EWU+EU_sample_10pct,all,-1941.0776688704145,-8943.822420280754,-3615.584456184382,-478.22697127192004,-2100.7969516660096
bayes,scaled,train,test_inter_EWU+EU_sample_10pct,top_5,-2040.3414355416903,-956.877669453364,-1374.1721635647375,-476.94599517274804,-2168.4233046692475
bayes,scaled,train,test_inter_EWU+EU_sample_10pct,top_10,-2001.243137909078,-778.2517934078759,-1396.7934259884655,-476.94599517274804,-2024.8010221305522
bayes,scaled,train,test_inter_EWU+EU_sample_10pct,top_25,-2000.77963456464,-4545.207493269008,-4583.381719003496,-24805.51372139061,-2167.6441261093432
bayes,scaled,train,test_inter_EWU+EU_sample_10pct,top_50,-1939.4452727830167,-10020.903447045359,-4362.639464652217,-25965.74110686228,-2168.5716344563216
bayes,scaled,train,test_inter_EWU+EU_sample_10pct,all,-1936.283155017942,-9546.928111077768,-3715.0130854894014,-476.94599517274804,-2100.1501399610293
bayes,scaled,train,val+test_inter_EWU+EU_sample_10pct,top_5,-2088.420385546178,-971.168708945674,-1383.4318896030366,-477.5823279446238,-2176.140969364569
bayes,scaled,train,val+test_inter_EWU+EU_sample_10pct,top_10,-1977.8803709303745,-786.3995443795668,-1431.286649920288,-477.5823279446238,-2045.8177321711328
bayes,scaled,train,val+test_inter_EWU+EU_sample_10pct,top_25,-1996.250201426356,-3997.92529213605,-4112.745152489829,-22653.72844755231,-2181.4225109542604
bayes,scaled,train,val+test_inter_EWU+EU_sample_10pct,top_50,-1939.945024242661,-9328.594383936723,-3932.7372556441705,-23959.370086309555,-2182.7590806657863
bayes,scaled,train,val+test_inter_EWU+EU_sample_10pct,all,-1929.2866792640627,-8939.911123511576,-3442.103824784571,-477.5823279446238,-2104.7307635952293
bayes,scaled,train,train_tweet_sample_10pct,top_5,-2101.9789533857293,-845.2415369571727,-1298.5686605954786,-493.678382193598,-2183.274361483574
bayes,scaled,train,train_tweet_sample_10pct,top_10,-2047.6154681482064,-987.613165809924,-1375.5159928486864,-493.678382193598,-2112.8990835207237
bayes,scaled,train,train_tweet_sample_10pct,top_25,-1924.514965457182,-8304.884632480402,-2599.311908835951,-9442.33507216294,-1877.9304206898569
bayes,scaled,train,train_tweet_sample_10pct,top_50,-1943.1069480893173,-13298.389180449763,-3229.634946474667,-17621.45006821508,-1890.0447565727047
bayes,scaled,train,train_tweet_sample_10pct,all,-1860.4085072186026,-13678.664611782417,-3728.113862343771,-493.678382193598,-1794.0270758966315
bayes,scaled,train,val_tweet_sample_10pct,top_5,-2003.1598069415527,-835.8643338758677,-1211.0893013619927,-478.61343329088135,-2126.067099526027
bayes,scaled,train,val_tweet_sample_10pct,top_10,-2259.2311249188515,-1376.4003336615285,-1251.7608965731438,-478.61343329088135,-2083.4773765382542
bayes,scaled,train,val_tweet_sample_10pct,top_25,-1901.0277495320472,-11530.647384497555,-1396.063879431521,-3123.406090570724,-1984.905665301006
bayes,scaled,train,val_tweet_sample_10pct,top_50,-1847.7245233062613,-18879.77819453541,-1778.7074349704676,-13885.542902863886,-1926.8556894159449
bayes,scaled,train,val_tweet_sample_10pct,all,-1916.0397704895875,-17613.657095625163,-4059.1383540094207,-478.61343329088135,-1906.422372097726
bayes,scaled,train,test_tweet_sample_10pct,top_5,-2001.6415961929958,-839.6636332403806,-1222.2726093746573,-478.429122132024,-2130.188249119545
bayes,scaled,train,test_tweet_sample_10pct,top_10,-2285.518610995102,-1386.2160533804786,-1268.7513274657833,-478.429122132024,-2099.2171473334915
bayes,scaled,train,test_tweet_sample_10pct,top_25,-1915.903898344992,-12127.722872262993,-1619.2594803539969,-4921.076006431165,-1971.83534258493
bayes,scaled,train,test_tweet_sample_10pct,top_50,-1882.260744748496,-19167.652347862007,-2310.985231569871,-17702.654416691697,-1923.9322264485136
bayes,scaled,train,test_tweet_sample_10pct,all,-1949.714676050793,-17822.348963930395,-4236.636502442568,-478.429122132024,-1916.1629945704447
bayes,scaled,train,val+test_tweet_sample_10pct,top_5,-2002.8854684824066,-837.6792862954956,-1213.9383971441694,-478.5210062910063,-2129.8713188793577
bayes,scaled,train,val+test_tweet_sample_10pct,top_10,-2286.4317581295577,-1426.9753509575635,-1262.595037107384,-478.5210062910063,-2100.260588513193
bayes,scaled,train,val+test_tweet_sample_10pct,top_25,-1906.587003606397,-10752.225707103536,-1392.7246942861202,-2659.0736800214772,-1977.6658773269394
bayes,scaled,train,val+test_tweet_sample_10pct,top_50,-1865.366594060901,-18192.561211933164,-1746.0822397930656,-12519.071589158459,-1920.7995140830121
bayes,scaled,train,val+test_tweet_sample_10pct,all,-1930.276315313693,-17471.839265515147,-4094.1340273186775,-478.5210062910063,-1904.086131525668
bayes,scaled,train,train_random_sample_1pct,top_5,-2087.285757033956,-780.343574447444,-1229.909437434196,-492.3519632957234,-2197.1130381605385
bayes,scaled,train,train_random_sample_1pct,top_10,-1937.67333389976,-845.4340203569409,-1276.0845076072187,-492.3519632957234,-1981.4827326363047
bayes,scaled,train,train_random_sample_1pct,top_25,-2085.625468905181,-1939.391903731029,-2313.045253774452,-4605.154028873448,-2015.8670798850032
bayes,scaled,train,train_random_sample_1pct,top_50,-2085.8050816448913,-5915.036333478855,-2681.9380567972744,-8985.341081857034,-2001.5132156069776
bayes,scaled,train,train_random_sample_1pct,all,-2055.260597170636,-653.8206511415599,-998.4541022239696,-492.3519632957234,-1969.829833388844
bayes,scaled,train,val_random_sample_1pct,top_5,-2027.868450063148,-786.9220477898452,-1158.7860982748566,-474.4591065367147,-2168.5813786536482
bayes,scaled,train,val_random_sample_1pct,top_10,-2345.0860254659624,-963.238082979094,-1198.756747619905,-474.4591065367147,-2129.462036075565
bayes,scaled,train,val_random_sample_1pct,top_25,-2171.474253983796,-1655.807758072344,-1187.742075483005,-1215.2489774884696,-2173.429799483883
bayes,scaled,train,val_random_sample_1pct,top_50,-2219.494319500264,-9537.554980711951,-1440.4708180827874,-2175.814614290457,-2124.1727747303507
bayes,scaled,train,val_random_sample_1pct,all,-2272.9378829062,-643.8945397827638,-958.513086966194,-474.4591065367147,-2134.3932983670707
bayes,scaled,train,test_random_sample_1pct,top_5,-2024.185159960196,-794.8990726749522,-1168.2916742435307,-475.2802410120072,-2176.653358784936
bayes,scaled,train,test_random_sample_1pct,top_10,-2317.186987938753,-941.9937742102568,-1213.4851946096935,-475.2802410120072,-2116.4906569288955
bayes,scaled,train,test_random_sample_1pct,top_25,-2200.626576967733,-1794.100384376466,-1268.112307498969,-1401.770933606731,-2183.989216485724
bayes,scaled,train,test_random_sample_1pct,top_50,-2244.158899377729,-9908.179431678436,-1566.6388361539305,-2319.8996076358744,-2148.008655310243
bayes,scaled,train,test_random_sample_1pct,all,-2290.8528397887085,-648.0789218708056,-960.7749191964548,-475.2802410120072,-2140.4951125817624
bayes,scaled,train,val+test_random_sample_1pct,top_5,-2028.8195777107574,-789.1409812460257,-1176.4956664662159,-474.8718083362335,-2136.8970213729585
bayes,scaled,train,val+test_random_sample_1pct,top_10,-2338.176139821361,-962.1876407596941,-1229.9383032431294,-474.8718083362335,-2118.5931392715765
bayes,scaled,train,val+test_random_sample_1pct,top_25,-2198.421912658549,-2164.333215359696,-1226.6545373790707,-1251.4935481483951,-2175.0055153650296
bayes,scaled,train,val+test_random_sample_1pct,top_50,-2236.1842069137524,-10413.952583086491,-1543.5572818834512,-2031.4844707741872,-2125.377182878303
bayes,scaled,train,val+test_random_sample_1pct,all,-2273.8932966107322,-646.0020014053513,-959.6488401340777,-474.8718083362335,-2133.0488199880747
bayes,scaled,train,train_EWU_sample_1pct,top_5,-1993.926610567672,-1508.4560770914736,-1346.5634189978646,-498.8142439859282,-2114.5159705836154
bayes,scaled,train,train_EWU_sample_1pct,top_10,-2220.087067756339,-3218.6500367635595,-1362.6237909254248,-502.6115108334749,-2086.7848092100962
bayes,scaled,train,train_EWU_sample_1pct,top_25,-1906.6835009824697,-7656.424161525284,-2638.9568011211827,-11074.947319999961,-1754.7938328360722
bayes,scaled,train,train_EWU_sample_1pct,top_50,-1946.6540967571627,-11822.653178467417,-3225.685471584881,-21798.792474933016,-1807.0319442992675
bayes,scaled,train,train_EWU_sample_1pct,all,-1842.5404479429315,-659.8415152792097,-1004.45226753693,-491.69438100873657,-1741.1643685360168
bayes,scaled,train,val_EWU_sample_1pct,top_5,-2129.08665884958,-1830.720765698,-1478.2540787256808,-494.3425971921978,-2025.8774500363158
bayes,scaled,train,val_EWU_sample_1pct,top_10,-2029.2853891553668,-881.4787549732785,-1394.7573232627128,-481.7680683020713,-2265.494195524875
bayes,scaled,train,val_EWU_sample_1pct,top_25,-2027.4057850172887,-5894.767717032776,-5325.0485598694895,-31581.938479447334,-2309.7386895458967
bayes,scaled,train,val_EWU_sample_1pct,top_50,-2030.541162098709,-1038.8319847271441,-3950.845847452698,-21691.650046985804,-2298.06058029134
bayes,scaled,train,val_EWU_sample_1pct,all,-2028.293780445737,-640.6261920025993,-979.4978768506172,-481.7680683020713,-2286.0428834087825
bayes,scaled,train,test_EWU_sample_1pct,top_5,-2139.2075324585903,-1777.572412156677,-1497.549297591596,-483.87822425583465,-1965.9678058283066
bayes,scaled,train,test_EWU_sample_1pct,top_10,-2039.9220327060605,-876.1621536085469,-1390.8748535829272,-471.5758110688133,-2258.340033195269
bayes,scaled,train,test_EWU_sample_1pct,top_25,-2044.1960085630951,-6155.935567046761,-5641.219379502109,-36018.93255576664,-2309.353807390133
bayes,scaled,train,test_EWU_sample_1pct,top_50,-2040.624436437088,-1245.54412289046,-4214.923210758462,-25569.450200431842,-2284.1555447523488
bayes,scaled,train,test_EWU_sample_1pct,all,-2043.3294007830973,-650.064887669672,-952.0409692502327,-471.5758110688133,-2281.1836253229003
bayes,scaled,train,val+test_EWU_sample_1pct,top_5,-2151.4157927860115,-1794.8233281462212,-1482.801003857394,-493.28942649194704,-1996.3655096311456
bayes,scaled,train,val+test_EWU_sample_1pct,top_10,-2034.3483693375629,-889.5003681005792,-1394.5991184303928,-476.84582881944124,-2256.014046030322
bayes,scaled,train,val+test_EWU_sample_1pct,top_25,-2028.609753860007,-5834.694535609513,-5405.805260404276,-32854.7411151228,-2304.2381124532576
bayes,scaled,train,val+test_EWU_sample_1pct,top_50,-2035.5445961682944,-1100.887504886083,-4038.5075529139062,-22947.69363966429,-2292.861198849563
bayes,scaled,train,val+test_EWU_sample_1pct,all,-2038.365926618512,-645.3042860173235,-966.0785434628036,-476.84582881944124,-2281.086344643013
bayes,scaled,train,train_EU_sample_1pct,top_5,-2093.1504207746766,-773.0004475415773,-1211.1705033940575,-494.40496607217466,-2203.6959029852264
bayes,scaled,train,train_EU_sample_1pct,top_10,-1919.0095031559074,-808.1851857067603,-1269.0204669870475,-494.40496607217466,-2000.1619724302186
bayes,scaled,train,train_EU_sample_1pct,top_25,-1881.51685508762,-1039.160388663119,-1904.0072261756509,-5141.190334091034,-1885.7520349909855
bayes,scaled,train,train_EU_sample_1pct,top_50,-1700.701095702457,-5410.340785712818,-1818.8001613441668,-9109.04449757942,-1846.002849297651
bayes,scaled,train,train_EU_sample_1pct,all,-1608.8148292968426,-654.3503578242282,-1002.034625623042,-494.40496607217466,-1691.7853731280454
bayes,scaled,train,val_EU_sample_1pct,top_5,-2016.0195347498614,-760.1473556963539,-1146.4375546033825,-480.3056373952786,-2151.8925720447187
bayes,scaled,train,val_EU_sample_1pct,top_10,-2298.413270676041,-899.1490765332378,-1170.5867004671125,-480.3056373952786,-2121.1241126292216
bayes,scaled,train,val_EU_sample_1pct,top_25,-2741.2993740441093,-711.9523004157066,-1814.5651483230006,-2405.543083087349,-2352.8011261227725
bayes,scaled,train,val_EU_sample_1pct,top_50,-2441.2542547199328,-10666.591885662509,-7225.307244865435,-19693.074967720702,-2236.379450246512
bayes,scaled,train,val_EU_sample_1pct,all,-2356.579670624089,-635.8392785612375,-967.6928093556436,-480.3056373952786,-2139.191825955802
bayes,scaled,train,test_EU_sample_1pct,top_5,-2023.9724936229545,-765.0844133812344,-1141.8161281784219,-472.72748284920823,-2161.1912151878573
bayes,scaled,train,test_EU_sample_1pct,top_10,-2306.025014177829,-887.2964558179734,-1157.9805883593267,-472.72748284920823,-2109.3521422652884
bayes,scaled,train,test_EU_sample_1pct,top_25,-2711.000731128422,-742.1698076917519,-1859.4138102732925,-2344.1951337502696,-2332.8571915485945
bayes,scaled,train,test_EU_sample_1pct,top_50,-2426.5976807841234,-10867.374239006043,-7361.049233852239,-20351.71625348093,-2224.3130014413664
bayes,scaled,train,test_EU_sample_1pct,all,-2340.5474032723305,-642.023808461509,-958.376154524866,-472.72748284920823,-2137.71437714608
bayes,scaled,train,val+test_EU_sample_1pct,top_5,-2019.548628477129,-763.7806259285206,-1154.0588970424221,-476.55096405661203,-2160.1368768602106
bayes,scaled,train,val+test_EU_sample_1pct,top_10,-2300.650312403465,-896.9610008543997,-1173.1467332758152,-476.55096405661203,-2112.525501089101
bayes,scaled,train,val+test_EU_sample_1pct,top_25,-2719.12146050715,-732.2152613707718,-1977.947165431069,-2364.2074746535927,-2335.7836604555623
bayes,scaled,train,val+test_EU_sample_1pct,top_50,-2435.8561952482332,-10804.91441407108,-7327.966966307172,-20995.511574951568,-2226.31569689876
bayes,scaled,train,val+test_EU_sample_1pct,all,-2339.982252555268,-638.9601416713036,-963.0256524897079,-476.55096405661203,-2136.638241120928
bayes,scaled,train,train_inter_EWU+EU_sample_1pct,top_5,-2092.5553040745262,-866.4613491231146,-1298.4598046201072,-493.10370767717103,-2192.026743057695
bayes,scaled,train,train_inter_EWU+EU_sample_1pct,top_10,-2231.9362336733866,-882.5878282934722,-1285.5428949962327,-493.10370767717103,-2103.959967303111
bayes,scaled,train,train_inter_EWU+EU_sample_1pct,top_25,-1976.8053480917706,-7056.862878139181,-2428.1923074538972,-7141.504492175493,-1869.6289925765366
bayes,scaled,train,train_inter_EWU+EU_sample_1pct,top_50,-1999.132432978103,-13395.990502237895,-2970.0618575414314,-13377.667275691803,-1883.0266439403852
bayes,scaled,train,train_inter_EWU+EU_sample_1pct,all,-1865.062981144326,-652.6742281717411,-1003.1753412103147,-493.10370767717103,-1803.6814219599225
bayes,scaled,train,val_inter_EWU+EU_sample_1pct,top_5,-2036.084058879676,-919.2669375131433,-1393.4758336534433,-475.83855149807135,-2090.618108988848
bayes,scaled,train,val_inter_EWU+EU_sample_1pct,top_10,-2036.4268802189042,-742.1602127374191,-1377.873531563418,-475.83855149807135,-2194.1996385518955
bayes,scaled,train,val_inter_EWU+EU_sample_1pct,top_25,-2132.287193639292,-957.5222414994536,-5242.345717457018,-29093.06986076041,-2282.241532244844
bayes,scaled,train,val_inter_EWU+EU_sample_1pct,top_50,-2015.6388494696732,-674.7179816097574,-4534.65195936938,-26723.055275314862,-2265.918747885625
bayes,scaled,train,val_inter_EWU+EU_sample_1pct,all,-2084.6080762544093,-644.1139194789228,-969.1075343170434,-475.83855149807135,-2268.423075903669
bayes,scaled,train,test_inter_EWU+EU_sample_1pct,top_5,-2010.955008767078,-925.1168147029387,-1385.6250115947732,-477.14495203165006,-2090.606656287664
bayes,scaled,train,test_inter_EWU+EU_sample_1pct,top_10,-2002.5790211722885,-750.5028230428978,-1367.2279180533694,-477.14495203165006,-2137.556513863556
bayes,scaled,train,test_inter_EWU+EU_sample_1pct,top_25,-2125.420393476886,-986.405294423894,-5402.20922625786,-29303.419417838715,-2265.254286138649
bayes,scaled,train,test_inter_EWU+EU_sample_1pct,top_50,-1984.2390527221792,-682.2761709641319,-4645.296078083199,-26624.171584743573,-2215.9656261978807
bayes,scaled,train,test_inter_EWU+EU_sample_1pct,all,-2043.078123735359,-639.7790596483648,-959.7561242134241,-477.14495203165006,-2206.433039946316
bayes,scaled,train,val+test_inter_EWU+EU_sample_1pct,top_5,-2023.7643357466422,-926.0060086005279,-1393.4457347045395,-476.49354171110235,-2091.2219858741987
bayes,scaled,train,val+test_inter_EWU+EU_sample_1pct,top_10,-2019.8541384193286,-749.4211651113188,-1382.1384869700912,-476.49354171110235,-2167.957517685679
bayes,scaled,train,val+test_inter_EWU+EU_sample_1pct,top_25,-2155.028360658021,-1110.8908482862696,-5506.662460156388,-32020.979852026703,-2283.285901057238
bayes,scaled,train,val+test_inter_EWU+EU_sample_1pct,top_50,-1998.2628411955066,-685.0264064370526,-4843.6898766723825,-29783.244545085734,-2247.807115817652
bayes,scaled,train,val+test_inter_EWU+EU_sample_1pct,all,-2068.076306458884,-641.9534281259039,-964.4388230102077,-476.49354171110235,-2236.0158592460853
bayes,scaled,train,train_tweet_sample_1pct,top_5,-2075.1241220469647,-802.2031678733572,-1163.7412794329214,-493.76821504711853,-2187.9103377162883
bayes,scaled,train,train_tweet_sample_1pct,top_10,-2111.797525726041,-1167.9887925485752,-1263.133334167177,-493.76821504711853,-2165.358699224256
bayes,scaled,train,train_tweet_sample_1pct,top_25,-2089.931751630188,-6976.458626388234,-2862.016579038681,-9386.53145941184,-2060.7235633296204
bayes,scaled,train,train_tweet_sample_1pct,top_50,-2047.1376739238572,-11790.312024824723,-3656.931577513984,-17060.023217411526,-2041.8677941063627
bayes,scaled,train,train_tweet_sample_1pct,all,-2030.700016141084,-656.6465222444677,-1000.2610464292748,-493.76821504711853,-1946.3605305383785
bayes,scaled,train,val_tweet_sample_1pct,top_5,-2030.7770620802744,-780.0054450282464,-1083.4233544053518,-475.59597191316686,-2162.538860837996
bayes,scaled,train,val_tweet_sample_1pct,top_10,-2396.0676052609065,-1620.7625557861998,-1148.3823489623107,-475.59597191316686,-2179.068265973492
bayes,scaled,train,val_tweet_sample_1pct,top_25,-2120.7727681568576,-9680.711957158814,-1589.0111054963845,-1201.800996151177,-2259.0204485416502
bayes,scaled,train,val_tweet_sample_1pct,top_50,-1969.035435591817,-20475.71811892464,-3302.855760901864,-11445.641435863667,-2212.248347816563
bayes,scaled,train,val_tweet_sample_1pct,all,-2148.0875367321,-638.243211661429,-955.3975282131962,-475.59597191316686,-2172.6845118683946
bayes,scaled,train,test_tweet_sample_1pct,top_5,-2028.4357810104104,-771.8487517304886,-1096.3512982799853,-476.87127502792015,-2109.5810161466557
bayes,scaled,train,test_tweet_sample_1pct,top_10,-2352.8643282965368,-1531.5827244085308,-1164.7669467914661,-476.87127502792015,-2158.353561058393
bayes,scaled,train,test_tweet_sample_1pct,top_25,-2147.145396763482,-9787.320970881388,-1453.7163760386481,-1002.3670064101443,-2263.821242870247
bayes,scaled,train,test_tweet_sample_1pct,top_50,-1957.623390310116,-19862.653261229152,-3385.275239470765,-11838.020375198792,-2220.05140460309
bayes,scaled,train,test_tweet_sample_1pct,all,-2174.8969051418967,-647.2568233212571,-954.776140057834,-476.87127502792015,-2195.1016359214173
bayes,scaled,train,val+test_tweet_sample_1pct,top_5,-2024.0032826717638,-780.5716935282782,-1093.7725561435557,-476.2344890362458,-2111.01523169992
bayes,scaled,train,val+test_tweet_sample_1pct,top_10,-2082.864598840106,-1489.5939899820758,-1170.8258596684268,-476.2344890362458,-2122.243659843125
bayes,scaled,train,val+test_tweet_sample_1pct,top_25,-2117.5591264499253,-9081.233693480772,-1531.3038534492966,-1000.0206229637668,-2254.5950189722494
bayes,scaled,train,val+test_tweet_sample_1pct,top_50,-1957.9021048168188,-19738.470383296622,-3106.792579590496,-9159.925459123211,-2216.4096491317937
bayes,scaled,train,val+test_tweet_sample_1pct,all,-2150.622053864682,-642.7808683812067,-955.0871352026593,-476.2344890362458,-2174.89362775784
bayes,scaled,train,train_random_sample_2pct,top_5,-2094.0601881109856,-799.1358130325572,-1235.5200484015006,-493.4602810347082,-2202.446523788408
bayes,scaled,train,train_random_sample_2pct,top_10,-1981.9904525714103,-849.4190375352167,-1282.259832632466,-493.4602810347082,-2098.8899852670365
bayes,scaled,train,train_random_sample_2pct,top_25,-2049.9233880420693,-2642.14304190868,-2253.0970210832475,-3683.137489088076,-1974.4009187145764
bayes,scaled,train,train_random_sample_2pct,top_50,-2069.031205281964,-8969.646333326253,-2720.177454092086,-8851.597843131098,-1967.0056410670709
bayes,scaled,train,train_random_sample_2pct,all,-2000.5311380933604,-653.9908863550772,-998.8832853559112,-493.4602810347082,-1930.7630386192627
bayes,scaled,train,val_random_sample_2pct,top_5,-2040.2784890691046,-805.5339484240835,-1164.0324532194093,-475.2325817090963,-2158.4165347825187
bayes,scaled,train,val_random_sample_2pct,top_10,-2312.4455405797353,-1020.2553609251027,-1186.7010499162393,-475.2325817090963,-2100.032195987604
bayes,scaled,train,val_random_sample_2pct,top_25,-2125.1038900792582,-3696.025470902755,-1354.366488158778,-2012.0277105546984,-2092.8931542594974
bayes,scaled,train,val_random_sample_2pct,top_50,-2159.358365793165,-13513.147779465393,-1646.2384160887634,-2786.7372784165673,-2043.3465527081642
bayes,scaled,train,val_random_sample_2pct,all,-2189.910190721484,-643.68223364036,-959.9108156833563,-475.2325817090963,-2058.3552103522948
bayes,scaled,train,test_random_sample_2pct,top_5,-2035.3796271313336,-801.8758831072629,-1181.3402009180381,-479.3268318211646,-2168.409328555374
bayes,scaled,train,test_random_sample_2pct,top_10,-2255.6989449136045,-957.8560619728373,-1209.870263738818,-479.3268318211646,-2087.7182798699496
bayes,scaled,train,test_random_sample_2pct,top_25,-2120.7966041193367,-3252.6570673464207,-1330.2457146727604,-1606.9646326934287,-2081.7023275931642
bayes,scaled,train,test_random_sample_2pct,top_50,-2142.812120518848,-13058.264266272106,-1534.3494467975895,-2246.375786214962,-2038.3246342681634
bayes,scaled,train,test_random_sample_2pct,all,-2165.147281632123,-646.3102410999802,-961.3700068269296,-479.3268318211646,-2054.7420157649403
bayes,scaled,train,val+test_random_sample_2pct,top_5,-2037.3620385008685,-803.1216226582777,-1168.1847164670094,-477.30184405728244,-2159.1400383416203
bayes,scaled,train,val+test_random_sample_2pct,top_10,-2297.003710500552,-1017.4106425682768,-1194.3709686124862,-477.30184405728244,-2095.5623136286326
bayes,scaled,train,val+test_random_sample_2pct,top_25,-2109.086212747032,-3056.9590298723438,-1286.8294269160099,-1432.4254690739106,-2094.0043429391285
bayes,scaled,train,val+test_random_sample_2pct,top_50,-2143.9651956054017,-12602.479331342143,-1476.0307404171522,-2049.477590747439,-2051.394694736287
bayes,scaled,train,val+test_random_sample_2pct,all,-2173.560464409234,-645.0041774142417,-960.6434338065455,-477.30184405728244,-2056.368701679923
bayes,scaled,train,train_EWU_sample_2pct,top_5,-2058.4785203823103,-979.9883682468684,-1264.759004471342,-489.1884675474006,-2134.016458010784
bayes,scaled,train,train_EWU_sample_2pct,top_10,-2209.6358858161248,-2202.407142626827,-1231.6314685737516,-489.1884675474006,-2078.5181029521505
bayes,scaled,train,train_EWU_sample_2pct,top_25,-1861.0179120387438,-9058.438310933094,-2685.98103117837,-13488.158339197109,-1748.0496814567207
bayes,scaled,train,train_EWU_sample_2pct,top_50,-1868.2816033512602,-12602.548355513567,-3434.2277129528425,-28527.305293537967,-1789.495579807237
bayes,scaled,train,train_EWU_sample_2pct,all,-1745.7057342157211,-651.3069800980305,-997.0593900111912,-489.1884675474006,-1714.5571517947974
bayes,scaled,train,val_EWU_sample_2pct,top_5,-2030.8295337812506,-1032.3417663073983,-1349.2007143515507,-479.6554793804298,-2162.18959806949
bayes,scaled,train,val_EWU_sample_2pct,top_10,-2002.567729361946,-682.2832436633727,-1181.317589427916,-479.6554793804298,-2243.243529788361
bayes,scaled,train,val_EWU_sample_2pct,top_25,-1964.454667557104,-1348.6518729571487,-6149.590530856363,-33591.68758554648,-2260.014259358945
bayes,scaled,train,val_EWU_sample_2pct,top_50,-1954.3411796759922,-642.4621378335327,-4632.344795902573,-23048.881981067632,-2216.3659696166515
bayes,scaled,train,val_EWU_sample_2pct,all,-1958.458662042305,-642.179718921465,-958.8958740327856,-479.6554793804298,-2203.381350903417
bayes,scaled,train,test_EWU_sample_2pct,top_5,-2001.7103631544503,-1005.5467276564316,-1344.9628479205035,-475.95585622587197,-2101.1389897697627
bayes,scaled,train,test_EWU_sample_2pct,top_10,-2024.020278172803,-685.7748268295352,-1156.7231493937281,-475.95585622587197,-2249.5147915944603
bayes,scaled,train,test_EWU_sample_2pct,top_25,-2023.8453031825682,-1403.8984770495756,-6144.290777408044,-34587.92314746571,-2304.425317553412
bayes,scaled,train,test_EWU_sample_2pct,top_50,-2002.6592660281167,-642.4309137807193,-4683.427389703814,-24010.400926310893,-2243.258633690492
bayes,scaled,train,test_EWU_sample_2pct,all,-2000.366331767879,-642.136057507978,-956.8102979930233,-475.95585622587197,-2233.2058913887518
bayes,scaled,train,val+test_EWU_sample_2pct,top_5,-2015.6193903508097,-1018.583760389042,-1341.3502242275333,-477.8569737216865,-2132.3647160123264
bayes,scaled,train,val+test_EWU_sample_2pct,top_10,-2013.0329072959423,-686.3715738079851,-1162.3032491062472,-477.8569737216865,-2245.5467859210466
bayes,scaled,train,val+test_EWU_sample_2pct,top_25,-1980.752135748324,-1107.2991433081938,-6061.504330480431,-31843.939633653485,-2276.406775699339
bayes,scaled,train,val+test_EWU_sample_2pct,top_50,-1980.2832362176327,-642.2304829650909,-4471.626289766909,-21518.73561375968,-2240.649267907816
bayes,scaled,train,val+test_EWU_sample_2pct,all,-1977.6572821490845,-642.1583570624125,-957.8759226016847,-477.8569737216865,-2216.666322290637
bayes,scaled,train,train_EU_sample_2pct,top_5,-2090.8814671532346,-759.4563578948814,-1284.6161863672592,-495.1807935208757,-2183.570101361412
bayes,scaled,train,train_EU_sample_2pct,top_10,-1981.813290733276,-810.6700138782378,-1312.6739870290144,-495.1807935208757,-2102.8172217726237
bayes,scaled,train,train_EU_sample_2pct,top_25,-1865.3192638477008,-2138.5408116705053,-1924.0509281282348,-4937.807086527117,-1858.0464504745873
bayes,scaled,train,train_EU_sample_2pct,top_50,-1873.8238426285463,-8422.105212846964,-1877.0099452491693,-9542.469390494063,-1868.1873034229948
bayes,scaled,train,train_EU_sample_2pct,all,-1593.2887245411493,-655.0160652835305,-1000.9494860198894,-495.1807935208757,-1690.3811678153772
bayes,scaled,train,val_EU_sample_2pct,top_5,-2017.717528631056,-761.0732382798652,-1190.6744904917855,-480.1967869422422,-2144.8361495053828
bayes,scaled,train,val_EU_sample_2pct,top_10,-2245.0854883022885,-902.4550600668463,-1191.618669218618,-480.1967869422422,-2094.235365569438
bayes,scaled,train,val_EU_sample_2pct,top_25,-2698.8405381254497,-806.2350130980728,-1977.938646239,-2274.932590614868,-2314.8550616760485
bayes,scaled,train,val_EU_sample_2pct,top_50,-2562.936622390001,-9851.64618966775,-5495.047141186958,-7817.415587079517,-2235.7641844491773
bayes,scaled,train,val_EU_sample_2pct,all,-2259.3825788260433,-639.8272737834745,-958.4141882548062,-480.1967869422422,-2061.302704639506
bayes,scaled,train,test_EU_sample_2pct,top_5,-2030.5053243185864,-747.1419627951068,-1199.0161949360656,-478.72676735357214,-2155.859407796625
bayes,scaled,train,test_EU_sample_2pct,top_10,-2284.800952532699,-918.1747648487633,-1205.736709717273,-478.72676735357214,-2101.7948121775257
bayes,scaled,train,test_EU_sample_2pct,top_25,-2676.8420382211248,-826.0587504584221,-1783.850132957731,-2138.8086305974507,-2298.5990638517333
bayes,scaled,train,test_EU_sample_2pct,top_50,-2542.7698683655162,-9885.318921010141,-5309.923729720106,-7552.8051468005815,-2223.558080566247
bayes,scaled,train,test_EU_sample_2pct,all,-2259.6150285124922,-642.8091931388745,-964.8784087026961,-478.72676735357214,-2065.7767878533937
bayes,scaled,train,val+test_EU_sample_2pct,top_5,-2024.5031719004944,-753.8739885984627,-1188.206864151716,-479.4601179774569,-2150.0968874553864
bayes,scaled,train,val+test_EU_sample_2pct,top_10,-2251.3043777092303,-906.491764609606,-1197.9324872852756,-479.4601179774569,-2092.17646029155
bayes,scaled,train,val+test_EU_sample_2pct,top_25,-2671.3874575775994,-754.6556879137765,-1562.5262068430795,-1561.7780114131244,-2284.051335493351
bayes,scaled,train,val+test_EU_sample_2pct,top_50,-2538.3872385841682,-8719.055233464182,-4989.945025222923,-5587.563544111782,-2211.1538724552397
bayes,scaled,train,val+test_EU_sample_2pct,all,-2251.187256636877,-641.329112495735,-961.6661538729927,-479.4601179774569,-2057.670036194459
bayes,scaled,train,train_inter_EWU+EU_sample_2pct,top_5,-2094.0256705332113,-932.2307508363327,-1346.7407146497126,-494.31832837175887,-2182.01386537206
bayes,scaled,train,train_inter_EWU+EU_sample_2pct,top_10,-2189.1549671314547,-944.351269610571,-1346.0447995518218,-494.31832837175887,-2075.566155413804
bayes,scaled,train,train_inter_EWU+EU_sample_2pct,top_25,-1920.3860805185168,-7415.752567430748,-2529.675830169027,-7786.271558624632,-1814.9458553115396
bayes,scaled,train,train_inter_EWU+EU_sample_2pct,top_50,-1938.8578218184373,-13237.60878807656,-3156.0961385928526,-17679.259694531494,-1819.7125119282034
bayes,scaled,train,train_inter_EWU+EU_sample_2pct,all,-1789.4247495942886,-654.3078429093215,-1001.0139604968607,-494.31832837175887,-1745.1500568324275
bayes,scaled,train,val_inter_EWU+EU_sample_2pct,top_5,-2022.2571959319073,-966.3773530209011,-1449.4163019007538,-477.1678507677187,-2125.4161917736865
bayes,scaled,train,val_inter_EWU+EU_sample_2pct,top_10,-2007.6249999687973,-762.4156110331173,-1411.294100307952,-477.1678507677187,-2137.3086735579527
bayes,scaled,train,val_inter_EWU+EU_sample_2pct,top_25,-2196.338786748719,-1783.9717124937995,-5712.039198614784,-30468.864561369,-2270.7387045512105
bayes,scaled,train,val_inter_EWU+EU_sample_2pct,top_50,-1974.5116065343375,-866.6531791822119,-5017.442975124,-26585.32424479734,-2225.886508471939
bayes,scaled,train,val_inter_EWU+EU_sample_2pct,all,-2036.3564184212432,-639.1068620858376,-959.4233770876663,-477.1678507677187,-2197.3590178211803
bayes,scaled,train,test_inter_EWU+EU_sample_2pct,top_5,-2018.3217205107687,-977.6791867549339,-1458.899309168097,-476.8657756859791,-2102.795683449082
bayes,scaled,train,test_inter_EWU+EU_sample_2pct,top_10,-1992.5496950030679,-741.5088260927355,-1425.2600252528002,-476.8657756859791,-2145.123533350364
bayes,scaled,train,test_inter_EWU+EU_sample_2pct,top_25,-2088.0399474134438,-1111.2664417868266,-5304.672204021347,-27283.52803216733,-2242.0824502345467
bayes,scaled,train,test_inter_EWU+EU_sample_2pct,top_50,-1971.4967823586176,-737.0797984471299,-4549.961069086413,-23450.6534590822,-2209.590788261636
bayes,scaled,train,test_inter_EWU+EU_sample_2pct,all,-2009.482622302019,-642.9259021744782,-956.8548831820694,-476.8657756859791,-2178.7387260814667
bayes,scaled,train,val+test_inter_EWU+EU_sample_2pct,top_5,-2017.492378924673,-983.1217959422087,-1458.7544709217407,-476.8514465782988,-2114.1470619562333
bayes,scaled,train,val+test_inter_EWU+EU_sample_2pct,top_10,-2004.7189611562646,-744.5296579290689,-1425.4588659884234,-476.8514465782988,-2155.0490213352664
bayes,scaled,train,val+test_inter_EWU+EU_sample_2pct,top_25,-2157.1112101980907,-1595.1726946799686,-5797.085527742618,-32135.354561555552,-2265.689730892356
bayes,scaled,train,val+test_inter_EWU+EU_sample_2pct,top_50,-1959.9254537205009,-795.6170936490934,-5080.246762815896,-27897.553619948885,-2225.6374374599814
bayes,scaled,train,val+test_inter_EWU+EU_sample_2pct,all,-2014.2235073090023,-642.4658588353652,-960.0518608612738,-476.8514465782988,-2194.328341375876
bayes,scaled,train,train_tweet_sample_2pct,top_5,-2088.649699975384,-772.1196544562391,-1211.7374167053872,-493.8929895346391,-2184.7419867383223
bayes,scaled,train,train_tweet_sample_2pct,top_10,-1990.139345893108,-1005.955112379007,-1290.4366014956213,-493.8929895346391,-2018.157466625844
bayes,scaled,train,train_tweet_sample_2pct,top_25,-2036.8466943827357,-6893.381053651997,-2657.166287522153,-10040.773465750764,-2008.6778307054458
bayes,scaled,train,train_tweet_sample_2pct,top_50,-1991.9033728645147,-12761.369310657425,-3252.530138087562,-17761.562895995143,-1994.0786602603328
bayes,scaled,train,train_tweet_sample_2pct,all,-1988.6846161824717,-657.2958127206062,-1003.0829409187083,-493.8929895346391,-1888.7209993839997
bayes,scaled,train,val_tweet_sample_2pct,top_5,-2032.6880832736294,-768.4167302875928,-1151.2496944963436,-479.0698100357134,-2164.51983407294
bayes,scaled,train,val_tweet_sample_2pct,top_10,-2342.9611566446474,-1252.5506621719244,-1197.387207223158,-479.0698100357134,-2179.5344349830534
bayes,scaled,train,val_tweet_sample_2pct,top_25,-2117.60870214356,-9579.397028548456,-1421.9377314672631,-1855.8578636044706,-2231.130811037548
bayes,scaled,train,val_tweet_sample_2pct,top_50,-1961.6468617284906,-20140.9990146696,-2592.956759728116,-15375.21197713747,-2152.3114998003957
bayes,scaled,train,val_tweet_sample_2pct,all,-2120.0068699623607,-640.9310311748814,-958.2213533188257,-479.0698100357134,-2109.709410874836
bayes,scaled,train,test_tweet_sample_2pct,top_5,-1998.0240824903528,-759.6845927538525,-1150.464050437444,-478.6075616880329,-2145.123006897785
bayes,scaled,train,test_tweet_sample_2pct,top_10,-2385.141405625054,-1305.5830858370448,-1195.696862574055,-478.6075616880329,-2176.9656055634077
bayes,scaled,train,test_tweet_sample_2pct,top_25,-2151.312091823794,-10187.259198355374,-1533.3669098684036,-2774.101226847354,-2241.369148261526
bayes,scaled,train,test_tweet_sample_2pct,top_50,-1986.4182757354044,-20318.542859888046,-2831.5222239517384,-18171.806674905565,-2166.172617294351
bayes,scaled,train,test_tweet_sample_2pct,all,-2131.90108273878,-642.5161731965261,-959.2975210441735,-478.6075616880329,-2121.2443027362106
bayes,scaled,train,val+test_tweet_sample_2pct,top_5,-2019.596250663364,-769.2388507831902,-1165.5299065654665,-478.8383989177211,-2153.470720472981
bayes,scaled,train,val+test_tweet_sample_2pct,top_10,-2345.894927923264,-1274.5666205636435,-1209.8395213756326,-478.8383989177211,-2172.105863609822
bayes,scaled,train,val+test_tweet_sample_2pct,top_25,-2139.1293132945416,-9973.970437316724,-1541.2677955821698,-3024.979180096853,-2233.283993762873
bayes,scaled,train,val+test_tweet_sample_2pct,top_50,-1982.0519786251168,-19857.991451661685,-2805.115335080241,-16827.516933060182,-2156.376459809668
bayes,scaled,train,val+test_tweet_sample_2pct,all,-2128.124316321236,-641.7262816235952,-958.760654197512,-478.8383989177211,-2111.5096601333357
bayes,scaled,train,train_random_sample_5pct,top_5,-2093.8388558245388,-795.7229490205016,-1308.2400940262771,-492.90126740289435,-2216.907191977049
bayes,scaled,train,train_random_sample_5pct,top_10,-2235.501594708777,-841.9223001474298,-1310.7256078071996,-492.90126740289435,-2098.5921764057994
bayes,scaled,train,train_random_sample_5pct,top_25,-2014.2694488509533,-5092.037175210434,-2397.4897253476292,-6571.168705118591,-1927.3803056305026
bayes,scaled,train,train_random_sample_5pct,top_50,-2046.5145633612265,-12307.726904793559,-2910.1524588738002,-11809.976971630636,-1934.380849688296
bayes,scaled,train,train_random_sample_5pct,all,-1946.5136659027166,-654.6389574694002,-998.2617770629288,-492.90126740289435,-1876.259146292761
bayes,scaled,train,val_random_sample_5pct,top_5,-2025.4925682615772,-787.766256658775,-1202.7696950468035,-475.22388332251836,-2147.479257973599
bayes,scaled,train,val_random_sample_5pct,top_10,-2235.7034272849205,-977.678353832395,-1194.4258405373566,-475.22388332251836,-2076.324173591187
bayes,scaled,train,val_random_sample_5pct,top_25,-2027.0979279475732,-5949.549915520465,-1393.2634684277107,-2416.3150560782897,-2004.9987289042456
bayes,scaled,train,val_random_sample_5pct,top_50,-2050.577669365648,-15614.599494538885,-1885.0969480745841,-4698.32462407513,-1956.29650552602
bayes,scaled,train,val_random_sample_5pct,all,-2077.862840438284,-644.5915088883894,-958.5225789375506,-475.22388332251836,-1971.866563753395
bayes,scaled,train,test_random_sample_5pct,top_5,-2017.7622046639008,-790.5758265696338,-1202.416234372788,-478.0986665257921,-2142.0843813748847
bayes,scaled,train,test_random_sample_5pct,top_10,-2230.0666999589907,-979.4138270303148,-1189.0251519681578,-478.0986665257921,-2072.6874578212937
bayes,scaled,train,test_random_sample_5pct,top_25,-2023.5567429634461,-6170.9825178094725,-1359.4451026743186,-2338.669483486073,-2006.9493223342802
bayes,scaled,train,test_random_sample_5pct,top_50,-2044.716521619104,-15624.063682312268,-1546.0571746278079,-3769.428183276936,-1958.1365749410568
bayes,scaled,train,test_random_sample_5pct,all,-2074.8782169958927,-643.9245097473048,-960.9222624896366,-478.0986665257921,-1969.50912755715
bayes,scaled,train,val+test_random_sample_5pct,top_5,-2023.991100300153,-784.5440252141873,-1205.574248553739,-476.6738838099202,-2144.0452960771727
bayes,scaled,train,val+test_random_sample_5pct,top_10,-2232.134255936655,-983.3725250248109,-1205.5225246680093,-476.6738838099202,-2077.6735934193953
bayes,scaled,train,val+test_random_sample_5pct,top_25,-2012.388516437621,-5275.322571023485,-1337.3150130612669,-1965.838458188401,-2016.0290112978555
bayes,scaled,train,val+test_random_sample_5pct,top_50,-2037.044292178203,-14662.733159406333,-1576.3841591913074,-3100.2513796367357,-1967.6532476460816
bayes,scaled,train,val+test_random_sample_5pct,all,-2044.855478646119,-644.2569132439311,-959.7276712960647,-476.6738838099202,-1960.7072174818104
bayes,scaled,train,train_EWU_sample_5pct,top_5,-2027.4850197152898,-1368.14326497501,-1466.8048128095447,-523.6205810481894,-2108.1336165291323
bayes,scaled,train,train_EWU_sample_5pct,top_10,-2173.8059237900807,-2697.5198425795816,-1515.489531030913,-508.8263014954113,-2025.9958749683194
bayes,scaled,train,train_EWU_sample_5pct,top_25,-1917.1241195043256,-9051.937036599978,-2801.1405561162683,-12234.48163834886,-1763.5228792007215
bayes,scaled,train,train_EWU_sample_5pct,top_50,-2062.336630544752,-12459.132795951788,-3447.7270996186153,-24886.020417235082,-1889.214581992464
bayes,scaled,train,train_EWU_sample_5pct,all,-1933.3560421732464,-654.1753357611273,-997.0842981831233,-492.52200933002496,-1803.976140898106
bayes,scaled,train,val_EWU_sample_5pct,top_5,-2107.9807537789075,-1511.8474260458636,-1762.9692645274317,-517.425674170215,-2184.9765017732707
bayes,scaled,train,val_EWU_sample_5pct,top_10,-2012.0806215351768,-878.0452409049984,-1516.8162346032898,-477.06689454532125,-2186.681928153344
bayes,scaled,train,val_EWU_sample_5pct,top_25,-1993.3806984214566,-2306.392566386671,-5329.641121780123,-33456.55752762605,-2274.3974839637604
bayes,scaled,train,val_EWU_sample_5pct,top_50,-2020.8772904487653,-698.3986923846179,-4014.3332828718817,-24050.113808000253,-2269.805992417798
bayes,scaled,train,val_EWU_sample_5pct,all,-2016.7074444700158,-643.906824088228,-959.2306214890306,-477.06689454532125,-2239.103382358237
bayes,scaled,train,test_EWU_sample_5pct,top_5,-2114.863348599794,-1595.237782060866,-1677.0306715906238,-514.8000375666911,-2182.9886550228407
bayes,scaled,train,test_EWU_sample_5pct,top_10,-2015.3206603809147,-880.3337814546976,-1467.9620501400475,-475.6100747020608,-2189.6140011739744
bayes,scaled,train,test_EWU_sample_5pct,top_25,-1991.370972142343,-2338.3349348469033,-5207.368098942976,-33208.44097798561,-2271.580789271316
bayes,scaled,train,test_EWU_sample_5pct,top_50,-2020.4636974576374,-693.0743681311225,-3727.9408106965298,-22641.55406125612,-2272.424420386289
bayes,scaled,train,test_EWU_sample_5pct,all,-2018.2417847368747,-644.5920251792003,-959.3631803430206,-475.6100747020608,-2245.3777876424406
bayes,scaled,train,val+test_EWU_sample_5pct,top_5,-2103.0213848409508,-1600.8147808041947,-1719.9554908624966,-519.8780484885848,-2183.9760903132997
bayes,scaled,train,val+test_EWU_sample_5pct,top_10,-2011.1280441759784,-894.8460794629034,-1521.322825327056,-476.3357579672991,-2195.143531880992
bayes,scaled,train,val+test_EWU_sample_5pct,top_25,-2023.106435362772,-2967.164470763292,-5326.492855062759,-34124.898045692746,-2274.648269705659
bayes,scaled,train,val+test_EWU_sample_5pct,top_50,-2020.669191777396,-729.1578544497545,-3989.217145460006,-23971.84037647812,-2263.0150722657213
bayes,scaled,train,val+test_EWU_sample_5pct,all,-2017.8991818210397,-644.25176140934,-959.2973142611777,-476.3357579672991,-2240.843381221012
bayes,scaled,train,train_EU_sample_5pct,top_5,-2091.428691752112,-846.3121176879698,-1300.8100958593946,-493.1943728551168,-2213.619142473253
bayes,scaled,train,train_EU_sample_5pct,top_10,-2221.4765950850483,-883.9676144000625,-1323.4148440772794,-493.1943728551168,-2088.930391182239
bayes,scaled,train,train_EU_sample_5pct,top_25,-1852.0385984507209,-4921.3611321984945,-2017.865168220214,-7046.659704624665,-1832.4644022571485
bayes,scaled,train,train_EU_sample_5pct,top_50,-1888.6075609219765,-12167.287268333215,-2094.9955232841994,-13344.297987960237,-1860.4723115613112
bayes,scaled,train,train_EU_sample_5pct,all,-1593.9475790841004,-654.2843132942661,-999.9252434622057,-493.1943728551168,-1679.65723759323
bayes,scaled,train,val_EU_sample_5pct,top_5,-2009.8065193226803,-839.6846715215455,-1215.352414702924,-477.37776742625516,-2127.9420343433217
bayes,scaled,train,val_EU_sample_5pct,top_10,-2233.956736449288,-1110.4102459108094,-1190.8705641255558,-477.37776742625516,-2063.7954085751885
bayes,scaled,train,val_EU_sample_5pct,top_25,-2449.735318118924,-1970.9027733894532,-1401.3587305344581,-2348.678366126195,-2107.6818235592286
bayes,scaled,train,val_EU_sample_5pct,top_50,-2361.199537237449,-14848.738377537857,-4935.815168505588,-12948.60229094277,-2091.5572044205464
bayes,scaled,train,val_EU_sample_5pct,all,-2136.8099316294533,-642.7575660491804,-955.8816688020238,-477.37776742625516,-1981.8614658898127
bayes,scaled,train,test_EU_sample_5pct,top_5,-2012.0867409542975,-837.2987735191318,-1206.6631801688588,-477.26043094046616,-2132.8557509738393
bayes,scaled,train,test_EU_sample_5pct,top_10,-2225.7402519443945,-1036.1219437383045,-1188.9925135803046,-477.26043094046616,-2065.304966338528
bayes,scaled,train,test_EU_sample_5pct,top_25,-2453.6283931550447,-2918.277611395424,-1536.3282312372864,-2843.2525142377845,-2104.993476134015
bayes,scaled,train,test_EU_sample_5pct,top_50,-2371.222126105776,-15085.031518487192,-5253.929557993896,-15779.50340234248,-2094.31674503075
bayes,scaled,train,test_EU_sample_5pct,all,-2146.42625920704,-644.7252270428863,-961.0191182298756,-477.26043094046616,-1981.008600790726
bayes,scaled,train,val+test_EU_sample_5pct,top_5,-2011.3802294794168,-837.3318182384145,-1205.411241551825,-477.31882580639854,-2128.2056366335287
bayes,scaled,train,val+test_EU_sample_5pct,top_10,-2234.6270188460994,-1088.9576555024903,-1199.341476422843,-477.31882580639854,-2075.9141598411093
bayes,scaled,train,val+test_EU_sample_5pct,top_25,-2450.859210138947,-2265.3984617128103,-1464.4574551547464,-2496.8361369277145,-2103.216757400983
bayes,scaled,train,val+test_EU_sample_5pct,top_50,-2358.659318871449,-13881.553982297337,-4976.57474354164,-13718.876763351778,-2084.1359617524167
bayes,scaled,train,val+test_EU_sample_5pct,all,-2130.4429659164784,-643.7478197950709,-958.4657826250364,-477.31882580639854,-1978.7006736636706
bayes,scaled,train,train_inter_EWU+EU_sample_5pct,top_5,-2089.306884207289,-906.3617349681347,-1354.69985369117,-492.53105649787835,-2155.543200932715
bayes,scaled,train,train_inter_EWU+EU_sample_5pct,top_10,-2180.7218165686945,-967.0503147975296,-1335.1799142788802,-492.53105649787835,-2077.5394584267187
bayes,scaled,train,train_inter_EWU+EU_sample_5pct,top_25,-1883.9461626154487,-8843.130033855581,-2559.4411825454235,-10688.237779856125,-1779.6301668631452
bayes,scaled,train,train_inter_EWU+EU_sample_5pct,top_50,-1902.9443391820155,-13419.273133088362,-3129.9988172046405,-19767.63582257181,-1790.8736929061713
bayes,scaled,train,train_inter_EWU+EU_sample_5pct,all,-1726.2828954509555,-651.9022498872451,-998.5041491181233,-492.53105649787835,-1705.9423952638683
bayes,scaled,train,val_inter_EWU+EU_sample_5pct,top_5,-2054.674874207271,-956.0941595816092,-1449.491248045456,-476.310673437173,-2085.0034500888405
bayes,scaled,train,val_inter_EWU+EU_sample_5pct,top_10,-1995.8358675287875,-752.7105557951136,-1408.5642457242013,-476.310673437173,-2128.887073721539
bayes,scaled,train,val_inter_EWU+EU_sample_5pct,top_25,-2057.587493237213,-3108.6047578055736,-4920.897541016089,-29118.80573744999,-2211.0390410255336
bayes,scaled,train,val_inter_EWU+EU_sample_5pct,top_50,-1951.2053807260093,-4390.973046263371,-4410.26037621935,-27478.132597053773,-2194.418607698384
bayes,scaled,train,val_inter_EWU+EU_sample_5pct,all,-1979.3660253922733,-643.5190286652663,-962.597530688692,-476.310673437173,-2148.085650749921
bayes,scaled,train,test_inter_EWU+EU_sample_5pct,top_5,-2073.9204132762343,-936.275107620813,-1426.4945605315027,-478.4527013995636,-2080.797201202735
bayes,scaled,train,test_inter_EWU+EU_sample_5pct,top_10,-1991.4370447729184,-742.3589834008712,-1396.268889610941,-478.4527013995636,-2123.2311157546187
bayes,scaled,train,test_inter_EWU+EU_sample_5pct,top_25,-1997.3552982222247,-2543.474275731557,-4492.847940962487,-24289.011294207157,-2206.918545850312
bayes,scaled,train,test_inter_EWU+EU_sample_5pct,top_50,-1963.0327745358206,-3503.0681014607085,-3821.716384743543,-23278.614798750285,-2192.0216814924866
bayes,scaled,train,test_inter_EWU+EU_sample_5pct,all,-1962.372884587748,-640.778423240614,-958.90196037948,-478.4527013995636,-2145.0462921597955
bayes,scaled,train,val+test_inter_EWU+EU_sample_5pct,top_5,-2037.0382049599305,-943.4500362842607,-1422.60480936592,-477.396462968274,-2173.4780101329943
bayes,scaled,train,val+test_inter_EWU+EU_sample_5pct,top_10,-1986.795592676905,-749.285187657568,-1398.4481493352343,-477.396462968274,-2125.698572880322
bayes,scaled,train,val+test_inter_EWU+EU_sample_5pct,top_25,-1982.2651708580008,-2584.1594147088917,-4692.275855933837,-25672.61989378989,-2203.938234018332
bayes,scaled,train,val+test_inter_EWU+EU_sample_5pct,top_50,-1959.248081377114,-3880.118821957779,-4480.130422136104,-25393.531258063096,-2202.528227703375
bayes,scaled,train,val+test_inter_EWU+EU_sample_5pct,all,-1949.609205892485,-642.1380349266137,-960.7324925847521,-477.396462968274,-2155.7710366251745
bayes,scaled,train,train_tweet_sample_5pct,top_5,-2077.7671562304745,-756.6193765124823,-1263.391552222203,-493.834302556752,-2178.8779418460144
bayes,scaled,train,train_tweet_sample_5pct,top_10,-1964.5836484904046,-945.1926383124547,-1315.2134412326716,-493.834302556752,-2015.878257551703
bayes,scaled,train,train_tweet_sample_5pct,top_25,-2044.71457345287,-8077.867493974878,-2988.6163500983366,-11483.503084522441,-2008.3499639195113
bayes,scaled,train,train_tweet_sample_5pct,top_50,-2046.609107394658,-13544.055471647343,-3644.398177513066,-19032.60288557725,-1985.283046543688
bayes,scaled,train,train_tweet_sample_5pct,all,-1969.8417677275486,-654.9076817756135,-1000.1546735027408,-493.834302556752,-1883.4759668490344
bayes,scaled,train,val_tweet_sample_5pct,top_5,-2011.8016985856987,-731.8323677263568,-1187.0903192148512,-476.9748797257578,-2145.3735425317286
bayes,scaled,train,val_tweet_sample_5pct,top_10,-2317.947032099424,-1306.7174791664936,-1210.7925464827586,-476.9748797257578,-2130.264968676092
bayes,scaled,train,val_tweet_sample_5pct,top_25,-1992.3001154534936,-10209.092975131298,-1207.2568296773318,-1143.312019848617,-2161.5005321027174
bayes,scaled,train,val_tweet_sample_5pct,top_50,-1927.6553007976768,-19589.441309428992,-2380.167206863665,-9098.459570526573,-2085.4420069901603
bayes,scaled,train,val_tweet_sample_5pct,all,-2064.463563251677,-642.5069182356792,-960.2231555016127,-476.9748797257578,-2029.6203006362227
bayes,scaled,train,test_tweet_sample_5pct,top_5,-2005.2814944516683,-746.04780255604,-1184.7230961886125,-479.0966394481229,-2148.9627498531595
bayes,scaled,train,test_tweet_sample_5pct,top_10,-2346.209074483122,-1386.9134226440754,-1214.7556193219439,-479.0966394481229,-2147.3352655043886
bayes,scaled,train,test_tweet_sample_5pct,top_25,-2014.6881191200275,-10427.833885862054,-1218.2235037690316,-1240.6949755004387,-2169.1143366130095
bayes,scaled,train,test_tweet_sample_5pct,top_50,-1962.2483812071368,-19382.334523330097,-2425.2277673699405,-9946.303654264764,-2108.221438513326
bayes,scaled,train,test_tweet_sample_5pct,all,-2074.5555596163235,-645.9246460876343,-962.351315395546,-479.0966394481229,-2040.6459281398834
bayes,scaled,train,val+test_tweet_sample_5pct,top_5,-2009.1385918259134,-739.1970667227101,-1180.9150569238693,-478.04170794948465,-2147.433870351644
bayes,scaled,train,val+test_tweet_sample_5pct,top_10,-2324.6083808606218,-1382.0438783256934,-1207.6408737758036,-478.04170794948465,-2128.517510067948
bayes,scaled,train,val+test_tweet_sample_5pct,top_25,-1971.0535328384826,-9030.229466417068,-1136.3316703995667,-813.6841202489082,-2166.1289707046844
bayes,scaled,train,val+test_tweet_sample_5pct,top_50,-1910.8557508181354,-18680.184107045472,-2122.5301954321135,-6519.523240322397,-2105.2557182001533
bayes,scaled,train,val+test_tweet_sample_5pct,all,-2051.682969771234,-644.2241388731437,-961.2898519946103,-478.04170794948465,-2031.9669634272198
bayes,scaled,train,train_random_sample_10pct,top_5,-2089.8887452222807,-818.7503984290082,-1329.2125010913485,-492.87399871717855,-2198.411640831082
bayes,scaled,train,train_random_sample_10pct,top_10,-2212.38052260599,-861.9032111891992,-1331.6069977196887,-492.87399871717827,
