algorithm,note,trained_on,sample,feature_selection,like,reply,retweet,quote,react
bayes,scaled,train,train_random_sample_1pct,all,-2067.7339779122426,-12590.12054752251,-3977.938883605263,-27208.171684950932,-1976.8121365928878
bayes,scaled,train,train_random_sample_1pct,top_10,-2028.3461196502176,-824.8539610937332,-1292.5969089043992,-492.35196329572335,-2090.7872683349046
bayes,scaled,train,train_random_sample_1pct,top_25,-2107.2165151083577,-4019.311633871597,-2807.5720317289165,-11798.499292557644,-2032.566447612921
bayes,scaled,train,train_random_sample_1pct,top_5,-2087.1786682825737,-788.4456885275653,-1241.9969715383031,-492.35196329572335,-2197.038618819892
bayes,scaled,train,train_random_sample_1pct,top_50,-2104.0462086133607,-7360.016269478574,-3071.55771135185,-14646.715112532856,-2014.764720172936
bayes,scaled,train,val_random_sample_1pct,all,-2295.328512200533,-16741.683490449224,-4902.814072739931,-37114.26518129837,-2142.3118890822893
bayes,scaled,train,val_random_sample_1pct,top_10,-2297.020090338667,-892.9938029712436,-1192.4621659495206,-474.4591065367148,-2110.4481030000484
bayes,scaled,train,val_random_sample_1pct,top_25,-2205.506853704104,-3771.8816456583418,-1548.422933924469,-3864.441507165155,-2215.3645882924648
bayes,scaled,train,val_random_sample_1pct,top_5,-2011.5003025200515,-793.1283781636882,-1157.527183397985,-474.4591065367148,-2166.1375678357113
bayes,scaled,train,val_random_sample_1pct,top_50,-2251.2883603324576,-10601.374646255761,-2065.839330849451,-6015.531650680225,-2164.8364422039817
bayes,scaled,train,test_random_sample_1pct,all,-2317.235804144144,-16420.95665672985,-4797.973759417737,-35257.97049549455,-2152.718194616001
bayes,scaled,train,test_random_sample_1pct,top_10,-2338.631372356995,-927.7234067043381,-1197.004132415088,-475.2802410120073,-2109.0704390703518
bayes,scaled,train,test_random_sample_1pct,top_25,-2193.261928662913,-2792.2030547891277,-1390.114406509219,-2903.555282152267,-2213.1348985603327
bayes,scaled,train,test_random_sample_1pct,top_5,-2022.6550057272152,-799.8388257802126,-1165.7003085959045,-475.2802410120073,-2173.840134643724
bayes,scaled,train,test_random_sample_1pct,top_50,-2241.38926585722,-9618.929883362758,-1697.1403923796688,-3457.9444337068617,-2183.07142046965
bayes,scaled,train,val+test_random_sample_1pct,all,-2304.583657237496,-16480.4575628362,-4974.5254499631155,-37419.14443936145,-2148.1669736476783
bayes,scaled,train,val+test_random_sample_1pct,top_10,-2320.797907878715,-905.1545843688664,-1215.9129319396463,-474.8718083362333,-2114.453919411771
bayes,scaled,train,val+test_random_sample_1pct,top_25,-2225.5403460740004,-3952.666610360821,-1668.8997467660934,-4283.013257493491,-2223.1804647511785
bayes,scaled,train,val+test_random_sample_1pct,top_5,-2027.7290305387241,-794.2878636495833,-1170.9689234728685,-474.8718083362333,-2171.025035738348
bayes,scaled,train,val+test_random_sample_1pct,top_50,-2264.739544361929,-10378.341469606385,-2146.2345999704294,-7217.2446090146195,-2185.8200332663173
bayes,scaled,train,train_EWU_sample_1pct,top_5,-1993.926610567672,-1508.4560770914734,-1346.5634189978646,-498.8142439859282,-2114.5159705836154
bayes,scaled,train,train_EWU_sample_1pct,top_10,-2220.087067756339,-3218.6500367635595,-1362.6237909254248,-502.6115108334749,-2086.7848092100962
bayes,scaled,train,train_EWU_sample_1pct,top_25,-1906.6835009824695,-7656.45801127164,-2638.9568011211827,-11074.947319999961,-1754.7938328360724
bayes,scaled,train,train_EWU_sample_1pct,top_50,-1946.6540967571627,-11822.619328721064,-3225.685471584881,-21798.792474933016,-1807.0319442992675
bayes,scaled,train,train_EWU_sample_1pct,all,-1842.54687792685,-12468.743479898922,-3275.2874658987566,-32572.09628098113,-1741.1580544066323
bayes,scaled,train,val_EWU_sample_1pct,top_5,-2129.08665884958,-1830.720765698,-1478.2540787256808,-494.3425971921978,-2025.8774500363158
bayes,scaled,train,val_EWU_sample_1pct,top_10,-2029.2853891553668,-881.4787549732785,-1394.7573232627128,-481.7680683020713,-2265.494195524875
bayes,scaled,train,val_EWU_sample_1pct,top_25,-2027.4057850172887,-5894.767717032776,-5325.154520103885,-31581.938479447334,-2309.7386895458967
bayes,scaled,train,val_EWU_sample_1pct,top_50,-2030.541162098709,-1038.8319847271441,-3950.845847452698,-21695.00325468984,-2298.0605802913396
bayes,scaled,train,val_EWU_sample_1pct,all,-2028.293780445737,-1588.0601430546033,-3367.003859454551,-18480.114630987548,-2286.0428834087825
bayes,scaled,train,test_EWU_sample_1pct,top_5,-2139.2075324585903,-1777.572412156677,-1497.549297591596,-483.87822425583465,-1965.9678058283066
bayes,scaled,train,test_EWU_sample_1pct,top_10,-2039.9220327060605,-876.1621536085469,-1390.8748535829272,-471.5758110688133,-2258.340033195269
bayes,scaled,train,test_EWU_sample_1pct,top_25,-2044.1960085630953,-6155.935567046761,-5641.219379502109,-36018.93255576664,-2309.353807390133
bayes,scaled,train,test_EWU_sample_1pct,top_50,-2040.624436437088,-1245.54412289046,-4214.923210758462,-25573.235558335542,-2284.1555447523488
bayes,scaled,train,test_EWU_sample_1pct,all,-2043.3294007830973,-1647.693266676962,-3486.923961861131,-20711.88892564064,-2281.1836253229003
bayes,scaled,train,val+test_EWU_sample_1pct,top_5,-2151.4157927860115,-1794.8233281462212,-1482.801003857394,-493.2894264919471,-1996.3655096311456
bayes,scaled,train,val+test_EWU_sample_1pct,top_10,-2034.3483693375629,-889.5003681005792,-1394.5991184303928,-476.84582881944124,-2256.014046030322
bayes,scaled,train,val+test_EWU_sample_1pct,top_25,-2028.609753860007,-5834.694535609513,-5405.860524684195,-32854.7411151228,-2304.2381124532576
bayes,scaled,train,val+test_EWU_sample_1pct,top_50,-2035.5445961682944,-1100.887504886083,-4038.507552913906,-22948.13806122301,-2292.861198849563
bayes,scaled,train,val+test_EWU_sample_1pct,all,-2038.365926618512,-1597.8189308463993,-3570.6945905122466,-19902.51659462933,-2281.086344643013
bayes,scaled,train,train_EU_sample_1pct,top_5,-2093.1504207746766,-773.0004475415773,-1211.1705033940575,-494.4049660721746,-2203.6959029852264
bayes,scaled,train,train_EU_sample_1pct,top_10,-1919.0095031559076,-808.2193787908677,-1269.0204669870475,-494.4049660721746,-2000.1619724302186
bayes,scaled,train,train_EU_sample_1pct,top_25,-1881.51685508762,-1039.160388663119,-1904.0072261756507,-5141.190334091034,-1885.752034990985
bayes,scaled,train,train_EU_sample_1pct,top_50,-1700.6947854978155,-5410.340785712818,-1818.8001613441668,-9109.04449757942,-1846.002849297651
bayes,scaled,train,train_EU_sample_1pct,all,-1608.8148292968426,-12117.114543066737,-3019.4700173125293,-24754.72648526541,-1691.7853729841006
bayes,scaled,train,val_EU_sample_1pct,top_5,-2016.0195347498611,-760.1473556963539,-1146.4375546033825,-480.3056373952786,-2151.8925720447187
bayes,scaled,train,val_EU_sample_1pct,top_10,-2298.413270676041,-899.1490765332378,-1170.5867004671125,-480.3056373952786,-2121.1241126292216
bayes,scaled,train,val_EU_sample_1pct,top_25,-2741.299374044109,-711.9523004157066,-1814.5651483230008,-2405.543083087349,-2352.8011261227725
bayes,scaled,train,val_EU_sample_1pct,top_50,-2441.2542547199328,-10666.591885662509,-7225.307244865435,-19693.074967720702,-2236.379450246512
bayes,scaled,train,val_EU_sample_1pct,all,-2356.579670624089,-16010.369677546874,-5222.583974708306,-33497.88144539628,-2139.191825955802
bayes,scaled,train,test_EU_sample_1pct,top_5,-2023.9724936229545,-765.0844133812344,-1141.8161281784219,-472.72748284920823,-2161.1912151878573
bayes,scaled,train,test_EU_sample_1pct,top_10,-2306.025014177829,-887.2964558179733,-1157.9805883593267,-472.72748284920823,-2109.3521422652884
bayes,scaled,train,test_EU_sample_1pct,top_25,-2711.000731128422,-742.1698076917519,-1859.4138102732925,-2344.1951337502696,-2332.8571915485945
bayes,scaled,train,test_EU_sample_1pct,top_50,-2426.5976807841234,-10867.374239006043,-7361.049233852239,-20351.71625348093,-2224.3130014413664
bayes,scaled,train,test_EU_sample_1pct,all,-2340.5474032723305,-15790.365167965263,-5315.470758173343,-35677.02720782604,-2137.71437714608
bayes,scaled,train,val+test_EU_sample_1pct,top_5,-2019.548628477129,-763.7806259285206,-1154.0588970424221,-476.55096405661203,-2160.1368768602106
bayes,scaled,train,val+test_EU_sample_1pct,top_10,-2300.650312403465,-896.9610008543997,-1173.1467332758152,-476.55096405661203,-2112.525501089101
bayes,scaled,train,val+test_EU_sample_1pct,top_25,-2719.12146050715,-732.2152613707718,-1977.947165431069,-2364.207474653593,-2335.7836604555623
bayes,scaled,train,val+test_EU_sample_1pct,top_50,-2435.8561952482332,-10804.91441407108,-7328.018835068446,-20995.511574951568,-2226.31569689876
bayes,scaled,train,val+test_EU_sample_1pct,all,-2339.982252555268,-15762.133256230049,-5235.05763263773,-34320.50875689096,-2136.638241120928
bayes,scaled,train,train_inter_EWU+EU_sample_1pct,top_5,-2092.5553040745262,-866.4613491231146,-1298.4598046201072,-493.1037076771711,-2192.026743057695
bayes,scaled,train,train_inter_EWU+EU_sample_1pct,top_10,-2231.9362336733866,-882.6568920777655,-1285.5428949962327,-493.1037076771711,-2103.959967303111
bayes,scaled,train,train_inter_EWU+EU_sample_1pct,top_25,-1976.8053480917706,-7056.759282462741,-2428.1923074538972,-7141.504490031399,-1869.6289925765368
bayes,scaled,train,train_inter_EWU+EU_sample_1pct,top_50,-1999.132432978103,-13395.990502237895,-2970.0618575414314,-13377.667275691803,-1883.020413584255
bayes,scaled,train,train_inter_EWU+EU_sample_1pct,all,-1865.062981144326,-13832.819057006003,-3598.817974013867,-28718.51776341721,-1803.6814219599225
bayes,scaled,train,val_inter_EWU+EU_sample_1pct,top_5,-2036.084058879676,-919.2669375131433,-1393.4758336534433,-475.83855149807135,-2090.618108988848
bayes,scaled,train,val_inter_EWU+EU_sample_1pct,top_10,-2036.4268802189042,-742.1602127374191,-1377.873531563418,-475.83855149807135,-2194.1996385518955
bayes,scaled,train,val_inter_EWU+EU_sample_1pct,top_25,-2132.287193639292,-957.5222414994536,-5242.345717457018,-29093.912982111182,-2282.241532244844
bayes,scaled,train,val_inter_EWU+EU_sample_1pct,top_50,-2015.6388494696728,-674.7179816097574,-4534.65195936938,-26723.055275314862,-2265.918747885625
bayes,scaled,train,val_inter_EWU+EU_sample_1pct,all,-2084.6080762544093,-896.0307532166571,-3601.1864051359007,-19548.93392547017,-2268.423075903669
bayes,scaled,train,test_inter_EWU+EU_sample_1pct,top_5,-2010.955008767078,-925.1168147029387,-1385.6250115947732,-477.14495203165006,-2090.606656287664
bayes,scaled,train,test_inter_EWU+EU_sample_1pct,top_10,-2002.5790211722885,-750.5028230428978,-1367.2279180533694,-477.14495203165006,-2137.556513863556
bayes,scaled,train,test_inter_EWU+EU_sample_1pct,top_25,-2125.420393476886,-986.405294423894,-5402.20922625786,-29306.750778954738,-2265.254286138649
bayes,scaled,train,test_inter_EWU+EU_sample_1pct,top_50,-1984.0386019107016,-682.2761709641319,-4645.296078083199,-26624.171584743573,-2215.9165000301027
bayes,scaled,train,test_inter_EWU+EU_sample_1pct,all,-2043.078123735359,-864.9850528659348,-3658.4707031932953,-18908.73733127457,-2206.433039946316
bayes,scaled,train,val+test_inter_EWU+EU_sample_1pct,top_5,-2023.7643357466425,-926.0060086005279,-1393.4457347045395,-476.49354171110235,-2091.2219858741987
bayes,scaled,train,val+test_inter_EWU+EU_sample_1pct,top_10,-2019.8541384193286,-749.4211651113188,-1382.1384869700912,-476.49354171110235,-2167.957517685679
bayes,scaled,train,val+test_inter_EWU+EU_sample_1pct,top_25,-2155.028360658021,-1111.1770471695404,-5506.662460156388,-32021.398825055734,-2283.285901057238
bayes,scaled,train,val+test_inter_EWU+EU_sample_1pct,top_50,-1998.2628411955066,-685.0264064370526,-4843.6898766723825,-29783.244545085734,-2247.807115817652
bayes,scaled,train,val+test_inter_EWU+EU_sample_1pct,all,-2068.076306458884,-984.9632601404413,-3773.543830255349,-20588.04143033951,-2236.0158592460853
bayes,scaled,train,train_tweet_sample_1pct,top_5,-2075.1241220469647,-802.2031678733572,-1163.7412794329214,-493.76821504711853,-2187.9103377162883
bayes,scaled,train,train_tweet_sample_1pct,top_10,-2111.797525726041,-1167.9887925485752,-1263.133334167177,-493.76821504711853,-2165.358699224256
bayes,scaled,train,train_tweet_sample_1pct,top_25,-2089.931751630188,-6976.458626388232,-2862.028927379029,-9386.3476544401,-2060.7235633296204
bayes,scaled,train,train_tweet_sample_1pct,top_50,-2047.1376739238567,-11790.37966262209,-3656.956274194678,-17059.563704982178,-2041.8677941063627
bayes,scaled,train,train_tweet_sample_1pct,all,-2030.7126442851013,-13626.983840630603,-4075.9254710748205,-26486.830798704526,-1946.3667462220553
bayes,scaled,train,val_tweet_sample_1pct,top_5,-2030.7770620802744,-780.0054450282463,-1083.4233544053518,-475.59597191316686,-2162.538860837996
bayes,scaled,train,val_tweet_sample_1pct,top_10,-2396.0676052609065,-1620.7625557861998,-1148.3823489623107,-475.59597191316686,-2179.068265973492
bayes,scaled,train,val_tweet_sample_1pct,top_25,-2120.7727681568576,-9680.711957158814,-1589.1162167364428,-1201.800996151177,-2259.0204485416502
bayes,scaled,train,val_tweet_sample_1pct,top_50,-1969.035435591817,-20475.71811892464,-3302.960872141922,-11446.478077284268,-2212.248347816563
bayes,scaled,train,val_tweet_sample_1pct,all,-2148.0875367321,-20939.69334968693,-5144.621807729135,-35045.626734236546,-2172.6845118683946
bayes,scaled,train,test_tweet_sample_1pct,top_5,-2028.4357810104104,-771.5718809921219,-1096.3512982799853,-476.87127502792015,-2109.5810161466557
bayes,scaled,train,test_tweet_sample_1pct,top_10,-2352.8643282965368,-1531.5827244085308,-1164.7669467914661,-476.87127502792015,-2158.353561058393
bayes,scaled,train,test_tweet_sample_1pct,top_25,-2147.145396763482,-9787.597841619756,-1453.7163760386481,-1001.5381491831166,-2263.821242870247
bayes,scaled,train,test_tweet_sample_1pct,top_50,-1957.623390310116,-19862.099519752413,-3385.275239470765,-11838.020375198792,-2220.05140460309
bayes,scaled,train,test_tweet_sample_1pct,all,-2174.9465292253626,-20500.563756497333,-5274.772736376364,-35600.53241907652,-2195.1016359214173
bayes,scaled,train,val+test_tweet_sample_1pct,top_5,-2024.0032826717638,-780.5716935282782,-1093.7725561435557,-476.2344890362458,-2111.01523169992
bayes,scaled,train,val+test_tweet_sample_1pct,top_10,-2082.864598840106,-1489.5939899820758,-1170.8258596684268,-476.2344890362458,-2122.243659843125
bayes,scaled,train,val+test_tweet_sample_1pct,top_25,-2117.5343322599592,-9081.657664978657,-1531.2512215561844,-1000.0206229637668,-2254.5950189722494
bayes,scaled,train,val+test_tweet_sample_1pct,top_50,-1957.9021048168188,-19739.31832629239,-3106.792579590496,-9159.925459123211,-2216.4096491317937
bayes,scaled,train,val+test_tweet_sample_1pct,all,-2150.622053864682,-20531.438748424054,-5174.022866874702,-34833.76941786384,-2174.917982287521
bayes,scaled,train,train_random_sample_2pct,top_5,-2094.0601881109856,-799.1358130325572,-1235.5200484015006,-493.4602810347082,-2202.446523788408
bayes,scaled,train,train_random_sample_2pct,top_10,-1981.9904525714105,-849.4190375352167,-1282.259832632466,-493.4602810347082,-2098.8899852670365
bayes,scaled,train,train_random_sample_2pct,top_25,-2049.9233880420693,-2642.14304190868,-2253.103196184817,-3681.8046658415888,-1974.4040194345432
bayes,scaled,train,train_random_sample_2pct,top_50,-2069.021763757169,-8969.646333326253,-2720.183629193657,-8851.597843131098,-1967.0056410670707
bayes,scaled,train,train_random_sample_2pct,all,-2000.5311380933606,-13301.396969262498,-3929.298575056112,-26148.61413777941,-1930.766139339229
bayes,scaled,train,val_random_sample_2pct,top_5,-2040.2784890691046,-805.5339484240835,-1164.0324532194093,-475.2325817090963,-2158.4165347825187
bayes,scaled,train,val_random_sample_2pct,top_10,-2312.4455405797353,-1020.2553609251027,-1186.7010499162393,-475.2325817090963,-2100.032195987604
bayes,scaled,train,val_random_sample_2pct,top_25,-2125.1038900792582,-3696.025470902755,-1354.366488158778,-2012.0277105546984,-2092.8931542594974
bayes,scaled,train,val_random_sample_2pct,top_50,-2159.3832003950633,-13513.147779465393,-1646.2384160887634,-2786.7372784165673,-2043.3465527081642
bayes,scaled,train,val_random_sample_2pct,all,-2189.910190721484,-16139.148185966284,-4592.9458681342885,-32987.78372941332,-2058.3552103522948
bayes,scaled,train,test_random_sample_2pct,top_5,-2035.3796271313336,-801.8758831072629,-1181.3402009180381,-479.3268318211646,-2168.409328555374
bayes,scaled,train,test_random_sample_2pct,top_10,-2255.6989449136045,-957.8560619728372,-1209.870263738818,-479.3268318211646,-2087.7182798699496
bayes,scaled,train,test_random_sample_2pct,top_25,-2120.7966041193367,-3251.8281151680544,-1330.2457146727604,-1607.3677922227625,-2081.7023275931642
bayes,scaled,train,test_random_sample_2pct,top_50,-2142.812120518848,-13058.264266272106,-1534.3494467975895,-2246.375786214962,-2038.3246342681634
bayes,scaled,train,test_random_sample_2pct,all,-2165.147281632123,-15691.964480238692,-4441.773015444327,-30330.07101200312,-2054.7420157649403
bayes,scaled,train,val+test_random_sample_2pct,top_5,-2037.3620385008685,-803.1216226582777,-1168.1847164670094,-477.30184405728244,-2159.1400383416203
bayes,scaled,train,val+test_random_sample_2pct,top_10,-2297.003710500552,-1017.4106425682768,-1194.3709686124862,-477.30184405728244,-2095.5623136286326
bayes,scaled,train,val+test_random_sample_2pct,top_25,-2109.086212747032,-3056.9590298723438,-1286.8034486165545,-1432.4254690739106,-2094.0043429391285
bayes,scaled,train,val+test_random_sample_2pct,top_50,-2143.9651956054017,-12602.479331342143,-1476.0307404171522,-2049.477590747439,-2051.3825433760426
bayes,scaled,train,val+test_random_sample_2pct,all,-2173.560464409234,-15666.091025439859,-4480.925927390119,-31343.494633757364,-2056.368701679923
bayes,scaled,train,train_EWU_sample_2pct,top_5,-2058.4785203823103,-979.9883682468684,-1264.759004471342,-489.1884675474006,-2134.016458010784
bayes,scaled,train,train_EWU_sample_2pct,top_10,-2209.6358858161248,-2202.407142626827,-1231.6314685737516,-489.1884675474006,-2078.5181029521505
bayes,scaled,train,train_EWU_sample_2pct,top_25,-1861.0179120387438,-9058.438310933094,-2685.968284680016,-13488.158339197107,-1748.049681456721
bayes,scaled,train,train_EWU_sample_2pct,top_50,-1868.2816033512602,-12602.548355513567,-3434.2277129528425,-28526.913667012417,-1789.4923901614304
bayes,scaled,train,train_EWU_sample_2pct,all,-1745.7089675336667,-12888.278328596129,-3499.605295301191,-35027.13179649325,-1714.5571517947974
bayes,scaled,train,val_EWU_sample_2pct,top_5,-2030.8295337812506,-1032.3417663073983,-1349.2007143515507,-479.6554793804298,-2162.18959806949
bayes,scaled,train,val_EWU_sample_2pct,top_10,-2002.567729361946,-682.2832436633727,-1181.317589427916,-479.6554793804298,-2243.243529788361
bayes,scaled,train,val_EWU_sample_2pct,top_25,-1964.454667557104,-1348.6518729571487,-6149.642571370824,-33591.68758554648,-2260.014259358945
bayes,scaled,train,val_EWU_sample_2pct,top_50,-1954.3411796759922,-642.4621378335327,-4632.344795902573,-23049.28480865541,-2216.3659696166515
bayes,scaled,train,val_EWU_sample_2pct,all,-1958.458662042305,-642.8857662016342,-3927.1426327172194,-15542.188045594941,-2203.381350903417
bayes,scaled,train,test_EWU_sample_2pct,top_5,-2001.7103631544503,-1005.5467276564316,-1344.9628479205035,-475.95585622587197,-2101.1389897697627
bayes,scaled,train,test_EWU_sample_2pct,top_10,-2024.020278172803,-685.7748268295352,-1156.7231493937281,-475.95585622587197,-2249.5147915944603
bayes,scaled,train,test_EWU_sample_2pct,top_25,-2023.8453031825682,-1403.8984770495756,-6144.290777408044,-34587.92314746571,-2304.425317553412
bayes,scaled,train,test_EWU_sample_2pct,top_50,-2002.6592660281167,-642.4309137807193,-4683.427389703814,-24012.13708061388,-2243.258633690492
bayes,scaled,train,test_EWU_sample_2pct,all,-2000.366331767879,-643.6103388716841,-3968.0508986502473,-16228.955571851267,-2233.205891388752
bayes,scaled,train,val+test_EWU_sample_2pct,top_5,-2015.6193903508097,-1018.583760389042,-1341.3502242275333,-477.8569737216865,-2132.3647160123264
bayes,scaled,train,val+test_EWU_sample_2pct,top_10,-2013.0329072959423,-686.3715738079851,-1162.3032491062472,-477.8569737216865,-2245.5467859210466
bayes,scaled,train,val+test_EWU_sample_2pct,top_25,-1980.752135748324,-1107.2991433081938,-6061.530962416921,-31843.939633653485,-2276.406775699339
bayes,scaled,train,val+test_EWU_sample_2pct,top_50,-1980.2832362176327,-642.2304829650909,-4471.626289766909,-21520.615886053136,-2240.649267907816
bayes,scaled,train,val+test_EWU_sample_2pct,all,-1977.6572821490845,-643.2402456025877,-3949.34657067184,-15500.81820865316,-2216.678719137009
bayes,scaled,train,train_EU_sample_2pct,top_5,-2090.8814671532346,-759.4563578948814,-1284.6161863672592,-495.1807935208757,-2183.570101361412
bayes,scaled,train,train_EU_sample_2pct,top_10,-1981.813290733276,-810.6700138782378,-1312.6739870290144,-495.1807935208757,-2102.8172217726237
bayes,scaled,train,train_EU_sample_2pct,top_25,-1865.3192638477008,-2138.5408116705053,-1924.0509281282348,-4937.807086527117,-1858.0464504745873
bayes,scaled,train,train_EU_sample_2pct,top_50,-1873.8238426285463,-8422.105212846964,-1877.0037706805927,-9542.469390494063,-1868.1841916022033
bayes,scaled,train,train_EU_sample_2pct,all,-1593.2887244680298,-12874.090278983304,-3083.374754449667,-25742.009659199637,-1690.3780559225454
bayes,scaled,train,val_EU_sample_2pct,top_5,-2017.717528631056,-761.0732382798652,-1190.6744904917855,-480.1967869422422,-2144.8361495053828
bayes,scaled,train,val_EU_sample_2pct,top_10,-2245.0854883022885,-902.4550600668463,-1191.618669218618,-480.1967869422422,-2094.235365569438
bayes,scaled,train,val_EU_sample_2pct,top_25,-2698.8405381254497,-806.2350130980728,-1977.938646239,-2274.932590614868,-2314.8550616760485
bayes,scaled,train,val_EU_sample_2pct,top_50,-2562.936622390001,-9851.64618966775,-5495.047141186958,-7817.415587079517,-2235.7641844491773
bayes,scaled,train,val_EU_sample_2pct,all,-2259.3825788260433,-15948.749756599756,-5132.180505090272,-34166.31302974688,-2061.302704639506
bayes,scaled,train,test_EU_sample_2pct,top_5,-2030.5053243185864,-747.1419627951068,-1199.0161949360656,-478.72676735357214,-2155.859407796625
bayes,scaled,train,test_EU_sample_2pct,top_10,-2284.800952532699,-918.1747648487633,-1205.736709717273,-478.72676735357214,-2101.7948121775257
bayes,scaled,train,test_EU_sample_2pct,top_25,-2676.8420382211248,-826.0587504584221,-1783.850132957731,-2138.8086305974507,-2298.5990638517333
bayes,scaled,train,test_EU_sample_2pct,top_50,-2542.7698683655162,-9885.318921010141,-5309.872428869282,-7552.8051468005815,-2223.558080566247
bayes,scaled,train,test_EU_sample_2pct,all,-2259.6150285124922,-15780.049981602739,-5044.903403725545,-34856.466781596406,-2065.7767878533937
bayes,scaled,train,val+test_EU_sample_2pct,top_5,-2024.5031719004944,-753.8739885984627,-1188.206864151716,-479.4601179774569,-2150.0968874553864
bayes,scaled,train,val+test_EU_sample_2pct,top_10,-2251.3043777092307,-906.491764609606,-1197.9324872852756,-479.4601179774569,-2092.17646029155
bayes,scaled,train,val+test_EU_sample_2pct,top_25,-2671.3874575775994,-754.6556879137765,-1562.5262068430795,-1561.7780114131244,-2284.051335493351
bayes,scaled,train,val+test_EU_sample_2pct,top_50,-2538.3872385841682,-8719.055233464182,-4989.945025222923,-5587.563544111782,-2211.1538724552397
bayes,scaled,train,val+test_EU_sample_2pct,all,-2251.187256636877,-15628.13087801232,-5057.739262245636,-33887.95628603377,-2057.670036194459
bayes,scaled,train,train_inter_EWU+EU_sample_2pct,top_5,-2094.0256705332113,-932.2307508363327,-1346.7407146497126,-494.31832837175887,-2182.01386537206
bayes,scaled,train,train_inter_EWU+EU_sample_2pct,top_10,-2189.1549671314547,-944.351269610571,-1346.0447995518218,-494.31832837175887,-2075.566155413804
bayes,scaled,train,train_inter_EWU+EU_sample_2pct,top_25,-1920.3860805185168,-7415.786423282533,-2529.6697242060845,-7786.090346005601,-1814.9458553115398
bayes,scaled,train,train_inter_EWU+EU_sample_2pct,top_50,-1938.8578218184373,-13237.62571600245,-3156.0961385928526,-17679.259694531494,-1819.7125119282034
bayes,scaled,train,train_inter_EWU+EU_sample_2pct,all,-1789.4278709504438,-13726.250419145037,-3665.9777184072773,-31706.976623477418,-1745.1500568324275
bayes,scaled,train,val_inter_EWU+EU_sample_2pct,top_5,-2022.2571959319073,-966.3773530209012,-1449.4163019007538,-477.1678507677187,-2125.4161917736865
bayes,scaled,train,val_inter_EWU+EU_sample_2pct,top_10,-2007.6249999687973,-762.4156110331172,-1411.294100307952,-477.1678507677187,-2137.3086735579527
bayes,scaled,train,val_inter_EWU+EU_sample_2pct,top_25,-2196.338786748719,-1783.9717124937995,-5712.039198614784,-30470.118394560785,-2270.7387045512105
bayes,scaled,train,val_inter_EWU+EU_sample_2pct,top_50,-1974.5116065343373,-866.6531791822119,-5017.442975124,-26585.32424479734,-2225.886508471939
bayes,scaled,train,val_inter_EWU+EU_sample_2pct,all,-2036.3564184212432,-2580.16489874857,-3793.464670232098,-21511.89595831049,-2197.3590178211803
bayes,scaled,train,test_inter_EWU+EU_sample_2pct,top_5,-2018.3217205107687,-977.6791867549339,-1458.899309168097,-476.86577568597914,-2102.795683449082
bayes,scaled,train,test_inter_EWU+EU_sample_2pct,top_10,-1992.5496950030679,-741.5088260927355,-1425.2600252528002,-476.86577568597914,-2145.123533350364
bayes,scaled,train,test_inter_EWU+EU_sample_2pct,top_25,-2088.0399474134438,-1111.2664417868266,-5304.672204021347,-27283.52803216733,-2242.0824502345467
bayes,scaled,train,test_inter_EWU+EU_sample_2pct,top_50,-1971.4967823586176,-737.0797984471299,-4549.961069086413,-23450.6534590822,-2209.590788261636
bayes,scaled,train,test_inter_EWU+EU_sample_2pct,all,-2009.5078079262798,-2107.811467767515,-3651.2477288653527,-20247.444138540934,-2178.7387260814667
bayes,scaled,train,val+test_inter_EWU+EU_sample_2pct,top_5,-2017.492378924673,-983.1217959422087,-1458.7544709217407,-476.8514465782988,-2114.1470619562333
bayes,scaled,train,val+test_inter_EWU+EU_sample_2pct,top_10,-2004.7189611562646,-744.5296579290689,-1425.4588659884234,-476.8514465782988,-2155.0490213352664
bayes,scaled,train,val+test_inter_EWU+EU_sample_2pct,top_25,-2157.1112101980907,-1595.1726946799686,-5797.085527742618,-32135.678825075003,-2265.689730892356
bayes,scaled,train,val+test_inter_EWU+EU_sample_2pct,top_50,-1959.9254537205009,-795.6170936490934,-5080.246762815896,-27897.55361994888,-2225.6374374599814
bayes,scaled,train,val+test_inter_EWU+EU_sample_2pct,all,-2014.242967967408,-2232.711211984956,-3792.9727834094015,-21737.84234815252,-2194.328341375876
bayes,scaled,train,train_tweet_sample_2pct,top_5,-2088.649699975384,-772.1196544562391,-1211.7374167053872,-493.8929895346391,-2184.7419867383223
bayes,scaled,train,train_tweet_sample_2pct,top_10,-1990.139345893108,-1005.955112379007,-1290.4366014956213,-493.8929895346391,-2018.157466625844
bayes,scaled,train,train_tweet_sample_2pct,top_25,-2036.849852990349,-6893.397939498831,-2657.166287522153,-10040.727487060776,-2008.6778307054456
bayes,scaled,train,train_tweet_sample_2pct,top_50,-1991.9033728645147,-12761.504397432098,-3252.536291109127,-17761.516917305158,-1994.0786602603328
bayes,scaled,train,train_tweet_sample_2pct,all,-1988.6877746438447,-13784.567837143148,-3852.190301801157,-27511.070245558047,-1888.7209993119366
bayes,scaled,train,val_tweet_sample_2pct,top_5,-2032.6880832736292,-768.4167302875928,-1151.2496944963436,-479.0698100357134,-2164.51983407294
bayes,scaled,train,val_tweet_sample_2pct,top_10,-2342.9611566446474,-1252.5506621719244,-1197.387207223158,-479.0698100357134,-2179.5344349830534
bayes,scaled,train,val_tweet_sample_2pct,top_25,-2117.60870214356,-9579.538836813384,-1421.9377314672631,-1855.8578636044706,-2231.130811037548
bayes,scaled,train,val_tweet_sample_2pct,top_50,-1961.6468617284906,-20141.282631199454,-2592.956759728116,-15374.807871613451,-2152.311499800396
bayes,scaled,train,val_tweet_sample_2pct,all,-2120.0068699623607,-19877.80276334133,-4584.255853802144,-37163.37288342326,-2109.709410874836
bayes,scaled,train,test_tweet_sample_2pct,top_5,-1998.0240824903528,-759.6845927538525,-1150.464050437444,-478.60756168803283,-2145.123006897785
bayes,scaled,train,test_tweet_sample_2pct,top_10,-2385.141405625054,-1305.5830858370448,-1195.696862574055,-478.60756168803283,-2176.9656055634077
bayes,scaled,train,test_tweet_sample_2pct,top_25,-2151.312091823794,-10187.259198355374,-1533.3669098684036,-2764.807733825036,-2241.369148261526
bayes,scaled,train,test_tweet_sample_2pct,top_50,-1986.4182757354044,-20318.542859888046,-2831.5222239517384,-18172.21074917376,-2166.172617294351
bayes,scaled,train,test_tweet_sample_2pct,all,-2131.90108273878,-19872.57405232738,-4667.1463527719425,-37873.20719472902,-2121.2201837688067
bayes,scaled,train,val+test_tweet_sample_2pct,top_5,-2019.596250663364,-769.2388507831903,-1165.5299065654665,-478.8383989177211,-2153.470720472981
bayes,scaled,train,val+test_tweet_sample_2pct,top_10,-2345.894927923264,-1274.5666205636435,-1209.8395213756326,-478.8383989177211,-2172.105863609822
bayes,scaled,train,val+test_tweet_sample_2pct,top_25,-2139.1170210441587,-9974.040925148436,-1541.2677955821698,-3024.979180096853,-2233.283993762873
bayes,scaled,train,val+test_tweet_sample_2pct,top_50,-1982.0519786251168,-19858.0619394934,-2805.089407975769,-16827.516933060182,-2156.376459809668
bayes,scaled,train,val+test_tweet_sample_2pct,all,-2128.124316321236,-19988.8873796303,-4690.515540244209,-38537.39257396445,-2111.5338234433784
bayes,scaled,train,train_random_sample_5pct,top_5,-2093.8388558245388,-795.7229490205016,-1308.2400940262773,-492.90126740289435,-2216.907191977049
bayes,scaled,train,train_random_sample_5pct,top_10,-2235.501594708777,-841.9223001474298,-1310.7256078071996,-492.90126740289435,-2098.5921764057994
bayes,scaled,train,train_random_sample_5pct,top_25,-2014.2694488509533,-5092.023553130308,-2397.48725266898,-6571.187171388477,-1927.3803056305026
bayes,scaled,train,train_random_sample_5pct,top_50,-2046.5145633612265,-12307.726904793559,-2910.1475135165033,-11809.976971630636,-1934.380849688296
bayes,scaled,train,train_random_sample_5pct,all,-1946.5136659027166,-13639.31989835267,-3874.281714537691,-27737.1934736998,-1876.2603864980122
bayes,scaled,train,val_random_sample_5pct,top_5,-2025.492568261577,-787.766256658775,-1202.7696950468035,-475.22388332251836,-2147.479257973599
bayes,scaled,train,val_random_sample_5pct,top_10,-2235.7034272849205,-977.678353832395,-1194.4258405373566,-475.22388332251836,-2076.324173591187
bayes,scaled,train,val_random_sample_5pct,top_25,-2027.0979279475725,-5949.549915520465,-1393.263468427711,-2416.3150560782897,-2004.9987289042456
bayes,scaled,train,val_random_sample_5pct,top_50,-2050.577669365648,-15614.599494538885,-1885.0969480745841,-4698.32462407513,-1956.29650552602
bayes,scaled,train,val_random_sample_5pct,all,-2077.862840438284,-15948.580407051042,-4581.391601781305,-35319.654533845736,-1971.866563753395
bayes,scaled,train,test_random_sample_5pct,top_5,-2017.7622046639008,-790.5758265696338,-1202.416234372788,-478.09866652579217,-2142.0843813748847
bayes,scaled,train,test_random_sample_5pct,top_10,-2230.0666999589907,-979.4138270303148,-1189.0251519681578,-478.09866652579217,-2072.6874578212937
bayes,scaled,train,test_random_sample_5pct,top_25,-2023.5567429634461,-6170.9825178094725,-1359.4451026743186,-2338.8317377801864,-2006.9493223342802
bayes,scaled,train,test_random_sample_5pct,top_50,-2044.716521619104,-15624.063682312268,-1546.0571746278079,-3769.428183276936,-1958.1365749410568
bayes,scaled,train,test_random_sample_5pct,all,-2074.8782169958927,-15889.98359407671,-4309.972326215177,-34044.787263796345,-1969.50912755715
bayes,scaled,train,val+test_random_sample_5pct,top_5,-2023.991100300153,-784.5440252141873,-1205.574248553739,-476.6738838099202,-2144.0452960771727
bayes,scaled,train,val+test_random_sample_5pct,top_10,-2232.134255936655,-983.3725250248108,-1205.5225246680093,-476.6738838099202,-2077.6735934193953
bayes,scaled,train,val+test_random_sample_5pct,top_25,-2012.3885164376209,-5275.322571023485,-1337.3150130612669,-1965.8384581884009,-2016.0290112978555
bayes,scaled,train,val+test_random_sample_5pct,top_50,-2037.044292178203,-14662.733159406333,-1576.3841591913074,-3100.2513796367357,-1967.6532476460816
bayes,scaled,train,val+test_random_sample_5pct,all,-2044.855478646119,-15590.384714422242,-4289.4156690899235,-33136.30483320837,-1960.7120573040977
bayes,scaled,train,train_EWU_sample_5pct,top_5,-2027.4850197152896,-1368.14326497501,-1466.8048128095447,-523.6205810481894,-2108.1336165291323
bayes,scaled,train,train_EWU_sample_5pct,top_10,-2173.8059237900807,-2697.5198425795816,-1515.489531030913,-508.8263014954113,-2025.9958749683194
bayes,scaled,train,train_EWU_sample_5pct,top_25,-1917.1228101425393,-9051.937036599978,-2801.1431130051174,-12234.48163834886,-1763.5228792007215
bayes,scaled,train,train_EWU_sample_5pct,top_50,-2062.3379399368505,-12459.125752423866,-3447.7270996186157,-24886.001303179386,-1889.214581992464
bayes,scaled,train,train_EWU_sample_5pct,all,-1933.3560421732464,-12796.806633468892,-3582.794336700809,-34098.213248528686,-1803.9748601502758
bayes,scaled,train,val_EWU_sample_5pct,top_5,-2107.9807537789075,-1511.8474260458636,-1762.9692645274317,-517.425674170215,-2184.9765017732707
bayes,scaled,train,val_EWU_sample_5pct,top_10,-2012.0806215351768,-878.0452409049983,-1516.8162346032898,-477.06689454532125,-2186.681928153344
bayes,scaled,train,val_EWU_sample_5pct,top_25,-1993.3806984214566,-2306.620327288643,-5329.662268818314,-33456.55752762605,-2274.3974839637604
bayes,scaled,train,val_EWU_sample_5pct,top_50,-2020.8772904487653,-698.3986923846179,-4014.3332828718817,-24050.113808000253,-2269.805992417798
bayes,scaled,train,val_EWU_sample_5pct,all,-2016.7074444700158,-730.6838674660806,-3710.9789363189534,-20540.74177616356,-2239.103382358237
bayes,scaled,train,test_EWU_sample_5pct,top_5,-2114.863348599794,-1595.237782060866,-1677.0306715906238,-514.8000375666911,-2182.9886550228407
bayes,scaled,train,test_EWU_sample_5pct,top_10,-2015.3206603809147,-880.3337814546976,-1467.9620501400475,-475.6100747020608,-2189.6140011739744
bayes,scaled,train,test_EWU_sample_5pct,top_25,-1991.3709721423431,-2338.3349348469033,-5207.368098942976,-33208.44097798561,-2271.580789271316
bayes,scaled,train,test_EWU_sample_5pct,top_50,-2020.4636974576374,-693.0743681311225,-3727.9408106965298,-22641.8890181374,-2272.424420386289
bayes,scaled,train,test_EWU_sample_5pct,all,-2018.2417847368747,-676.0354929119052,-3560.315390431565,-19520.257645730133,-2245.3777876424406
bayes,scaled,train,val+test_EWU_sample_5pct,top_5,-2103.0213848409508,-1600.8147808041947,-1719.9554908624966,-519.8780484885848,-2183.9760903132997
bayes,scaled,train,val+test_EWU_sample_5pct,top_10,-2011.1280441759784,-894.8460794629034,-1521.3438367387466,-476.3357579672991,-2195.143531880992
bayes,scaled,train,val+test_EWU_sample_5pct,top_25,-2023.106435362772,-2967.1644707632922,-5326.503360768605,-34124.898045692746,-2274.648269705659
bayes,scaled,train,val+test_EWU_sample_5pct,top_50,-2020.669191777396,-729.157855103643,-3989.217145460006,-23972.34278743312,-2263.0150722657213
bayes,scaled,train,val+test_EWU_sample_5pct,all,-2017.89918182104,-743.2241585146588,-3617.5458691466083,-19961.260415636483,-2240.843381221012
bayes,scaled,train,train_EU_sample_5pct,top_5,-2091.428691752112,-846.3121176879698,-1300.8100958593946,-493.1943728551168,-2213.619142473253
bayes,scaled,train,train_EU_sample_5pct,top_10,-2221.4765950850483,-883.9744335636075,-1323.4148440772794,-493.1943728551168,-2088.930391182239
bayes,scaled,train,train_EU_sample_5pct,top_25,-1852.0385984507209,-4921.3611321984945,-2017.865168220214,-7046.659704624665,-1832.4644022571485
bayes,scaled,train,train_EU_sample_5pct,top_50,-1888.6075609219765,-12167.287268333215,-2094.990594880502,-13344.297987960237,-1860.4723115613112
bayes,scaled,train,train_EU_sample_5pct,all,-1593.948837404248,-13533.807367256222,-3101.044770994939,-28568.600732809668,-1679.65723759323
bayes,scaled,train,val_EU_sample_5pct,top_5,-2009.8065193226803,-839.6846715215455,-1215.352414702924,-477.37776742625516,-2127.9420343433217
bayes,scaled,train,val_EU_sample_5pct,top_10,-2233.956736449288,-1110.4102459108094,-1190.8705641255558,-477.37776742625516,-2063.7954085751885
bayes,scaled,train,val_EU_sample_5pct,top_25,-2449.735318118924,-1970.9027733894532,-1401.3587305344581,-2348.678366126195,-2107.6818235592286
bayes,scaled,train,val_EU_sample_5pct,top_50,-2361.199537237449,-14848.738377537857,-4935.815168505588,-12948.60229094277,-2091.5572044205464
bayes,scaled,train,val_EU_sample_5pct,all,-2136.8099316294533,-15777.897586621926,-5016.576543957363,-38517.939496142586,-1981.8614658898127
bayes,scaled,train,test_EU_sample_5pct,top_5,-2012.0867409542975,-837.2987735191318,-1206.6631801688588,-477.26043094046616,-2132.8557509738393
bayes,scaled,train,test_EU_sample_5pct,top_10,-2225.7402519443945,-1036.1219437383045,-1189.0130609123905,-477.26043094046616,-2065.304966338528
bayes,scaled,train,test_EU_sample_5pct,top_25,-2453.6283931550447,-2918.277611395424,-1536.3282312372864,-2843.2525142377845,-2104.993476134015
bayes,scaled,train,test_EU_sample_5pct,top_50,-2371.222126105776,-15085.031518487192,-5253.929557993896,-15779.50340234248,-2094.31674503075
bayes,scaled,train,test_EU_sample_5pct,all,-2146.42625920704,-15471.505483875584,-4928.582490028659,-37803.78181567009,-1981.008600790726
bayes,scaled,train,val+test_EU_sample_5pct,top_5,-2011.3802294794168,-837.3318182384145,-1205.411241551825,-477.31882580639854,-2128.2056366335287
bayes,scaled,train,val+test_EU_sample_5pct,top_10,-2234.6270188460994,-1088.9576555024903,-1199.341476422843,-477.31882580639854,-2075.9141598411093
bayes,scaled,train,val+test_EU_sample_5pct,top_25,-2450.859210138947,-2265.3984617128103,-1464.4574551547464,-2496.8361369277145,-2103.216757400983
bayes,scaled,train,val+test_EU_sample_5pct,top_50,-2358.659318871449,-13881.553982297337,-4976.57474354164,-13718.876763351778,-2084.1359617524167
bayes,scaled,train,val+test_EU_sample_5pct,all,-2130.4429659164784,-15363.919683354587,-5014.561132392466,-37779.35528463855,-1978.7006736636706
bayes,scaled,train,train_inter_EWU+EU_sample_5pct,top_5,-2089.306884207289,-906.3617349681347,-1354.69985369117,-492.53105649787835,-2155.543200932715
bayes,scaled,train,train_inter_EWU+EU_sample_5pct,top_10,-2180.7218165686945,-967.0571924469605,-1335.1799142788802,-492.53105649787835,-2077.5419313463744
bayes,scaled,train,train_inter_EWU+EU_sample_5pct,top_25,-1883.9461626154487,-8843.136911505015,-2559.4411825454235,-10688.14545440053,-1779.6301668631452
bayes,scaled,train,train_inter_EWU+EU_sample_5pct,top_50,-1902.9443391820155,-13419.293766036653,-3129.9988172046405,-19767.63582257181,-1790.8736929061713
bayes,scaled,train,train_inter_EWU+EU_sample_5pct,all,-1726.2841492564844,-13656.022465811271,-3540.1192640341487,-32642.404573534004,-1705.9423952638683
bayes,scaled,train,val_inter_EWU+EU_sample_5pct,top_5,-2054.674874207271,-956.0941595816092,-1449.491248045456,-476.310673437173,-2085.0034500888405
bayes,scaled,train,val_inter_EWU+EU_sample_5pct,top_10,-1995.8358675287875,-752.7105557951136,-1408.5642457242013,-476.310673437173,-2128.887073721539
bayes,scaled,train,val_inter_EWU+EU_sample_5pct,top_25,-2057.587493237213,-3108.6047578055736,-4920.897541016089,-29118.975544172274,-2211.048981620909
bayes,scaled,train,val_inter_EWU+EU_sample_5pct,top_50,-1951.2053807260093,-4391.087984621954,-4410.26037621935,-27478.132597053773,-2194.418607698384
bayes,scaled,train,val_inter_EWU+EU_sample_5pct,all,-1979.3558907070492,-6008.042504112707,-3769.054276291857,-25089.630612394707,-2148.085650749921
bayes,scaled,train,test_inter_EWU+EU_sample_5pct,top_5,-2073.9204132762343,-936.275107620813,-1426.4945605315027,-478.4527013995636,-2080.797201202735
bayes,scaled,train,test_inter_EWU+EU_sample_5pct,top_10,-1991.4370447729184,-742.3589834008712,-1396.268889610941,-478.4527013995636,-2123.2311157546187
bayes,scaled,train,test_inter_EWU+EU_sample_5pct,top_25,-1997.3552982222247,-2543.474275731557,-4492.847940962487,-24289.174656560448,-2206.918545850312
bayes,scaled,train,test_inter_EWU+EU_sample_5pct,top_50,-1963.0327745358206,-3503.0681014607085,-3821.716384743543,-23278.614798750285,-2192.0216814924866
bayes,scaled,train,test_inter_EWU+EU_sample_5pct,all,-1962.372884587748,-5866.528433727216,-3509.5776017823214,-22938.00412952365,-2145.0462921597955
bayes,scaled,train,val+test_inter_EWU+EU_sample_5pct,top_5,-2037.0382049599305,-943.4500362842607,-1422.60480936592,-477.396462968274,-2173.4780101329943
bayes,scaled,train,val+test_inter_EWU+EU_sample_5pct,top_10,-1986.795592676905,-749.285187657568,-1398.4481493352343,-477.396462968274,-2125.698572880322
bayes,scaled,train,val+test_inter_EWU+EU_sample_5pct,top_25,-1982.2651708580008,-2584.188048345065,-4692.275855933837,-25672.70315403937,-2203.938234018332
bayes,scaled,train,val+test_inter_EWU+EU_sample_5pct,top_50,-1959.248081377114,-3880.147455593951,-4480.130422136104,-25393.531258063096,-2202.528227703375
bayes,scaled,train,val+test_inter_EWU+EU_sample_5pct,all,-1949.6192399755835,-5926.9677674429995,-3550.993197334229,-23675.372306571022,-2155.7710366251745
bayes,scaled,train,train_tweet_sample_5pct,top_5,-2077.7671562304745,-756.6193765124823,-1263.391552222203,-493.834302556752,-2178.8779418460144
bayes,scaled,train,train_tweet_sample_5pct,top_10,-1964.5836484904046,-945.1926383124547,-1315.2134412326716,-493.834302556752,-2015.878257551703
bayes,scaled,train,train_tweet_sample_5pct,top_25,-2044.71457345287,-8078.062248291579,-2988.6163500983366,-11481.797755462754,-2008.3499639195113
bayes,scaled,train,train_tweet_sample_5pct,top_50,-2046.6000852693576,-13544.1041607901,-3644.398177513066,-19032.60288557725,-1985.283046543688
bayes,scaled,train,train_tweet_sample_5pct,all,-1969.8507900617176,-13982.01455082188,-4011.950733258476,-28423.720839382106,-1883.5114754423166
bayes,scaled,train,val_tweet_sample_5pct,top_5,-2011.8016985856987,-731.8323677263568,-1187.0903192148512,-476.9748797257578,-2145.3735425317286
bayes,scaled,train,val_tweet_sample_5pct,top_10,-2317.947032099424,-1306.7174791664936,-1210.7925464827586,-476.9748797257578,-2130.264968676092
bayes,scaled,train,val_tweet_sample_5pct,top_25,-1992.3001154534936,-10208.980616183306,-1207.277512191044,-1143.312019848617,-2161.5005321027174
bayes,scaled,train,val_tweet_sample_5pct,top_50,-1927.645464129929,-19589.553668376986,-2380.167206863665,-9097.474108123311,-2085.4613386667834
bayes,scaled,train,val_tweet_sample_5pct,all,-2064.4733996916993,-18772.479000608564,-4583.02894886879,-34319.075050247666,-2029.610634797911
bayes,scaled,train,test_tweet_sample_5pct,top_5,-2005.2814944516683,-746.04780255604,-1184.7230961886125,-479.0966394481229,-2148.9627498531595
bayes,scaled,train,test_tweet_sample_5pct,top_10,-2346.209074483122,-1386.9134226440754,-1214.7556193219439,-479.0966394481229,-2147.3352655043886
bayes,scaled,train,test_tweet_sample_5pct,top_25,-2014.6881191200275,-10427.888928801456,-1218.2235032941305,-1240.6949755004387,-2169.1239628467747
bayes,scaled,train,test_tweet_sample_5pct,top_50,-1962.2483812071368,-19382.554695087703,-2425.2482813096485,-9945.018527949203,-2108.221438513326
bayes,scaled,train,test_tweet_sample_5pct,all,-2074.5751495222075,-18715.764190767088,-4627.366493574363,-34743.46295743371,-2040.6555539279611
bayes,scaled,train,val+test_tweet_sample_5pct,top_5,-2009.1385918259134,-739.1970667227101,-1180.9150569238693,-478.04170794948465,-2147.433870351644
bayes,scaled,train,val+test_tweet_sample_5pct,top_10,-2324.6083808606218,-1382.0438783256934,-1207.6408737758036,-478.04170794948465,-2128.517510067948
bayes,scaled,train,val+test_tweet_sample_5pct,top_25,-1971.0535328384826,-9030.257268776822,-1136.3316703995667,-813.6029099243747,-2166.1337936396394
bayes,scaled,train,val+test_tweet_sample_5pct,top_50,-1910.8557508181354,-18680.46213064299,-2122.4889994975174,-6517.899031951694,-2105.255718311805
bayes,scaled,train,val+test_tweet_sample_5pct,all,-2051.6927854779237,-18347.80670312404,-4467.315900092567,-33513.759076901144,-2031.9766089621735
bayes,scaled,train,train_random_sample_10pct,top_5,-2089.8887452222784,-818.7503984290096,-1329.2125010913494,-492.8739987171783,-2198.411640831081
bayes,scaled,train,train_random_sample_10pct,top_10,-2212.380522605988,-856.2875236899794,-1331.6069977196887,-492.8739987171783,-2079.2300480537574
bayes,scaled,train,train_random_sample_10pct,top_25,-1979.1378410137534,-7054.033254080051,-2434.0468302955264,-6847.690864534962,-1866.3273741077592
bayes,scaled,train,train_random_sample_10pct,top_50,-2012.201096426268,-12797.274332434989,-3059.547863943681,-13758.861039900496,-1886.4654233894837
bayes,scaled,train,train_random_sample_10pct,all,-1896.8616341945,-13646.570415967932,-3812.464396673651,-30174.06919027165,-1828.8786761633905
bayes,scaled,train,val_random_sample_10pct,top_5,-1990.0678538148654,-824.6139079356852,-1228.7683512575481,-477.42722822751404,-2112.284421753948
bayes,scaled,train,val_random_sample_10pct,top_10,-2187.6427116897967,-993.4712105178846,-1213.226612878602,-477.42722822751404,-2056.5654969234947
bayes,scaled,train,val_random_sample_10pct,top_25,-1941.318954107775,-7495.825749854906,-1505.0994920881344,-3348.4476256684784,-1934.4028625753647
bayes,scaled,train,val_random_sample_10pct,top_50,-1957.6966387671466,-15639.149782564411,-1949.7534722820426,-8243.015859009089,-1910.223348995286
bayes,scaled,train,val_random_sample_10pct,all,-1979.1770279836428,-15486.818607189995,-4234.7774007773,-36654.511212904305,-1907.5931301387368
bayes,scaled,train,test_random_sample_10pct,top_5,-2008.6303763928427,-814.0782871137801,-1218.448189991688,-477.74603746285624,-2118.136348822667
bayes,scaled,train,test_random_sample_10pct,top_10,-2174.706385879835,-975.6753312666817,-1207.6305117843142,-477.74603746285624,-2047.751653577997
bayes,scaled,train,test_random_sample_10pct,top_25,-1926.7889883702012,-7095.644031826093,-1372.8747915643767,-2466.6960129148997,-1938.8654814209979
bayes,scaled,train,test_random_sample_10pct,top_50,-1945.0922200657574,-15307.706230681419,-1595.0172980864081,-5484.264249604713,-1909.6597177130616
bayes,scaled,train,test_random_sample_10pct,all,-1971.4047920450907,-15405.402799277776,-4134.971033268637,-35683.68208663029,-1901.0406001523875
bayes,scaled,train,val+test_random_sample_10pct,top_5,-1986.199863961712,-824.2601206769441,-1216.7323279158036,-477.58733688684686,-2108.8932344971045
bayes,scaled,train,val+test_random_sample_10pct,top_10,-2157.46284118886,-960.1867079609738,-1202.1311087287932,-477.58733688684686,-2055.5220918247505
bayes,scaled,train,val+test_random_sample_10pct,top_25,-1936.6883489933907,-7569.509868586003,-1469.5638617439738,-2660.384426177969,-1907.1874192888486
bayes,scaled,train,val+test_random_sample_10pct,top_50,-1947.4848257997155,-14938.986888722613,-1742.1744930832958,-6497.32782143565,-1901.2363042919865
bayes,scaled,train,val+test_random_sample_10pct,all,-1976.697011640981,-15223.998236209956,-4249.943585357331,-35976.094150307435,-1901.2025629054453
bayes,scaled,train,train_EWU_sample_10pct,top_5,-2059.2610351319768,-1252.7194684629312,-1306.3520406616851,-492.7414239571757,-2133.0113290427757
bayes,scaled,train,train_EWU_sample_10pct,top_10,-2145.781231255587,-2089.9644755652066,-1309.5121267423492,-492.7414239571757,-2059.640168689646
bayes,scaled,train,train_EWU_sample_10pct,top_25,-1840.7668946816682,-8305.434223046843,-2616.4932991714113,-9994.060437260978,-1727.8173926247684
bayes,scaled,train,train_EWU_sample_10pct,top_50,-1854.3921199609736,-12060.364802762644,-3294.1527949193955,-22900.08397331061,-1753.3550717035507
bayes,scaled,train,train_EWU_sample_10pct,all,-1712.4815447665692,-12523.3510851218,-3360.745069364264,-32848.75914556907,-1678.8781395378965
bayes,scaled,train,val_EWU_sample_10pct,top_5,-2089.94948656858,-1324.782062558384,-1386.704271464252,-476.12493968513814,-2120.708157982976
bayes,scaled,train,val_EWU_sample_10pct,top_10,-2016.7388802825296,-872.4503808414515,-1373.907461970777,-476.12493968513814,-2161.571422234708
bayes,scaled,train,val_EWU_sample_10pct,top_25,-1957.7857379151865,-2484.0786127481783,-5179.638978133895,-29566.391920601807,-2162.624786982271
bayes,scaled,train,val_EWU_sample_10pct,top_50,-1975.230646156516,-871.2737073575624,-3684.933008906498,-21582.97280067189,-2251.8556116837017
bayes,scaled,train,val_EWU_sample_10pct,all,-1906.649224497794,-1709.2251302413622,-3561.537713516337,-19530.36577208203,-2165.8635338256227
bayes,scaled,train,test_EWU_sample_10pct,top_5,-2046.1277614572964,-1394.9817737450187,-1393.7075821502801,-477.7225202808819,-2176.137207684956
bayes,scaled,train,test_EWU_sample_10pct,top_10,-2028.6754946881408,-891.8775316630382,-1379.0626702205932,-477.7225202808819,-2138.695062677262
bayes,scaled,train,test_EWU_sample_10pct,top_25,-1975.8648583152687,-2648.17131555314,-4949.089670398287,-28059.84885125644,-2186.855153827698
bayes,scaled,train,test_EWU_sample_10pct,top_50,-2002.7766057571234,-793.4089842816885,-3365.4641041617024,-19724.282332357987,-2290.8077920577884
bayes,scaled,train,test_EWU_sample_10pct,all,-1925.3679516061584,-1744.7920080754013,-3476.0291406721117,-19122.93342410848,-2190.648164522189
bayes,scaled,train,val+test_EWU_sample_10pct,top_5,-2090.76036815205,-1354.275147484464,-1387.7890479469586,-477.13934780565813,-2125.6518345700983
bayes,scaled,train,val+test_EWU_sample_10pct,top_10,-2023.1606138133332,-879.3452776305472,-1372.2121589652984,-477.13934780565813,-2160.756803386769
bayes,scaled,train,val+test_EWU_sample_10pct,top_25,-1966.445504662305,-1880.3835676251401,-5045.351288382035,-27241.33240165326,-2161.7742592683976
bayes,scaled,train,val+test_EWU_sample_10pct,top_50,-1982.0046294349315,-792.5970327967879,-3676.7435074441632,-19628.932636899488,-2260.811324329064
bayes,scaled,train,val+test_EWU_sample_10pct,all,-1903.3704743424246,-1452.0605715298534,-3600.3346874066888,-18977.437544436576,-2163.870477162313
bayes,scaled,train,train_EU_sample_10pct,top_5,-2088.707787114321,-856.363860360242,-1338.38377514376,-492.8299299909731,-2189.581082856397
bayes,scaled,train,train_EU_sample_10pct,top_10,-2460.6923864896708,-920.3246709126704,-1361.1723888837755,-492.8299299909731,-2096.6028212012884
bayes,scaled,train,train_EU_sample_10pct,top_25,-1831.1678873958658,-6850.776689922516,-2083.814894506549,-8582.344751176326,-1803.2912786390455
bayes,scaled,train,train_EU_sample_10pct,top_50,-1865.7284072883215,-12708.126095140346,-2327.3536971706976,-15230.332302562067,-1834.5488507913408
bayes,scaled,train,train_EU_sample_10pct,all,-1572.264234648221,-13543.818869409683,-3077.4844167413066,-29827.820505614796,-1654.0951389388408
bayes,scaled,train,val_EU_sample_10pct,top_5,-1983.94224861669,-853.3726831252361,-1251.2260745759115,-481.5581590277963,-2118.2011488476182
bayes,scaled,train,val_EU_sample_10pct,top_10,-2191.3938417386435,-1213.6258515447364,-1207.468721948434,-481.5581590277963,-2057.984431758653
bayes,scaled,train,val_EU_sample_10pct,top_25,-2312.842569227045,-6459.314682637099,-2197.74235082191,-5594.081755850754,-2018.2820686211255
bayes,scaled,train,val_EU_sample_10pct,top_50,-2271.092616726093,-16138.778038167635,-5015.9707943826925,-20103.901117299964,-2021.3370883450114
bayes,scaled,train,val_EU_sample_10pct,all,-2083.7158135877685,-15365.653702864058,-4537.160115762596,-36470.39079242437,-1925.1295963984144
bayes,scaled,train,test_EU_sample_10pct,top_5,-2011.4611934860368,-850.9729974138279,-1252.1927784957188,-479.29780778013287,-2123.0068287509416
bayes,scaled,train,test_EU_sample_10pct,top_10,-2195.392705497311,-1205.4445408650504,-1214.853196729657,-479.29780778013287,-2059.6970615881255
bayes,scaled,train,test_EU_sample_10pct,top_25,-2245.001464771111,-6761.140591714053,-1855.4975649179116,-5579.214149061364,-1983.9155804636946
bayes,scaled,train,test_EU_sample_10pct,top_50,-2232.946789901898,-16267.095109362932,-4778.826651661675,-21750.457937970597,-2003.6504911017828
bayes,scaled,train,test_EU_sample_10pct,all,-2077.871925854862,-15554.506047419682,-4598.476696196742,-37875.35869582375,-1926.7937524624124
bayes,scaled,train,val+test_EU_sample_10pct,top_5,-1983.2180088747305,-854.93138062425,-1249.8307121310422,-480.42909823007153,-2106.181588538528
bayes,scaled,train,val+test_EU_sample_10pct,top_10,-2210.8967902593768,-1307.0411804517175,-1224.5662810078325,-480.42909823007153,-2066.880855862289
bayes,scaled,train,val+test_EU_sample_10pct,top_25,-2283.191928404835,-6243.795883354325,-1668.770240316159,-4180.178365446513,-1995.1275243937964
bayes,scaled,train,val+test_EU_sample_10pct,top_50,-2250.998857838349,-15344.286793647334,-4258.163269078888,-17343.340326102465,-2004.1828935432484
bayes,scaled,train,val+test_EU_sample_10pct,all,-2076.6034058190735,-15011.137912464907,-4416.088419508738,-35859.07331894602,-1924.7038831598668
bayes,scaled,train,train_inter_EWU+EU_sample_10pct,top_5,-2089.5996281268344,-937.9066822786001,-1324.9106519137827,-492.72853186102986,-2165.056835865121
bayes,scaled,train,train_inter_EWU+EU_sample_10pct,top_10,-2202.387650036729,-1004.73220534516,-1352.956606237028,-492.72853186102986,-2074.0879392479155
bayes,scaled,train,train_inter_EWU+EU_sample_10pct,top_25,-1860.456325109569,-7908.398938811592,-2449.8038415845767,-8072.416479623786,-1749.8986915137536
bayes,scaled,train,train_inter_EWU+EU_sample_10pct,top_50,-1880.5749635149034,-12674.137522419001,-3014.4079345816417,-18239.23852415811,-1767.9586788219513
bayes,scaled,train,train_inter_EWU+EU_sample_10pct,all,-1703.8257522888407,-13135.201153631022,-3290.2267299607374,-31805.02615560813,-1684.6771838859315
bayes,scaled,train,val_inter_EWU+EU_sample_10pct,top_5,-2070.305479644823,-988.6252349181312,-1383.5374892043885,-478.22697127192004,-2182.1457813007573
bayes,scaled,train,val_inter_EWU+EU_sample_10pct,top_10,-1956.5507141979565,-805.4962584659196,-1406.1364736122962,-478.22697127192004,-1918.4134342754064
bayes,scaled,train,val_inter_EWU+EU_sample_10pct,top_25,-1965.6881480926208,-3592.6710359734025,-4421.602469756856,-22973.868476493055,-2178.9162857676997
bayes,scaled,train,val_inter_EWU+EU_sample_10pct,top_50,-1949.5984809738893,-9252.490131544506,-4259.588210506989,-24630.012297021796,-2184.116715251947
bayes,scaled,train,val_inter_EWU+EU_sample_10pct,all,-1941.0776688704143,-8943.879496441214,-3615.5844561843815,-25602.541102054016,-2100.7969516660096
bayes,scaled,train,test_inter_EWU+EU_sample_10pct,top_5,-2040.3414355416903,-956.8776694533641,-1374.1721635647377,-476.94599517274804,-2168.4233046692475
bayes,scaled,train,test_inter_EWU+EU_sample_10pct,top_10,-2001.243137909078,-778.2517934078758,-1396.7934259884655,-476.94599517274804,-2024.8010221305517
bayes,scaled,train,test_inter_EWU+EU_sample_10pct,top_25,-2000.7747328568416,-4545.207493269008,-4583.381719003496,-24805.51372139061,-2167.6441261093432
bayes,scaled,train,test_inter_EWU+EU_sample_10pct,top_50,-1939.4452727830171,-10020.959416255908,-4362.639464652217,-25965.741106862282,-2168.5716344563216
bayes,scaled,train,test_inter_EWU+EU_sample_10pct,all,-1936.2831550179421,-9547.012064893588,-3715.0130854894014,-27651.802912753054,-2100.150139961029
bayes,scaled,train,val+test_inter_EWU+EU_sample_10pct,top_5,-2088.420385546178,-971.1687089456739,-1383.4318896030363,-477.58232794462384,-2176.1409693645696
bayes,scaled,train,val+test_inter_EWU+EU_sample_10pct,top_10,-1977.8803709303745,-786.3995443795668,-1431.286649920288,-477.58232794462384,-2045.8177321711337
bayes,scaled,train,val+test_inter_EWU+EU_sample_10pct,top_25,-1996.2502014263557,-3997.925292136049,-4112.755504910298,-22653.81063833131,-2181.42251095426
bayes,scaled,train,val+test_inter_EWU+EU_sample_10pct,top_50,-1939.9450242426617,-9328.622642563241,-3932.7476080646397,-23959.370086309555,-2182.759080665786
bayes,scaled,train,val+test_inter_EWU+EU_sample_10pct,all,-1929.2866792640627,-8939.939382138089,-3442.103824784571,-25358.95582922125,-2104.728332747984
bayes,scaled,train,train_tweet_sample_10pct,top_5,-2101.978953385727,-845.2415369571751,-1298.5686605954807,-493.6783821935986,-2183.274361483572
bayes,scaled,train,train_tweet_sample_10pct,top_10,-2047.6154681482053,-987.6131658099255,-1375.5159928486842,-493.6783821935986,-2112.899083520723
bayes,scaled,train,train_tweet_sample_10pct,top_25,-1924.51496547164,-8304.881254987778,-2599.3143486705185,-9442.33507216296,-1877.930420689855
bayes,scaled,train,train_tweet_sample_10pct,top_50,-1943.1069480893143,-13298.39931292758,-3229.6361663778293,-17621.440954540158,-1890.0459884725979
bayes,scaled,train,train_tweet_sample_10pct,all,-1860.4078825906872,-13678.671366689452,-3728.111422537465,-29490.647007379986,-1794.027075896631
bayes,scaled,train,val_tweet_sample_10pct,top_5,-2003.159806941553,-835.8643338758677,-1211.0893013619927,-478.6134332908813,-2126.067099526027
bayes,scaled,train,val_tweet_sample_10pct,top_10,-2259.2311249188515,-1376.4003336615285,-1251.7608965731438,-478.6134332908813,-2083.477376538254
bayes,scaled,train,val_tweet_sample_10pct,top_25,-1901.0228157681809,-11530.647384497557,-1396.063879431521,-3123.406090570724,-1984.905665301006
bayes,scaled,train,val_tweet_sample_10pct,top_50,-1847.7245233062615,-18879.806029923493,-1778.7177576394051,-13885.461692080926,-1926.8556894159449
bayes,scaled,train,val_tweet_sample_10pct,all,-1916.0447043676766,-17613.657095625163,-4059.1486766783582,-38136.792156432784,-1906.422372097726
bayes,scaled,train,test_tweet_sample_10pct,top_5,-2001.641596192996,-839.6636332403805,-1222.2726093746571,-478.429122132024,-2130.188249119545
bayes,scaled,train,test_tweet_sample_10pct,top_10,-2285.518610995102,-1386.2160533804786,-1268.7513274657833,-478.429122132024,-2099.2171473334915
bayes,scaled,train,test_tweet_sample_10pct,top_25,-1915.903898344992,-12127.778520771297,-1619.259480353997,-4921.076006431165,-1971.83534258493
bayes,scaled,train,test_tweet_sample_10pct,top_50,-1882.2607447484957,-19167.652347862007,-2310.985231569871,-17702.6544166917,-1923.9322264485136
bayes,scaled,train,test_tweet_sample_10pct,all,-1949.714676050793,-17822.37678818455,-4236.646753517866,-39032.22046788316,-1916.1629945704449
bayes,scaled,train,val+test_tweet_sample_10pct,top_5,-2002.8854684824064,-837.6792862954956,-1213.9383971441691,-478.5210062910063,-2129.8713188793577
bayes,scaled,train,val+test_tweet_sample_10pct,top_10,-2286.4317581295577,-1426.9753509575635,-1262.5950371073839,-478.5210062910063,-2100.260588513193
bayes,scaled,train,val+test_tweet_sample_10pct,top_25,-1906.587003606397,-10752.225707103536,-1392.7246942861202,-2659.073680021477,-1977.6658773269394
bayes,scaled,train,val+test_tweet_sample_10pct,top_50,-1865.3665940609017,-18192.561211933164,-1746.0822397930656,-12518.909568742729,-1920.7995140830117
bayes,scaled,train,val+test_tweet_sample_10pct,all,-1930.2738555645312,-17471.853180401595,-4094.1340273186775,-37699.519295817314,-1904.088547219418
