algorithm,note,trained_on,sample,feature_selection,like,reply,retweet,quote,react
forest,scaled,itself,val_EWU_sample_1pct,top_5,0.6746463806128865,0.5126592061333004,0.5524916532706814,0.5035756976216974,0.7261176370050946
forest,scaled,itself,val_EWU_sample_1pct,top_10,0.6745184992074515,0.5126592061333004,0.4362529864274395,0.5035756976216974,0.7260099651199614
forest,scaled,itself,val_EWU_sample_1pct,top_25,0.6781317591480404,0.5126592061333004,0.40300647019746,0.5035756976216974,0.7243688248132316
forest,scaled,itself,val_EWU_sample_1pct,top_50,0.6781967990177082,0.5126592061333004,0.4694846919421052,,
