evaluated_on,like,reply,retweet,quote,react
val_random_sample_1pct,478,458,446,446,441
val+test_random_sample_1pct,472,456,440,440,435
test_random_sample_1pct,450,433,426,426,421
val_tweet_sample_1pct,427,426,426,426,423
val_inter_EWU+EU_sample_1pct,425,425,424,424,421
val+test_tweet_sample_1pct,425,424,424,424,421
val+test_EWU_sample_1pct,423,423,423,424,421
val+test_inter_EWU+EU_sample_1pct,424,423,423,423,420
val_EWU_sample_1pct,424,424,424,424,421
val_EU_sample_1pct,420,420,420,420,417
test_tweet_sample_1pct,417,416,417,417,414
test_inter_EWU+EU_sample_1pct,417,416,416,416,413
test_EWU_sample_1pct,417,417,417,417,414
val+test_EU_sample_1pct,412,412,412,412,410
test_EU_sample_1pct,412,412,413,413,410
val_random_sample_2pct,213,202,179,176,173
test_random_sample_2pct,213,201,179,176,173
val+test_random_sample_2pct,213,202,179,176,173
val+test_tweet_sample_2pct,127,125,125,125,122
val_inter_EWU+EU_sample_2pct,127,125,125,125,122
val_tweet_sample_2pct,127,125,125,125,122
val+test_inter_EWU+EU_sample_2pct,127,125,125,125,122
test_tweet_sample_2pct,127,125,125,125,122
test_inter_EWU+EU_sample_2pct,126,124,124,124,121
val_EU_sample_2pct,123,122,122,122,119
val_EWU_sample_2pct,123,122,122,122,119
val+test_EWU_sample_2pct,123,122,122,122,119
val+test_EU_sample_2pct,123,121,121,121,118
test_EWU_sample_2pct,118,117,117,117,114
test_EU_sample_2pct,118,116,115,116,113
test_tweet_sample_5pct,101,98,98,98,95
val+test_tweet_sample_5pct,101,98,98,98,95
val+test_random_sample_5pct,101,98,98,98,95
val+test_inter_EWU+EU_sample_5pct,101,97,97,97,95
val_random_sample_5pct,101,98,98,98,95
val_tweet_sample_5pct,101,98,98,98,95
val_inter_EWU+EU_sample_5pct,101,98,98,98,95
test_random_sample_5pct,101,98,98,98,95
test_inter_EWU+EU_sample_5pct,101,98,98,98,95
val_random_sample_10pct,101,94,93,93,89
test_random_sample_10pct,101,95,92,92,89
val+test_random_sample_10pct,98,94,91,91,87
val+test_EU_sample_5pct,97,94,94,94,91
val_EWU_sample_5pct,97,94,94,94,91
val_EU_sample_5pct,97,94,94,94,91
test_EU_sample_5pct,97,94,94,94,91
val+test_EWU_sample_5pct,97,94,94,94,91
test_EWU_sample_5pct,97,94,94,94,91
test_EWU_sample_10pct,88,85,85,85,83
val_EWU_sample_10pct,88,86,86,86,83
val+test_EWU_sample_10pct,86,84,84,84,80
val_tweet_sample_10pct,81,75,71,71,68
test_tweet_sample_10pct,81,78,75,71,68
val+test_tweet_sample_10pct,81,81,80,71,68
val+test_inter_EWU+EU_sample_10pct,78,78,77,71,67
test_inter_EWU+EU_sample_10pct,78,78,76,73,67
val_inter_EWU+EU_sample_10pct,78,77,70,68,67
val_EU_sample_10pct,72,71,71,71,69
val+test_EU_sample_10pct,72,70,71,71,69
test_EU_sample_10pct,72,71,71,71,69
test,65,65,65,65,62
val+test,65,65,65,65,62
val,65,65,65,65,62
train_random_sample_1pct,40,39,36,33,32
train_EWU_sample_1pct,25,21,21,21,21
train_random_sample_2pct,23,23,23,23,23
train_inter_EWU+EU_sample_2pct,23,23,23,23,23
train_inter_EWU+EU_sample_1pct,23,23,23,23,23
train_EU_sample_1pct,21,21,21,21,20
train_EWU_sample_2pct,20,20,20,20,20
train_EWU_sample_5pct,20,20,20,20,20
train_EU_sample_5pct,20,20,20,20,20
train_EU_sample_2pct,20,20,20,20,20
train_inter_EWU+EU_sample_5pct,20,20,20,20,20
train_random_sample_10pct,20,17,16,16,16
train_random_sample_5pct,20,20,20,20,20
train_tweet_sample_1pct,20,20,20,20,20
train_tweet_sample_2pct,20,20,20,20,20
train_tweet_sample_5pct,20,20,20,20,20
train_EWU_sample_10pct,16,15,15,15,15
train_inter_EWU+EU_sample_10pct,15,10,10,11,9
train_EU_sample_10pct,15,15,15,15,15
train_tweet_sample_10pct,15,7,5,5,5
