target,algorithm,note,feature_selection,trained_on,evaluated_on,PRAUC
like,tree,scaled,top_50,train_tweet_sample_10pct,train_tweet_sample_10pct,0.7968879817702101
reply,GradientBoosting,scaled,top_10,train_EWU_sample_1pct,train_EWU_sample_1pct,0.5142210959771936
retweet,bayes,scaled,all,train_EWU_sample_1pct,train_EWU_sample_1pct,0.5562014570795059
quote,tree,oracle_scaled,all,test_EWU_sample_1pct,test_EWU_sample_1pct,0.50815258480793
react,tree,oracle_scaled,all,train_EWU_sample_1pct,train_EWU_sample_1pct,0.808994850992596
