target,algorithm,note,feature_selection,trained_on,evaluated_on,RCE
like,tree,scaled,top_50,train_tweet_sample_10pct,train_tweet_sample_10pct,-1022.9493392866048
reply,tree,scaled,top_5,val_EU_sample_1pct,val_EU_sample_1pct,-634.6638164549096
retweet,tree,scaled,all,train_EU_sample_10pct,train_EU_sample_10pct,-794.8307016359768
quote,tree,scaled,all,test_EWU_sample_1pct,test_EWU_sample_1pct,-464.95161000078025
react,tree,oracle_scaled,all,val_EWU_sample_1pct,val_EWU_sample_1pct,-1133.4364669608162
